Circuiti_2/data/ALL0007/F0007CH1.CSV

Record Length,2.500000e+03,,  -0.000100000000,  -7.94240,
Sample Interval,1.000000e-06,,  -0.000099000000,  -8.05120,
Trigger Point,1.000000000000e+02,,  -0.000098000000,  -8.16000,
,,,  -0.000097000000,  -7.94240,
,,,  -0.000096000000,  -8.05120,
,,,  -0.000095000000,  -8.16000,
Source,CH1,,  -0.000094000000,  -8.05120,
Vertical Units,V,,  -0.000093000000,  -7.94240,
Vertical Scale,2.720000e+00,,  -0.000092000000,  -7.83360,
Vertical Offset,3.264000e-01,,  -0.000091000000,  -7.83360,
Horizontal Units,s,,  -0.000090000000,  -7.94240,
Horizontal Scale,2.500000e-04,,  -0.000089000000,  -7.94240,
Pt Fmt,Y,,  -0.000088000000,  -7.94240,
Yzero,0.000000e+00,,  -0.000087000000,  -8.16000,
Probe Atten,1.000000e+01,,  -0.000086000000,  -8.16000,
Model Number,TDS1001C-EDU,,  -0.000085000000,  -7.94240,
Serial Number,C013086,,  -0.000084000000,  -7.94240,
Firmware Version,FV:v25.07,,  -0.000083000000,  -7.94240,
,,,-00.000082000000,  -7.94240,
,,,-00.000081000000,  -8.05120,
,,,-00.000080000000,  -7.94240,
,,,-00.000079000000,  -7.94240,
,,,-00.000078000000,  -8.16000,
,,,-00.000077000000,  -7.94240,
,,,-00.000076000000,  -8.16000,
,,,-00.000075000000,  -7.94240,
,,,-00.000074000000,  -7.94240,
,,,-00.000073000000,  -7.94240,
,,,-00.000072000000,  -8.16000,
,,,-00.000071000000,  -7.94240,
,,,-00.000070000000,  -8.05120,
,,,-00.000069000000,  -7.94240,
,,,-00.000068000000,  -8.05120,
,,,-00.000067000000,  -7.94240,
,,,-00.000066000000,  -8.16000,
,,,-00.000065000000,  -7.94240,
,,,-00.000064000000,  -7.94240,
,,,-00.000063000000,  -7.94240,
,,,-00.000062000000,  -8.05120,
,,,-00.000061000000,  -8.16000,
,,,-00.000060000000,  -8.05120,
,,,-00.000059000000,  -8.16000,
,,,-00.000058000000,  -7.94240,
,,,-00.000057000000,  -8.05120,
,,,-00.000056000000,  -8.16000,
,,,-00.000055000000,  -8.05120,
,,,-00.000054000000,  -8.05120,
,,,-00.000053000000,  -7.94240,
,,,-00.000052000000,  -7.94240,
,,,-00.000051000000,  -7.94240,
,,,-00.000050000000,  -7.94240,
,,,-00.000049000000,  -8.05120,
,,,-00.000048000000,  -8.05120,
,,,-00.000047000000,  -8.05120,
,,,-00.000046000000,  -8.05120,
,,,-00.000045000000,  -8.16000,
,,,-00.000044000000,  -7.94240,
,,,-00.000043000000,  -7.94240,
,,,-00.000042000000,  -8.16000,
,,,-00.000041000000,  -7.94240,
,,,-00.000040000000,  -7.94240,
,,,-00.000039000000,  -8.05120,
,,,-00.000038000000,  -7.94240,
,,,-00.000037000000,  -8.05120,
,,,-00.000036000000,  -7.94240,
,,,-00.000035000000,  -7.94240,
,,,-00.000034000000,  -8.05120,
,,,-00.000033000000,  -7.94240,
,,,-00.000032000000,  -8.16000,
,,,-00.000031000000,  -7.72480,
,,,-00.000030000000,  -7.94240,
,,,-00.000029000000,  -7.94240,
,,,-00.000028000000,  -8.05120,
,,,-00.000027000000,  -8.16000,
,,,-00.000026000000,  -7.94240,
,,,-00.000025000000,  -7.94240,
,,,-00.000024000000,  -7.94240,
,,,-00.000023000000,  -7.83360,
,,,-00.000022000000,  -8.05120,
,,,-00.000021000000,  -8.16000,
,,,-00.000020000000,  -7.94240,
,,,-00.000019000000,  -7.94240,
,,,-00.000018000000,  -7.94240,
,,,-00.000017000000,  -8.16000,
,,,-00.000016000000,  -8.05120,
,,,-00.000015000000,  -8.16000,
,,,-00.000014000000,  -7.94240,
,,,-00.000013000000,  -7.94240,
,,,-00.000012000000,  -8.16000,
,,,-00.000011000000,  -8.16000,
,,,-00.000010000000,  -7.94240,
,,,-00.000009000000,  -7.94240,
,,,-00.000008000000,  -8.16000,
,,,-00.000007000000,  -7.94240,
,,,-00.000006000000,  -8.05120,
,,,-00.000005000000,  -7.83360,
,,,-00.000004000000,  -8.05120,
,,,-00.000003000000,  -7.94240,
,,,-00.000002000000,  -7.94240,
,,,-00.000001000000,  -7.94240,
,,,-00.000000000000,  -7.94240,
,,,00.000001000000,  -7.94240,
,,,00.000002000000,  -7.94240,
,,,00.000003000000,   8.26880,
,,,00.000004000000,   8.05120,
,,,00.000005000000,   7.94240,
,,,00.000006000000,   7.94240,
,,,00.000007000000,   8.16000,
,,,00.000008000000,   8.16000,
,,,00.000009000000,   8.16000,
,,,00.000010000000,   8.05120,
,,,00.000011000000,   8.05120,
,,,00.000012000000,   7.94240,
,,,00.000013000000,   8.16000,
,,,00.000014000000,   8.16000,
,,,00.000015000000,   8.16000,
,,,00.000016000000,   8.26880,
,,,00.000017000000,   8.26880,
,,,00.000018000000,   8.26880,
,,,00.000019000000,   8.05120,
,,,00.000020000000,   8.16000,
,,,00.000021000000,   8.26880,
,,,00.000022000000,   7.94240,
,,,00.000023000000,   8.16000,
,,,00.000024000000,   8.16000,
,,,00.000025000000,   8.16000,
,,,00.000026000000,   8.26880,
,,,00.000027000000,   8.26880,
,,,00.000028000000,   8.16000,
,,,00.000029000000,   8.16000,
,,,00.000030000000,   8.16000,
,,,00.000031000000,   8.16000,
,,,00.000032000000,   8.26880,
,,,00.000033000000,   8.16000,
,,,00.000034000000,   8.26880,
,,,00.000035000000,   8.16000,
,,,00.000036000000,   8.05120,
,,,00.000037000000,   8.26880,
,,,00.000038000000,   8.26880,
,,,00.000039000000,   8.26880,
,,,00.000040000000,   8.37760,
,,,00.000041000000,   8.26880,
,,,00.000042000000,   8.26880,
,,,00.000043000000,   8.26880,
,,,00.000044000000,   8.16000,
,,,00.000045000000,   8.16000,
,,,00.000046000000,   8.16000,
,,,00.000047000000,   8.26880,
,,,00.000048000000,   8.26880,
,,,00.000049000000,   8.16000,
,,,00.000050000000,   8.37760,
,,,00.000051000000,   8.37760,
,,,00.000052000000,   8.37760,
,,,00.000053000000,   8.26880,
,,,00.000054000000,   8.16000,
,,,00.000055000000,   8.16000,
,,,00.000056000000,   8.05120,
,,,00.000057000000,   8.16000,
,,,00.000058000000,   8.26880,
,,,00.000059000000,   8.26880,
,,,00.000060000000,   8.26880,
,,,00.000061000000,   8.16000,
,,,00.000062000000,   8.26880,
,,,00.000063000000,   8.26880,
,,,00.000064000000,   8.37760,
,,,00.000065000000,   8.26880,
,,,00.000066000000,   8.16000,
,,,00.000067000000,   8.26880,
,,,00.000068000000,   8.26880,
,,,00.000069000000,   8.26880,
,,,00.000070000000,   8.16000,
,,,00.000071000000,   8.16000,
,,,00.000072000000,   8.26880,
,,,00.000073000000,   8.16000,
,,,00.000074000000,   8.26880,
,,,00.000075000000,   8.37760,
,,,00.000076000000,   8.26880,
,,,00.000077000000,   8.26880,
,,,00.000078000000,   8.26880,
,,,00.000079000000,   8.26880,
,,,00.000080000000,   8.26880,
,,,00.000081000000,   8.26880,
,,,00.000082000000,   8.16000,
,,,00.000083000000,   8.16000,
,,,00.000084000000,   8.26880,
,,,00.000085000000,   8.26880,
,,,00.000086000000,   8.16000,
,,,00.000087000000,   8.16000,
,,,00.000088000000,   8.26880,
,,,00.000089000000,   8.26880,
,,,00.000090000000,   8.26880,
,,,00.000091000000,   8.26880,
,,,00.000092000000,   8.26880,
,,,00.000093000000,   8.26880,
,,,00.000094000000,   8.26880,
,,,00.000095000000,   8.26880,
,,,00.000096000000,   8.16000,
,,,00.000097000000,   8.26880,
,,,00.000098000000,   8.16000,
,,,00.000099000000,   8.26880,
,,,00.000100000000,   8.16000,
,,,00.000101000000,   8.26880,
,,,00.000102000000,   8.26880,
,,,00.000103000000,   8.26880,
,,,00.000104000000,   8.26880,
,,,00.000105000000,   8.26880,
,,,00.000106000000,   8.16000,
,,,00.000107000000,   8.26880,
,,,00.000108000000,   8.16000,
,,,00.000109000000,   8.16000,
,,,00.000110000000,   8.26880,
,,,00.000111000000,   8.26880,
,,,00.000112000000,   8.37760,
,,,00.000113000000,   8.26880,
,,,00.000114000000,   8.37760,
,,,00.000115000000,   8.37760,
,,,00.000116000000,   8.26880,
,,,00.000117000000,   8.26880,
,,,00.000118000000,   8.26880,
,,,00.000119000000,   8.16000,
,,,00.000120000000,   8.16000,
,,,00.000121000000,   8.26880,
,,,00.000122000000,   8.16000,
,,,00.000123000000,   8.37760,
,,,00.000124000000,   8.26880,
,,,00.000125000000,   8.37760,
,,,00.000126000000,   8.26880,
,,,00.000127000000,   8.37760,
,,,00.000128000000,   8.16000,
,,,00.000129000000,   8.26880,
,,,00.000130000000,   8.26880,
,,,00.000131000000,   8.26880,
,,,00.000132000000,   8.16000,
,,,00.000133000000,   8.16000,
,,,00.000134000000,   8.26880,
,,,00.000135000000,   8.26880,
,,,00.000136000000,   8.37760,
,,,00.000137000000,   8.16000,
,,,00.000138000000,   8.26880,
,,,00.000139000000,   8.26880,
,,,00.000140000000,   8.37760,
,,,00.000141000000,   8.37760,
,,,00.000142000000,   8.37760,
,,,00.000143000000,   8.16000,
,,,00.000144000000,   8.26880,
,,,00.000145000000,   8.26880,
,,,00.000146000000,   8.37760,
,,,00.000147000000,   8.37760,
,,,00.000148000000,   8.37760,
,,,00.000149000000,   8.26880,
,,,00.000150000000,   8.26880,
,,,00.000151000000,   8.37760,
,,,00.000152000000,   8.37760,
,,,00.000153000000,   8.26880,
,,,00.000154000000,   8.26880,
,,,00.000155000000,   8.37760,
,,,00.000156000000,   8.37760,
,,,00.000157000000,   8.26880,
,,,00.000158000000,   8.26880,
,,,00.000159000000,   8.26880,
,,,00.000160000000,   8.26880,
,,,00.000161000000,   8.26880,
,,,00.000162000000,   8.26880,
,,,00.000163000000,   8.37760,
,,,00.000164000000,   8.37760,
,,,00.000165000000,   8.37760,
,,,00.000166000000,   8.26880,
,,,00.000167000000,   8.37760,
,,,00.000168000000,   8.37760,
,,,00.000169000000,   8.26880,
,,,00.000170000000,   8.26880,
,,,00.000171000000,   8.26880,
,,,00.000172000000,   8.26880,
,,,00.000173000000,   8.37760,
,,,00.000174000000,   8.26880,
,,,00.000175000000,   8.26880,
,,,00.000176000000,   8.37760,
,,,00.000177000000,   8.26880,
,,,00.000178000000,   8.26880,
,,,00.000179000000,   8.26880,
,,,00.000180000000,   8.37760,
,,,00.000181000000,   8.37760,
,,,00.000182000000,   8.26880,
,,,00.000183000000,   8.26880,
,,,00.000184000000,   8.26880,
,,,00.000185000000,   8.37760,
,,,00.000186000000,   8.26880,
,,,00.000187000000,   8.37760,
,,,00.000188000000,   8.37760,
,,,00.000189000000,   8.37760,
,,,00.000190000000,   8.37760,
,,,00.000191000000,   8.37760,
,,,00.000192000000,   8.37760,
,,,00.000193000000,   8.26880,
,,,00.000194000000,   8.26880,
,,,00.000195000000,   8.37760,
,,,00.000196000000,   8.26880,
,,,00.000197000000,   8.37760,
,,,00.000198000000,   8.26880,
,,,00.000199000000,   8.37760,
,,,00.000200000000,   8.26880,
,,,00.000201000000,   8.37760,
,,,00.000202000000,   8.37760,
,,,00.000203000000,   8.26880,
,,,00.000204000000,   8.26880,
,,,00.000205000000,   8.37760,
,,,00.000206000000,   8.26880,
,,,00.000207000000,   8.16000,
,,,00.000208000000,   8.37760,
,,,00.000209000000,   8.26880,
,,,00.000210000000,   8.37760,
,,,00.000211000000,   8.26880,
,,,00.000212000000,   8.37760,
,,,00.000213000000,   8.37760,
,,,00.000214000000,   8.37760,
,,,00.000215000000,   8.48640,
,,,00.000216000000,   8.37760,
,,,00.000217000000,   8.37760,
,,,00.000218000000,   8.26880,
,,,00.000219000000,   8.37760,
,,,00.000220000000,   8.37760,
,,,00.000221000000,   8.26880,
,,,00.000222000000,   8.37760,
,,,00.000223000000,   8.26880,
,,,00.000224000000,   8.26880,
,,,00.000225000000,   8.37760,
,,,00.000226000000,   8.37760,
,,,00.000227000000,   8.26880,
,,,00.000228000000,   8.26880,
,,,00.000229000000,   8.37760,
,,,00.000230000000,   8.37760,
,,,00.000231000000,   8.48640,
,,,00.000232000000,   8.37760,
,,,00.000233000000,   8.37760,
,,,00.000234000000,   8.37760,
,,,00.000235000000,   8.26880,
,,,00.000236000000,   8.48640,
,,,00.000237000000,   8.37760,
,,,00.000238000000,   8.37760,
,,,00.000239000000,   8.37760,
,,,00.000240000000,   8.37760,
,,,00.000241000000,   8.26880,
,,,00.000242000000,   8.16000,
,,,00.000243000000,   8.48640,
,,,00.000244000000,   8.37760,
,,,00.000245000000,   8.16000,
,,,00.000246000000,   8.26880,
,,,00.000247000000,   8.48640,
,,,00.000248000000,   8.37760,
,,,00.000249000000,   8.48640,
,,,00.000250000000,   8.37760,
,,,00.000251000000,   8.37760,
,,,00.000252000000,   8.37760,
,,,00.000253000000,   8.37760,
,,,00.000254000000,   8.26880,
,,,00.000255000000,   8.37760,
,,,00.000256000000,   8.37760,
,,,00.000257000000,   8.37760,
,,,00.000258000000,   8.26880,
,,,00.000259000000,   8.26880,
,,,00.000260000000,   8.26880,
,,,00.000261000000,   8.26880,
,,,00.000262000000,   8.26880,
,,,00.000263000000,   8.37760,
,,,00.000264000000,   8.26880,
,,,00.000265000000,   8.37760,
,,,00.000266000000,   8.26880,
,,,00.000267000000,   8.37760,
,,,00.000268000000,   8.37760,
,,,00.000269000000,   8.26880,
,,,00.000270000000,   8.37760,
,,,00.000271000000,   8.26880,
,,,00.000272000000,   8.37760,
,,,00.000273000000,   8.37760,
,,,00.000274000000,   8.37760,
,,,00.000275000000,   8.48640,
,,,00.000276000000,   8.37760,
,,,00.000277000000,   8.37760,
,,,00.000278000000,   8.37760,
,,,00.000279000000,   8.37760,
,,,00.000280000000,   8.26880,
,,,00.000281000000,   8.48640,
,,,00.000282000000,   8.26880,
,,,00.000283000000,   8.37760,
,,,00.000284000000,   8.26880,
,,,00.000285000000,   8.26880,
,,,00.000286000000,   8.26880,
,,,00.000287000000,   8.26880,
,,,00.000288000000,   8.26880,
,,,00.000289000000,   8.26880,
,,,00.000290000000,   8.26880,
,,,00.000291000000,   8.37760,
,,,00.000292000000,   8.26880,
,,,00.000293000000,   8.37760,
,,,00.000294000000,   8.37760,
,,,00.000295000000,   8.37760,
,,,00.000296000000,   8.37760,
,,,00.000297000000,   8.26880,
,,,00.000298000000,   8.26880,
,,,00.000299000000,   8.26880,
,,,00.000300000000,   8.48640,
,,,00.000301000000,   8.37760,
,,,00.000302000000,   8.26880,
,,,00.000303000000,   8.37760,
,,,00.000304000000,   8.37760,
,,,00.000305000000,   8.37760,
,,,00.000306000000,   8.37760,
,,,00.000307000000,   8.37760,
,,,00.000308000000,   8.37760,
,,,00.000309000000,   8.48640,
,,,00.000310000000,   8.37760,
,,,00.000311000000,   8.37760,
,,,00.000312000000,   8.37760,
,,,00.000313000000,   8.37760,
,,,00.000314000000,   8.37760,
,,,00.000315000000,   8.37760,
,,,00.000316000000,   8.37760,
,,,00.000317000000,   8.26880,
,,,00.000318000000,   8.37760,
,,,00.000319000000,   8.37760,
,,,00.000320000000,   8.37760,
,,,00.000321000000,   8.37760,
,,,00.000322000000,   8.37760,
,,,00.000323000000,   8.37760,
,,,00.000324000000,   8.26880,
,,,00.000325000000,   8.37760,
,,,00.000326000000,   8.26880,
,,,00.000327000000,   8.26880,
,,,00.000328000000,   8.26880,
,,,00.000329000000,   8.48640,
,,,00.000330000000,   8.37760,
,,,00.000331000000,   8.37760,
,,,00.000332000000,   8.37760,
,,,00.000333000000,   8.26880,
,,,00.000334000000,   8.37760,
,,,00.000335000000,   8.37760,
,,,00.000336000000,   8.37760,
,,,00.000337000000,   8.37760,
,,,00.000338000000,   8.37760,
,,,00.000339000000,   8.37760,
,,,00.000340000000,   8.37760,
,,,00.000341000000,   8.37760,
,,,00.000342000000,   8.26880,
,,,00.000343000000,   8.37760,
,,,00.000344000000,   8.48640,
,,,00.000345000000,   8.26880,
,,,00.000346000000,   8.37760,
,,,00.000347000000,   8.37760,
,,,00.000348000000,   8.26880,
,,,00.000349000000,   8.26880,
,,,00.000350000000,   8.37760,
,,,00.000351000000,   8.37760,
,,,00.000352000000,   8.26880,
,,,00.000353000000,   8.26880,
,,,00.000354000000,   8.26880,
,,,00.000355000000,   8.37760,
,,,00.000356000000,   8.26880,
,,,00.000357000000,   8.26880,
,,,00.000358000000,   8.37760,
,,,00.000359000000,   8.37760,
,,,00.000360000000,   8.37760,
,,,00.000361000000,   8.37760,
,,,00.000362000000,   8.26880,
,,,00.000363000000,   8.26880,
,,,00.000364000000,   8.37760,
,,,00.000365000000,   8.26880,
,,,00.000366000000,   8.26880,
,,,00.000367000000,   8.37760,
,,,00.000368000000,   8.37760,
,,,00.000369000000,   8.48640,
,,,00.000370000000,   8.37760,
,,,00.000371000000,   8.37760,
,,,00.000372000000,   8.37760,
,,,00.000373000000,   8.37760,
,,,00.000374000000,   8.37760,
,,,00.000375000000,   8.26880,
,,,00.000376000000,   8.37760,
,,,00.000377000000,   8.37760,
,,,00.000378000000,   8.37760,
,,,00.000379000000,   8.26880,
,,,00.000380000000,   8.26880,
,,,00.000381000000,   8.37760,
,,,00.000382000000,   8.37760,
,,,00.000383000000,   8.26880,
,,,00.000384000000,   8.26880,
,,,00.000385000000,   8.37760,
,,,00.000386000000,   8.26880,
,,,00.000387000000,   8.37760,
,,,00.000388000000,   8.37760,
,,,00.000389000000,   8.26880,
,,,00.000390000000,   8.37760,
,,,00.000391000000,   8.37760,
,,,00.000392000000,   8.48640,
,,,00.000393000000,   8.48640,
,,,00.000394000000,   8.26880,
,,,00.000395000000,   8.37760,
,,,00.000396000000,   8.48640,
,,,00.000397000000,   8.48640,
,,,00.000398000000,   8.37760,
,,,00.000399000000,   8.37760,
,,,00.000400000000,   8.37760,
,,,00.000401000000,   8.37760,
,,,00.000402000000,   8.26880,
,,,00.000403000000,   8.48640,
,,,00.000404000000,   8.37760,
,,,00.000405000000,   8.37760,
,,,00.000406000000,   8.37760,
,,,00.000407000000,   8.37760,
,,,00.000408000000,   8.37760,
,,,00.000409000000,   8.37760,
,,,00.000410000000,   8.37760,
,,,00.000411000000,   8.37760,
,,,00.000412000000,   8.26880,
,,,00.000413000000,   8.37760,
,,,00.000414000000,   8.26880,
,,,00.000415000000,   8.26880,
,,,00.000416000000,   8.26880,
,,,00.000417000000,   8.26880,
,,,00.000418000000,   8.37760,
,,,00.000419000000,   8.37760,
,,,00.000420000000,   8.26880,
,,,00.000421000000,   8.37760,
,,,00.000422000000,   8.37760,
,,,00.000423000000,   8.37760,
,,,00.000424000000,   8.37760,
,,,00.000425000000,   8.37760,
,,,00.000426000000,   8.37760,
,,,00.000427000000,   8.37760,
,,,00.000428000000,   8.37760,
,,,00.000429000000,   8.26880,
,,,00.000430000000,   8.48640,
,,,00.000431000000,   8.26880,
,,,00.000432000000,   8.26880,
,,,00.000433000000,   8.37760,
,,,00.000434000000,   8.26880,
,,,00.000435000000,   8.37760,
,,,00.000436000000,   8.26880,
,,,00.000437000000,   8.37760,
,,,00.000438000000,   8.37760,
,,,00.000439000000,   8.16000,
,,,00.000440000000,   8.26880,
,,,00.000441000000,   8.26880,
,,,00.000442000000,   8.16000,
,,,00.000443000000,   8.37760,
,,,00.000444000000,   8.37760,
,,,00.000445000000,   8.26880,
,,,00.000446000000,   8.26880,
,,,00.000447000000,   8.37760,
,,,00.000448000000,   8.48640,
,,,00.000449000000,   8.37760,
,,,00.000450000000,   8.37760,
,,,00.000451000000,   8.37760,
,,,00.000452000000,   8.48640,
,,,00.000453000000,   8.26880,
,,,00.000454000000,   8.37760,
,,,00.000455000000,   8.37760,
,,,00.000456000000,   8.48640,
,,,00.000457000000,   8.37760,
,,,00.000458000000,   8.37760,
,,,00.000459000000,   8.26880,
,,,00.000460000000,   8.26880,
,,,00.000461000000,   8.26880,
,,,00.000462000000,   8.26880,
,,,00.000463000000,   8.48640,
,,,00.000464000000,   8.26880,
,,,00.000465000000,   8.26880,
,,,00.000466000000,   8.48640,
,,,00.000467000000,   8.26880,
,,,00.000468000000,   8.48640,
,,,00.000469000000,   8.26880,
,,,00.000470000000,   8.37760,
,,,00.000471000000,   8.37760,
,,,00.000472000000,   8.37760,
,,,00.000473000000,   8.16000,
,,,00.000474000000,   8.26880,
,,,00.000475000000,   8.37760,
,,,00.000476000000,   8.26880,
,,,00.000477000000,   8.26880,
,,,00.000478000000,   8.37760,
,,,00.000479000000,   8.37760,
,,,00.000480000000,   8.48640,
,,,00.000481000000,   8.48640,
,,,00.000482000000,   8.26880,
,,,00.000483000000,   8.26880,
,,,00.000484000000,   8.37760,
,,,00.000485000000,   8.37760,
,,,00.000486000000,   8.37760,
,,,00.000487000000,   8.37760,
,,,00.000488000000,   8.37760,
,,,00.000489000000,   8.37760,
,,,00.000490000000,   8.37760,
,,,00.000491000000,   8.37760,
,,,00.000492000000,   8.26880,
,,,00.000493000000,   8.48640,
,,,00.000494000000,   8.37760,
,,,00.000495000000,   8.48640,
,,,00.000496000000,   8.48640,
,,,00.000497000000,   8.37760,
,,,00.000498000000,   8.37760,
,,,00.000499000000,   8.26880,
,,,00.000500000000,   8.37760,
,,,00.000501000000,   8.37760,
,,,00.000502000000,   8.37760,
,,,00.000503000000,   8.26880,
,,,00.000504000000,   8.37760,
,,,00.000505000000,   8.26880,
,,,00.000506000000,   8.37760,
,,,00.000507000000,   8.48640,
,,,00.000508000000,   8.37760,
,,,00.000509000000,   8.37760,
,,,00.000510000000,   8.37760,
,,,00.000511000000,   8.37760,
,,,00.000512000000,   8.37760,
,,,00.000513000000,   8.37760,
,,,00.000514000000,   8.26880,
,,,00.000515000000,   8.37760,
,,,00.000516000000,   8.37760,
,,,00.000517000000,   8.37760,
,,,00.000518000000,   8.37760,
,,,00.000519000000,   8.48640,
,,,00.000520000000,   8.37760,
,,,00.000521000000,   8.26880,
,,,00.000522000000,   8.37760,
,,,00.000523000000,   8.37760,
,,,00.000524000000,   8.37760,
,,,00.000525000000,   8.37760,
,,,00.000526000000,   8.37760,
,,,00.000527000000,   8.37760,
,,,00.000528000000,   8.48640,
,,,00.000529000000,   8.48640,
