Circuiti_3/data.leo/RLC_R/27000/F0022MTH.CSV

Record Length,2.500000e+03,,  -0.000014800000,  -2.96000,
Sample Interval,2.000000e-08,,  -0.000014780000,  -2.88000,
Trigger Point,7.400000000000e+02,,  -0.000014760000,  -2.96000,
,,,  -0.000014740000,  -3.12000,
,,,  -0.000014720000,  -3.20000,
,,,  -0.000014700000,  -2.96000,
Source,MATH,,  -0.000014680000,  -3.12000,
Vertical Units,V,,  -0.000014660000,  -3.12000,
Vertical Scale,2.000000e+00,,  -0.000014640000,  -3.20000,
Vertical Offset,0.000000e+00,,  -0.000014620000,  -3.20000,
Horizontal Units,s,,  -0.000014600000,  -3.12000,
Horizontal Scale,5.000000e-06,,  -0.000014580000,  -3.04000,
Pt Fmt,Y,,  -0.000014560000,  -3.20000,
Yzero,0.000000e+00,,  -0.000014540000,  -2.96000,
Probe Atten,1.000000e+00,,  -0.000014520000,  -3.20000,
Model Number,TDS2012C,,  -0.000014500000,  -3.04000,
Serial Number,C050125,,  -0.000014480000,  -3.28000,
Firmware Version,FV:v24.26,,  -0.000014460000,  -3.12000,
,,,-00.000014440000,  -3.20000,
,,,-00.000014420000,  -3.20000,
,,,-00.000014400000,  -3.12000,
,,,-00.000014380000,  -3.12000,
,,,-00.000014360000,  -3.20000,
,,,-00.000014340000,  -3.28000,
,,,-00.000014320000,  -3.20000,
,,,-00.000014300000,  -3.36000,
,,,-00.000014280000,  -3.28000,
,,,-00.000014260000,  -3.20000,
,,,-00.000014240000,  -3.28000,
,,,-00.000014220000,  -3.20000,
,,,-00.000014200000,  -3.28000,
,,,-00.000014180000,  -3.28000,
,,,-00.000014160000,  -3.20000,
,,,-00.000014140000,  -3.36000,
,,,-00.000014120000,  -3.28000,
,,,-00.000014100000,  -3.28000,
,,,-00.000014080000,  -3.36000,
,,,-00.000014060000,  -3.36000,
,,,-00.000014040000,  -3.28000,
,,,-00.000014020000,  -3.28000,
,,,-00.000014000000,  -3.36000,
,,,-00.000013980000,  -3.36000,
,,,-00.000013960000,  -3.36000,
,,,-00.000013940000,  -3.28000,
,,,-00.000013920000,  -3.36000,
,,,-00.000013900000,  -3.36000,
,,,-00.000013880000,  -3.36000,
,,,-00.000013860000,  -3.52000,
,,,-00.000013840000,  -3.52000,
,,,-00.000013820000,  -3.44000,
,,,-00.000013800000,  -3.44000,
,,,-00.000013780000,  -3.44000,
,,,-00.000013760000,  -3.36000,
,,,-00.000013740000,  -3.52000,
,,,-00.000013720000,  -3.44000,
,,,-00.000013700000,  -3.36000,
,,,-00.000013680000,  -3.36000,
,,,-00.000013660000,  -3.36000,
,,,-00.000013640000,  -3.44000,
,,,-00.000013620000,  -3.52000,
,,,-00.000013600000,  -3.44000,
,,,-00.000013580000,  -3.60000,
,,,-00.000013560000,  -3.36000,
,,,-00.000013540000,  -3.52000,
,,,-00.000013520000,  -3.60000,
,,,-00.000013500000,  -3.52000,
,,,-00.000013480000,  -3.68000,
,,,-00.000013460000,  -3.52000,
,,,-00.000013440000,  -3.44000,
,,,-00.000013420000,  -3.52000,
,,,-00.000013400000,  -3.68000,
,,,-00.000013380000,  -3.52000,
,,,-00.000013360000,  -3.60000,
,,,-00.000013340000,  -3.52000,
,,,-00.000013320000,  -3.60000,
,,,-00.000013300000,  -3.60000,
,,,-00.000013280000,  -3.44000,
,,,-00.000013260000,  -3.60000,
,,,-00.000013240000,  -3.60000,
,,,-00.000013220000,  -3.60000,
,,,-00.000013200000,  -3.60000,
,,,-00.000013180000,  -3.60000,
,,,-00.000013160000,  -3.60000,
,,,-00.000013140000,  -3.68000,
,,,-00.000013120000,  -3.52000,
,,,-00.000013100000,  -3.76000,
,,,-00.000013080000,  -3.36000,
,,,-00.000013060000,  -3.68000,
,,,-00.000013040000,  -3.60000,
,,,-00.000013020000,  -3.68000,
,,,-00.000013000000,  -3.68000,
,,,-00.000012980000,  -3.68000,
,,,-00.000012960000,  -3.68000,
,,,-00.000012940000,  -3.68000,
,,,-00.000012920000,  -3.68000,
,,,-00.000012900000,  -3.60000,
,,,-00.000012880000,  -3.76000,
,,,-00.000012860000,  -3.76000,
,,,-00.000012840000,  -3.60000,
,,,-00.000012820000,  -3.68000,
,,,-00.000012800000,  -3.68000,
,,,-00.000012780000,  -3.60000,
,,,-00.000012760000,  -3.68000,
,,,-00.000012740000,  -3.68000,
,,,-00.000012720000,  -3.68000,
,,,-00.000012700000,  -3.76000,
,,,-00.000012680000,  -3.68000,
,,,-00.000012660000,  -3.84000,
,,,-00.000012640000,  -3.68000,
,,,-00.000012620000,  -3.76000,
,,,-00.000012600000,  -3.76000,
,,,-00.000012580000,  -3.76000,
,,,-00.000012560000,  -3.68000,
,,,-00.000012540000,  -3.92000,
,,,-00.000012520000,  -3.76000,
,,,-00.000012500000,  -3.84000,
,,,-00.000012480000,  -3.68000,
,,,-00.000012460000,  -3.84000,
,,,-00.000012440000,  -3.76000,
,,,-00.000012420000,  -3.68000,
,,,-00.000012400000,  -3.76000,
,,,-00.000012380000,  -3.84000,
,,,-00.000012360000,  -3.84000,
,,,-00.000012340000,  -3.68000,
,,,-00.000012320000,  -3.76000,
,,,-00.000012300000,  -3.76000,
,,,-00.000012280000,  -3.68000,
,,,-00.000012260000,  -3.84000,
,,,-00.000012240000,  -3.68000,
,,,-00.000012220000,  -3.84000,
,,,-00.000012200000,  -3.76000,
,,,-00.000012180000,  -3.84000,
,,,-00.000012160000,  -3.84000,
,,,-00.000012140000,  -3.76000,
,,,-00.000012120000,  -3.84000,
,,,-00.000012100000,  -3.84000,
,,,-00.000012080000,  -3.84000,
,,,-00.000012060000,  -3.76000,
,,,-00.000012040000,  -3.84000,
,,,-00.000012020000,  -3.92000,
,,,-00.000012000000,  -3.84000,
,,,-00.000011980000,  -3.84000,
,,,-00.000011960000,  -3.84000,
,,,-00.000011940000,  -3.84000,
,,,-00.000011920000,  -3.92000,
,,,-00.000011900000,  -3.84000,
,,,-00.000011880000,  -3.92000,
,,,-00.000011860000,  -3.76000,
,,,-00.000011840000,  -3.92000,
,,,-00.000011820000,  -3.92000,
,,,-00.000011800000,  -3.84000,
,,,-00.000011780000,  -3.84000,
,,,-00.000011760000,  -3.92000,
,,,-00.000011740000,  -3.84000,
,,,-00.000011720000,  -3.84000,
,,,-00.000011700000,  -3.84000,
,,,-00.000011680000,  -3.92000,
,,,-00.000011660000,  -3.92000,
,,,-00.000011640000,  -3.84000,
,,,-00.000011620000,  -3.92000,
,,,-00.000011600000,  -4.00000,
,,,-00.000011580000,  -3.92000,
,,,-00.000011560000,  -3.92000,
,,,-00.000011540000,  -3.84000,
,,,-00.000011520000,  -3.92000,
,,,-00.000011500000,  -3.84000,
,,,-00.000011480000,  -3.92000,
,,,-00.000011460000,  -3.92000,
,,,-00.000011440000,  -3.84000,
,,,-00.000011420000,  -3.84000,
,,,-00.000011400000,  -3.92000,
,,,-00.000011380000,  -3.92000,
,,,-00.000011360000,  -3.92000,
,,,-00.000011340000,  -3.84000,
,,,-00.000011320000,  -4.00000,
,,,-00.000011300000,  -3.92000,
,,,-00.000011280000,  -4.16000,
,,,-00.000011260000,  -3.92000,
,,,-00.000011240000,  -3.84000,
,,,-00.000011220000,  -4.08000,
,,,-00.000011200000,  -3.92000,
,,,-00.000011180000,  -3.84000,
,,,-00.000011160000,  -3.84000,
,,,-00.000011140000,  -3.92000,
,,,-00.000011120000,  -3.92000,
,,,-00.000011100000,  -3.84000,
,,,-00.000011080000,  -3.92000,
,,,-00.000011060000,  -3.84000,
,,,-00.000011040000,  -4.00000,
,,,-00.000011020000,  -3.92000,
,,,-00.000011000000,  -4.00000,
,,,-00.000010980000,  -3.92000,
,,,-00.000010960000,  -3.84000,
,,,-00.000010940000,  -4.00000,
,,,-00.000010920000,  -3.92000,
,,,-00.000010900000,  -4.08000,
,,,-00.000010880000,  -4.00000,
,,,-00.000010860000,  -3.92000,
,,,-00.000010840000,  -4.00000,
,,,-00.000010820000,  -3.84000,
,,,-00.000010800000,  -3.76000,
,,,-00.000010780000,  -3.84000,
,,,-00.000010760000,  -3.92000,
,,,-00.000010740000,  -3.92000,
,,,-00.000010720000,  -3.84000,
,,,-00.000010700000,  -4.00000,
,,,-00.000010680000,  -4.00000,
,,,-00.000010660000,  -4.00000,
,,,-00.000010640000,  -4.00000,
,,,-00.000010620000,  -3.92000,
,,,-00.000010600000,  -4.00000,
,,,-00.000010580000,  -3.92000,
,,,-00.000010560000,  -3.92000,
,,,-00.000010540000,  -3.92000,
,,,-00.000010520000,  -4.08000,
,,,-00.000010500000,  -3.92000,
,,,-00.000010480000,  -3.92000,
,,,-00.000010460000,  -4.00000,
,,,-00.000010440000,  -3.84000,
,,,-00.000010420000,  -3.84000,
,,,-00.000010400000,  -3.84000,
,,,-00.000010380000,  -3.92000,
,,,-00.000010360000,  -3.92000,
,,,-00.000010340000,  -4.00000,
,,,-00.000010320000,  -4.00000,
,,,-00.000010300000,  -3.84000,
,,,-00.000010280000,  -3.92000,
,,,-00.000010260000,  -3.76000,
,,,-00.000010240000,  -4.00000,
,,,-00.000010220000,  -3.92000,
,,,-00.000010200000,  -3.92000,
,,,-00.000010180000,  -3.92000,
,,,-00.000010160000,  -3.92000,
,,,-00.000010140000,  -3.92000,
,,,-00.000010120000,  -4.00000,
,,,-00.000010100000,  -3.92000,
,,,-00.000010080000,  -3.92000,
,,,-00.000010060000,  -4.00000,
,,,-00.000010040000,  -3.92000,
,,,-00.000010020000,  -4.00000,
,,,-00.000010000000,  -4.00000,
,,,-00.000009980000,  -3.84000,
,,,-00.000009960000,  -3.84000,
,,,-00.000009940000,  -3.84000,
,,,-00.000009920000,  -3.84000,
,,,-00.000009900000,  -4.00000,
,,,-00.000009880000,  -3.84000,
,,,-00.000009860000,  -3.92000,
,,,-00.000009840000,  -3.92000,
,,,-00.000009820000,  -3.84000,
,,,-00.000009800000,  -3.92000,
,,,-00.000009780000,  -4.00000,
,,,-00.000009760000,  -3.84000,
,,,-00.000009740000,  -3.92000,
,,,-00.000009720000,  -3.92000,
,,,-00.000009700000,  -4.00000,
,,,-00.000009680000,  -3.76000,
,,,-00.000009660000,  -3.84000,
,,,-00.000009640000,  -3.92000,
,,,-00.000009620000,  -4.00000,
,,,-00.000009600000,  -3.84000,
,,,-00.000009580000,  -3.92000,
,,,-00.000009560000,  -3.84000,
,,,-00.000009540000,  -3.92000,
,,,-00.000009520000,  -3.92000,
,,,-00.000009500000,  -3.92000,
,,,-00.000009480000,  -3.84000,
,,,-00.000009460000,  -3.76000,
,,,-00.000009440000,  -3.84000,
,,,-00.000009420000,  -3.92000,
,,,-00.000009400000,  -3.76000,
,,,-00.000009380000,  -3.84000,
,,,-00.000009360000,  -3.68000,
,,,-00.000009340000,  -3.84000,
,,,-00.000009320000,  -3.76000,
,,,-00.000009300000,  -3.92000,
,,,-00.000009280000,  -3.84000,
,,,-00.000009260000,  -3.76000,
,,,-00.000009240000,  -3.92000,
,,,-00.000009220000,  -3.84000,
,,,-00.000009200000,  -3.76000,
,,,-00.000009180000,  -3.76000,
,,,-00.000009160000,  -3.84000,
,,,-00.000009140000,  -3.92000,
,,,-00.000009120000,  -3.76000,
,,,-00.000009100000,  -3.84000,
,,,-00.000009080000,  -3.68000,
,,,-00.000009060000,  -3.92000,
,,,-00.000009040000,  -3.76000,
,,,-00.000009020000,  -3.76000,
,,,-00.000009000000,  -3.84000,
,,,-00.000008980000,  -3.76000,
,,,-00.000008960000,  -3.84000,
,,,-00.000008940000,  -3.60000,
,,,-00.000008920000,  -3.76000,
,,,-00.000008900000,  -3.92000,
,,,-00.000008880000,  -3.76000,
,,,-00.000008860000,  -3.76000,
,,,-00.000008840000,  -3.68000,
,,,-00.000008820000,  -3.68000,
,,,-00.000008800000,  -3.76000,
,,,-00.000008780000,  -3.76000,
,,,-00.000008760000,  -3.68000,
,,,-00.000008740000,  -3.76000,
,,,-00.000008720000,  -3.68000,
,,,-00.000008700000,  -3.76000,
,,,-00.000008680000,  -3.76000,
,,,-00.000008660000,  -3.76000,
,,,-00.000008640000,  -3.68000,
,,,-00.000008620000,  -3.68000,
,,,-00.000008600000,  -3.76000,
,,,-00.000008580000,  -3.76000,
,,,-00.000008560000,  -3.60000,
,,,-00.000008540000,  -3.76000,
,,,-00.000008520000,  -3.68000,
,,,-00.000008500000,  -3.76000,
,,,-00.000008480000,  -3.76000,
,,,-00.000008460000,  -3.60000,
,,,-00.000008440000,  -3.60000,
,,,-00.000008420000,  -3.60000,
,,,-00.000008400000,  -3.76000,
,,,-00.000008380000,  -3.52000,
,,,-00.000008360000,  -3.68000,
,,,-00.000008340000,  -3.68000,
,,,-00.000008320000,  -3.60000,
,,,-00.000008300000,  -3.68000,
,,,-00.000008280000,  -3.60000,
,,,-00.000008260000,  -3.60000,
,,,-00.000008240000,  -3.60000,
,,,-00.000008220000,  -3.60000,
,,,-00.000008200000,  -3.68000,
,,,-00.000008180000,  -3.52000,
,,,-00.000008160000,  -3.68000,
,,,-00.000008140000,  -3.68000,
,,,-00.000008120000,  -3.60000,
,,,-00.000008100000,  -3.52000,
,,,-00.000008080000,  -3.60000,
,,,-00.000008060000,  -3.60000,
,,,-00.000008040000,  -3.60000,
,,,-00.000008020000,  -3.60000,
,,,-00.000008000000,  -3.44000,
,,,-00.000007980000,  -3.60000,
,,,-00.000007960000,  -3.68000,
,,,-00.000007940000,  -3.52000,
,,,-00.000007920000,  -3.60000,
,,,-00.000007900000,  -3.52000,
,,,-00.000007880000,  -3.60000,
,,,-00.000007860000,  -3.52000,
,,,-00.000007840000,  -3.52000,
,,,-00.000007820000,  -3.52000,
,,,-00.000007800000,  -3.60000,
,,,-00.000007780000,  -3.44000,
,,,-00.000007760000,  -3.60000,
,,,-00.000007740000,  -3.44000,
,,,-00.000007720000,  -3.44000,
,,,-00.000007700000,  -3.36000,
,,,-00.000007680000,  -3.44000,
,,,-00.000007660000,  -3.36000,
,,,-00.000007640000,  -3.44000,
,,,-00.000007620000,  -3.36000,
,,,-00.000007600000,  -3.44000,
,,,-00.000007580000,  -3.36000,
,,,-00.000007560000,  -3.44000,
,,,-00.000007540000,  -3.52000,
,,,-00.000007520000,  -3.44000,
,,,-00.000007500000,  -3.36000,
,,,-00.000007480000,  -3.36000,
,,,-00.000007460000,  -3.44000,
,,,-00.000007440000,  -3.36000,
,,,-00.000007420000,  -3.36000,
,,,-00.000007400000,  -3.28000,
,,,-00.000007380000,  -3.44000,
,,,-00.000007360000,  -3.36000,
,,,-00.000007340000,  -3.28000,
,,,-00.000007320000,  -3.44000,
,,,-00.000007300000,  -3.28000,
,,,-00.000007280000,  -3.28000,
,,,-00.000007260000,  -3.36000,
,,,-00.000007240000,  -3.36000,
,,,-00.000007220000,  -3.28000,
,,,-00.000007200000,  -3.28000,
,,,-00.000007180000,  -3.28000,
,,,-00.000007160000,  -3.36000,
,,,-00.000007140000,  -3.28000,
,,,-00.000007120000,  -3.20000,
,,,-00.000007100000,  -3.28000,
,,,-00.000007080000,  -3.28000,
,,,-00.000007060000,  -3.20000,
,,,-00.000007040000,  -3.28000,
,,,-00.000007020000,  -3.28000,
,,,-00.000007000000,  -3.12000,
,,,-00.000006980000,  -3.28000,
,,,-00.000006960000,  -3.20000,
,,,-00.000006940000,  -3.20000,
,,,-00.000006920000,  -3.20000,
,,,-00.000006900000,  -3.04000,
,,,-00.000006880000,  -3.20000,
,,,-00.000006860000,  -3.04000,
,,,-00.000006840000,  -2.96000,
,,,-00.000006820000,  -3.12000,
,,,-00.000006800000,  -3.12000,
,,,-00.000006780000,  -3.12000,
,,,-00.000006760000,  -2.96000,
,,,-00.000006740000,  -2.96000,
,,,-00.000006720000,  -3.12000,
,,,-00.000006700000,  -3.20000,
,,,-00.000006680000,  -3.12000,
,,,-00.000006660000,  -3.12000,
,,,-00.000006640000,  -3.12000,
,,,-00.000006620000,  -2.96000,
,,,-00.000006600000,  -3.04000,
,,,-00.000006580000,  -2.96000,
,,,-00.000006560000,  -3.12000,
,,,-00.000006540000,  -2.96000,
,,,-00.000006520000,  -2.96000,
,,,-00.000006500000,  -2.96000,
,,,-00.000006480000,  -2.88000,
,,,-00.000006460000,  -2.96000,
,,,-00.000006440000,  -2.96000,
,,,-00.000006420000,  -3.04000,
,,,-00.000006400000,  -2.88000,
,,,-00.000006380000,  -2.88000,
,,,-00.000006360000,  -3.04000,
,,,-00.000006340000,  -2.88000,
,,,-00.000006320000,  -3.04000,
,,,-00.000006300000,  -2.88000,
,,,-00.000006280000,  -2.88000,
,,,-00.000006260000,  -2.88000,
,,,-00.000006240000,  -2.80000,
,,,-00.000006220000,  -2.96000,
,,,-00.000006200000,  -2.88000,
,,,-00.000006180000,  -2.80000,
,,,-00.000006160000,  -2.80000,
,,,-00.000006140000,  -2.96000,
,,,-00.000006120000,  -2.72000,
,,,-00.000006100000,  -2.80000,
,,,-00.000006080000,  -2.72000,
,,,-00.000006060000,  -2.72000,
,,,-00.000006040000,  -2.96000,
,,,-00.000006020000,  -2.80000,
,,,-00.000006000000,  -2.80000,
,,,-00.000005980000,  -2.72000,
,,,-00.000005960000,  -2.80000,
,,,-00.000005940000,  -2.72000,
,,,-00.000005920000,  -2.80000,
,,,-00.000005900000,  -2.80000,
,,,-00.000005880000,  -2.80000,
,,,-00.000005860000,  -2.64000,
,,,-00.000005840000,  -2.80000,
,,,-00.000005820000,  -2.72000,
,,,-00.000005800000,  -2.64000,
,,,-00.000005780000,  -2.72000,
,,,-00.000005760000,  -2.64000,
,,,-00.000005740000,  -2.56000,
,,,-00.000005720000,  -2.64000,
,,,-00.000005700000,  -2.64000,
,,,-00.000005680000,  -2.56000,
,,,-00.000005660000,  -2.64000,
,,,-00.000005640000,  -2.56000,
,,,-00.000005620000,  -2.56000,
,,,-00.000005600000,  -2.48000,
,,,-00.000005580000,  -2.48000,
,,,-00.000005560000,  -2.56000,
,,,-00.000005540000,  -2.56000,
,,,-00.000005520000,  -2.48000,
,,,-00.000005500000,  -2.48000,
,,,-00.000005480000,  -2.56000,
,,,-00.000005460000,  -2.48000,
,,,-00.000005440000,  -2.56000,
,,,-00.000005420000,  -2.40000,
,,,-00.000005400000,  -2.48000,
,,,-00.000005380000,  -2.56000,
,,,-00.000005360000,  -2.32000,
,,,-00.000005340000,  -2.64000,
,,,-00.000005320000,  -2.40000,
,,,-00.000005300000,  -2.48000,
,,,-00.000005280000,  -2.40000,
,,,-00.000005260000,  -2.32000,
,,,-00.000005240000,  -2.48000,
,,,-00.000005220000,  -2.32000,
,,,-00.000005200000,  -2.32000,
,,,-00.000005180000,  -2.40000,
,,,-00.000005160000,  -2.24000,
,,,-00.000005140000,  -2.40000,
,,,-00.000005120000,  -2.24000,
,,,-00.000005100000,  -2.32000,
,,,-00.000005080000,  -2.32000,
,,,-00.000005060000,  -2.40000,
,,,-00.000005040000,  -2.24000,
,,,-00.000005020000,  -2.24000,
,,,-00.000005000000,  -2.32000,
,,,-00.000004980000,  -2.32000,
,,,-00.000004960000,  -2.40000,
,,,-00.000004940000,  -2.32000,
,,,-00.000004920000,  -2.16000,
,,,-00.000004900000,  -2.24000,
,,,-00.000004880000,  -2.08000,
,,,-00.000004860000,  -2.08000,
,,,-00.000004840000,  -2.08000,
,,,-00.000004820000,  -2.24000,
,,,-00.000004800000,  -2.00000,
,,,-00.000004780000,  -2.16000,
,,,-00.000004760000,  -2.16000,
,,,-00.000004740000,  -2.16000,
,,,-00.000004720000,  -2.16000,
,,,-00.000004700000,  -2.08000,
,,,-00.000004680000,  -2.08000,
,,,-00.000004660000,  -2.16000,
,,,-00.000004640000,  -2.08000,
,,,-00.000004620000,  -2.08000,
,,,-00.000004600000,  -1.92000,
,,,-00.000004580000,  -2.00000,
,,,-00.000004560000,  -2.00000,
,,,-00.000004540000,  -2.00000,
,,,-00.000004520000,  -2.00000,
,,,-00.000004500000,  -1.84000,
,,,-00.000004480000,  -1.84000,
,,,-00.000004460000,  -1.92000,
,,,-00.000004440000,  -2.08000,
,,,-00.000004420000,  -1.92000,
,,,-00.000004400000,  -1.92000,
,,,-00.000004380000,  -2.00000,
,,,-00.000004360000,  -1.92000,
,,,-00.000004340000,  -2.00000,
,,,-00.000004320000,  -1.92000,
,,,-00.000004300000,  -1.92000,
,,,-00.000004280000,  -2.00000,
,,,-00.000004260000,  -1.76000,
,,,-00.000004240000,  -1.84000,
,,,-00.000004220000,  -1.76000,
,,,-00.000004200000,  -1.68000,
,,,-00.000004180000,  -1.84000,
,,,-00.000004160000,  -1.84000,
,,,-00.000004140000,  -1.60000,
,,,-00.000004120000,  -1.84000,
,,,-00.000004100000,  -1.76000,
,,,-00.000004080000,  -1.76000,
,,,-00.000004060000,  -1.84000,
,,,-00.000004040000,  -1.68000,
,,,-00.000004020000,  -1.76000,
,,,-00.000004000000,  -1.68000,
,,,-00.000003980000,  -1.60000,
,,,-00.000003960000,  -1.68000,
,,,-00.000003940000,  -1.60000,
,,,-00.000003920000,  -1.60000,
,,,-00.000003900000,  -1.68000,
,,,-00.000003880000,  -1.52000,
,,,-00.000003860000,  -1.52000,
,,,-00.000003840000,  -1.60000,
,,,-00.000003820000,  -1.68000,
,,,-00.000003800000,  -1.52000,
,,,-00.000003780000,  -1.52000,
,,,-00.000003760000,  -1.44000,
,,,-00.000003740000,  -1.44000,
,,,-00.000003720000,  -1.44000,
,,,-00.000003700000,  -1.44000,
,,,-00.000003680000,  -1.44000,
,,,-00.000003660000,  -1.36000,
,,,-00.000003640000,  -1.44000,
,,,-00.000003620000,  -1.44000,
,,,-00.000003600000,  -1.44000,
,,,-00.000003580000,  -1.44000,
,,,-00.000003560000,  -1.36000,
,,,-00.000003540000,  -1.36000,
,,,-00.000003520000,  -1.36000,
,,,-00.000003500000,  -1.28000,
,,,-00.000003480000,  -1.36000,
,,,-00.000003460000,  -1.28000,
,,,-00.000003440000,  -1.36000,
,,,-00.000003420000,  -1.28000,
,,,-00.000003400000,  -1.28000,
,,,-00.000003380000,  -1.12000,
,,,-00.000003360000,  -1.36000,
,,,-00.000003340000,  -1.20000,
,,,-00.000003320000,  -1.36000,
,,,-00.000003300000,  -1.20000,
,,,-00.000003280000,  -1.12000,
,,,-00.000003260000,  -1.12000,
,,,-00.000003240000,  -1.04000,
,,,-00.000003220000,  -1.12000,
,,,-00.000003200000,  -1.28000,
,,,-00.000003180000,  -1.28000,
,,,-00.000003160000,  -1.12000,
,,,-00.000003140000,  -1.12000,
,,,-00.000003120000,  -1.28000,
,,,-00.000003100000,  -1.12000,
,,,-00.000003080000,  -1.20000,
,,,-00.000003060000,  -1.04000,
,,,-00.000003040000,  -1.04000,
,,,-00.000003020000,  -1.12000,
,,,-00.000003000000,  -0.96000,
,,,-00.000002980000,  -1.12000,
,,,-00.000002960000,  -1.04000,
,,,-00.000002940000,  -1.04000,
,,,-00.000002920000,  -1.12000,
,,,-00.000002900000,  -0.88000,
,,,-00.000002880000,  -0.80000,
,,,-00.000002860000,  -0.80000,
,,,-00.000002840000,  -1.04000,
,,,-00.000002820000,  -0.88000,
,,,-00.000002800000,  -0.80000,
,,,-00.000002780000,  -0.88000,
,,,-00.000002760000,  -0.96000,
,,,-00.000002740000,  -0.80000,
,,,-00.000002720000,  -0.80000,
,,,-00.000002700000,  -0.88000,
,,,-00.000002680000,  -0.80000,
,,,-00.000002660000,  -0.80000,
,,,-00.000002640000,  -0.88000,
,,,-00.000002620000,  -0.72000,
,,,-00.000002600000,  -0.72000,
,,,-00.000002580000,  -0.72000,
,,,-00.000002560000,  -0.80000,
,,,-00.000002540000,  -0.72000,
