Circuiti_2/data.old/RC_1kohm/F0007MTH.CSV

Record Length,2.500000e+03,,  -0.000035000000,  -6.24000,
Sample Interval,1.000000e-07,,  -0.000034900000,  -6.16000,
Trigger Point,3.500000000000e+02,,  -0.000034800000,  -6.00000,
,,,  -0.000034700000,  -6.16000,
,,,  -0.000034600000,  -6.08000,
,,,  -0.000034500000,  -6.16000,
Source,MATH,,  -0.000034400000,  -6.16000,
Vertical Units,V,,  -0.000034300000,  -6.08000,
Vertical Scale,2.000000e+00,,  -0.000034200000,  -6.24000,
Vertical Offset,2.400000e-01,,  -0.000034100000,  -6.00000,
Horizontal Units,s,,  -0.000034000000,  -6.08000,
Horizontal Scale,2.500000e-05,,  -0.000033900000,  -6.08000,
Pt Fmt,Y,,  -0.000033800000,  -6.08000,
Yzero,0.000000e+00,,  -0.000033700000,  -6.00000,
Probe Atten,1.000000e+00,,  -0.000033600000,  -6.16000,
Model Number,TDS1001C-EDU,,  -0.000033500000,  -6.00000,
Serial Number,C013086,,  -0.000033400000,  -6.08000,
Firmware Version,FV:v25.07,,  -0.000033300000,  -6.08000,
,,,-00.000033200000,  -6.16000,
,,,-00.000033100000,  -6.16000,
,,,-00.000033000000,  -6.24000,
,,,-00.000032900000,  -6.16000,
,,,-00.000032800000,  -6.08000,
,,,-00.000032700000,  -6.16000,
,,,-00.000032600000,  -6.08000,
,,,-00.000032500000,  -6.08000,
,,,-00.000032400000,  -6.16000,
,,,-00.000032300000,  -6.00000,
,,,-00.000032200000,  -5.92000,
,,,-00.000032100000,  -6.08000,
,,,-00.000032000000,  -6.16000,
,,,-00.000031900000,  -6.08000,
,,,-00.000031800000,  -6.08000,
,,,-00.000031700000,  -6.08000,
,,,-00.000031600000,  -6.08000,
,,,-00.000031500000,  -6.16000,
,,,-00.000031400000,  -6.16000,
,,,-00.000031300000,  -6.00000,
,,,-00.000031200000,  -6.08000,
,,,-00.000031100000,  -6.16000,
,,,-00.000031000000,  -6.08000,
,,,-00.000030900000,  -6.08000,
,,,-00.000030800000,  -6.16000,
,,,-00.000030700000,  -6.16000,
,,,-00.000030600000,  -6.16000,
,,,-00.000030500000,  -6.08000,
,,,-00.000030400000,  -6.00000,
,,,-00.000030300000,  -6.08000,
,,,-00.000030200000,  -6.24000,
,,,-00.000030100000,  -6.00000,
,,,-00.000030000000,  -6.08000,
,,,-00.000029900000,  -6.16000,
,,,-00.000029800000,  -6.08000,
,,,-00.000029700000,  -6.08000,
,,,-00.000029600000,  -6.24000,
,,,-00.000029500000,  -6.16000,
,,,-00.000029400000,  -6.08000,
,,,-00.000029300000,  -6.00000,
,,,-00.000029200000,  -6.08000,
,,,-00.000029100000,  -6.08000,
,,,-00.000029000000,  -6.00000,
,,,-00.000028900000,  -6.16000,
,,,-00.000028800000,  -6.08000,
,,,-00.000028700000,  -6.16000,
,,,-00.000028600000,  -6.24000,
,,,-00.000028500000,  -6.08000,
,,,-00.000028400000,  -6.08000,
,,,-00.000028300000,  -6.08000,
,,,-00.000028200000,  -6.08000,
,,,-00.000028100000,  -6.08000,
,,,-00.000028000000,  -6.08000,
,,,-00.000027900000,  -6.24000,
,,,-00.000027800000,  -6.00000,
,,,-00.000027700000,  -6.24000,
,,,-00.000027600000,  -6.08000,
,,,-00.000027500000,  -6.08000,
,,,-00.000027400000,  -6.08000,
,,,-00.000027300000,  -6.08000,
,,,-00.000027200000,  -6.08000,
,,,-00.000027100000,  -6.08000,
,,,-00.000027000000,  -6.08000,
,,,-00.000026900000,  -6.08000,
,,,-00.000026800000,  -6.16000,
,,,-00.000026700000,  -6.16000,
,,,-00.000026600000,  -6.24000,
,,,-00.000026500000,  -6.16000,
,,,-00.000026400000,  -6.00000,
,,,-00.000026300000,  -6.08000,
,,,-00.000026200000,  -6.16000,
,,,-00.000026100000,  -6.08000,
,,,-00.000026000000,  -6.08000,
,,,-00.000025900000,  -6.16000,
,,,-00.000025800000,  -6.16000,
,,,-00.000025700000,  -6.08000,
,,,-00.000025600000,  -6.16000,
,,,-00.000025500000,  -6.08000,
,,,-00.000025400000,  -6.08000,
,,,-00.000025300000,  -6.08000,
,,,-00.000025200000,  -6.08000,
,,,-00.000025100000,  -6.08000,
,,,-00.000025000000,  -6.08000,
,,,-00.000024900000,  -6.08000,
,,,-00.000024800000,  -6.00000,
,,,-00.000024700000,  -6.08000,
,,,-00.000024600000,  -6.16000,
,,,-00.000024500000,  -6.16000,
,,,-00.000024400000,  -6.00000,
,,,-00.000024300000,  -6.24000,
,,,-00.000024200000,  -6.24000,
,,,-00.000024100000,  -6.08000,
,,,-00.000024000000,  -6.08000,
,,,-00.000023900000,  -6.08000,
,,,-00.000023800000,  -5.92000,
,,,-00.000023700000,  -6.08000,
,,,-00.000023600000,  -6.00000,
,,,-00.000023500000,  -6.24000,
,,,-00.000023400000,  -6.16000,
,,,-00.000023300000,  -6.08000,
,,,-00.000023200000,  -6.08000,
,,,-00.000023100000,  -6.16000,
,,,-00.000023000000,  -6.08000,
,,,-00.000022900000,  -6.16000,
,,,-00.000022800000,  -6.16000,
,,,-00.000022700000,  -6.24000,
,,,-00.000022600000,  -6.32000,
,,,-00.000022500000,  -6.08000,
,,,-00.000022400000,  -6.00000,
,,,-00.000022300000,  -6.08000,
,,,-00.000022200000,  -6.08000,
,,,-00.000022100000,  -6.08000,
,,,-00.000022000000,  -6.08000,
,,,-00.000021900000,  -6.08000,
,,,-00.000021800000,  -6.16000,
,,,-00.000021700000,  -6.00000,
,,,-00.000021600000,  -6.16000,
,,,-00.000021500000,  -6.16000,
,,,-00.000021400000,  -6.08000,
,,,-00.000021300000,  -6.00000,
,,,-00.000021200000,  -6.16000,
,,,-00.000021100000,  -6.16000,
,,,-00.000021000000,  -6.16000,
,,,-00.000020900000,  -6.08000,
,,,-00.000020800000,  -6.08000,
,,,-00.000020700000,  -6.24000,
,,,-00.000020600000,  -6.16000,
,,,-00.000020500000,  -6.08000,
,,,-00.000020400000,  -6.00000,
,,,-00.000020300000,  -6.16000,
,,,-00.000020200000,  -6.00000,
,,,-00.000020100000,  -6.16000,
,,,-00.000020000000,  -6.08000,
,,,-00.000019900000,  -6.16000,
,,,-00.000019800000,  -6.16000,
,,,-00.000019700000,  -6.08000,
,,,-00.000019600000,  -6.08000,
,,,-00.000019500000,  -5.92000,
,,,-00.000019400000,  -6.24000,
,,,-00.000019300000,  -6.08000,
,,,-00.000019200000,  -6.08000,
,,,-00.000019100000,  -6.08000,
,,,-00.000019000000,  -6.08000,
,,,-00.000018900000,  -6.08000,
,,,-00.000018800000,  -6.08000,
,,,-00.000018700000,  -6.08000,
,,,-00.000018600000,  -6.08000,
,,,-00.000018500000,  -6.08000,
,,,-00.000018400000,  -6.16000,
,,,-00.000018300000,  -6.00000,
,,,-00.000018200000,  -6.08000,
,,,-00.000018100000,  -6.08000,
,,,-00.000018000000,  -6.24000,
,,,-00.000017900000,  -6.00000,
,,,-00.000017800000,  -6.16000,
,,,-00.000017700000,  -6.08000,
,,,-00.000017600000,  -6.08000,
,,,-00.000017500000,  -6.08000,
,,,-00.000017400000,  -6.00000,
,,,-00.000017300000,  -6.08000,
,,,-00.000017200000,  -6.00000,
,,,-00.000017100000,  -6.24000,
,,,-00.000017000000,  -6.24000,
,,,-00.000016900000,  -6.16000,
,,,-00.000016800000,  -6.16000,
,,,-00.000016700000,  -6.08000,
,,,-00.000016600000,  -6.16000,
,,,-00.000016500000,  -6.08000,
,,,-00.000016400000,  -5.92000,
,,,-00.000016300000,  -6.08000,
,,,-00.000016200000,  -6.08000,
,,,-00.000016100000,  -6.08000,
,,,-00.000016000000,  -6.32000,
,,,-00.000015900000,  -6.16000,
,,,-00.000015800000,  -6.08000,
,,,-00.000015700000,  -6.08000,
,,,-00.000015600000,  -6.00000,
,,,-00.000015500000,  -6.08000,
,,,-00.000015400000,  -6.08000,
,,,-00.000015300000,  -6.00000,
,,,-00.000015200000,  -6.16000,
,,,-00.000015100000,  -6.08000,
,,,-00.000015000000,  -6.00000,
,,,-00.000014900000,  -6.08000,
,,,-00.000014800000,  -6.16000,
,,,-00.000014700000,  -6.08000,
,,,-00.000014600000,  -6.00000,
,,,-00.000014500000,  -6.08000,
,,,-00.000014400000,  -6.08000,
,,,-00.000014300000,  -6.16000,
,,,-00.000014200000,  -6.08000,
,,,-00.000014100000,  -6.08000,
,,,-00.000014000000,  -6.08000,
,,,-00.000013900000,  -6.00000,
,,,-00.000013800000,  -6.08000,
,,,-00.000013700000,  -6.16000,
,,,-00.000013600000,  -6.08000,
,,,-00.000013500000,  -6.24000,
,,,-00.000013400000,  -6.08000,
,,,-00.000013300000,  -6.16000,
,,,-00.000013200000,  -6.08000,
,,,-00.000013100000,  -6.16000,
,,,-00.000013000000,  -6.08000,
,,,-00.000012900000,  -6.08000,
,,,-00.000012800000,  -6.08000,
,,,-00.000012700000,  -6.16000,
,,,-00.000012600000,  -6.08000,
,,,-00.000012500000,  -6.00000,
,,,-00.000012400000,  -6.16000,
,,,-00.000012300000,  -6.00000,
,,,-00.000012200000,  -6.08000,
,,,-00.000012100000,  -6.08000,
,,,-00.000012000000,  -6.24000,
,,,-00.000011900000,  -6.16000,
,,,-00.000011800000,  -6.00000,
,,,-00.000011700000,  -6.08000,
,,,-00.000011600000,  -6.08000,
,,,-00.000011500000,  -6.00000,
,,,-00.000011400000,  -6.16000,
,,,-00.000011300000,  -6.00000,
,,,-00.000011200000,  -6.16000,
,,,-00.000011100000,  -6.16000,
,,,-00.000011000000,  -6.08000,
,,,-00.000010900000,  -6.00000,
,,,-00.000010800000,  -6.24000,
,,,-00.000010700000,  -6.00000,
,,,-00.000010600000,  -6.08000,
,,,-00.000010500000,  -6.16000,
,,,-00.000010400000,  -6.24000,
,,,-00.000010300000,  -6.00000,
,,,-00.000010200000,  -6.00000,
,,,-00.000010100000,  -6.16000,
,,,-00.000010000000,  -6.08000,
,,,-00.000009900000,  -6.16000,
,,,-00.000009800000,  -6.08000,
,,,-00.000009700000,  -6.00000,
,,,-00.000009600000,  -6.16000,
,,,-00.000009500000,  -6.16000,
,,,-00.000009400000,  -6.08000,
,,,-00.000009300000,  -6.08000,
,,,-00.000009200000,  -6.16000,
,,,-00.000009100000,  -6.08000,
,,,-00.000009000000,  -6.08000,
,,,-00.000008900000,  -6.08000,
,,,-00.000008800000,  -6.24000,
,,,-00.000008700000,  -6.08000,
,,,-00.000008600000,  -6.16000,
,,,-00.000008500000,  -6.08000,
,,,-00.000008400000,  -6.08000,
,,,-00.000008300000,  -6.16000,
,,,-00.000008200000,  -6.08000,
,,,-00.000008100000,  -6.16000,
,,,-00.000008000000,  -6.16000,
,,,-00.000007900000,  -6.08000,
,,,-00.000007800000,  -6.24000,
,,,-00.000007700000,  -6.08000,
,,,-00.000007600000,  -6.08000,
,,,-00.000007500000,  -6.00000,
,,,-00.000007400000,  -6.08000,
,,,-00.000007300000,  -6.16000,
,,,-00.000007200000,  -6.16000,
,,,-00.000007100000,  -6.16000,
,,,-00.000007000000,  -6.16000,
,,,-00.000006900000,  -6.16000,
,,,-00.000006800000,  -6.16000,
,,,-00.000006700000,  -6.16000,
,,,-00.000006600000,  -6.08000,
,,,-00.000006500000,  -6.08000,
,,,-00.000006400000,  -6.08000,
,,,-00.000006300000,  -6.16000,
,,,-00.000006200000,  -6.08000,
,,,-00.000006100000,  -6.32000,
,,,-00.000006000000,  -6.08000,
,,,-00.000005900000,  -6.00000,
,,,-00.000005800000,  -6.16000,
,,,-00.000005700000,  -6.08000,
,,,-00.000005600000,  -6.08000,
,,,-00.000005500000,  -6.08000,
,,,-00.000005400000,  -6.08000,
,,,-00.000005300000,  -6.16000,
,,,-00.000005200000,  -6.16000,
,,,-00.000005100000,  -6.08000,
,,,-00.000005000000,  -6.00000,
,,,-00.000004900000,  -6.24000,
,,,-00.000004800000,  -6.00000,
,,,-00.000004700000,  -6.00000,
,,,-00.000004600000,  -6.08000,
,,,-00.000004500000,  -6.16000,
,,,-00.000004400000,  -6.08000,
,,,-00.000004300000,  -6.08000,
,,,-00.000004200000,  -6.08000,
,,,-00.000004100000,  -6.08000,
,,,-00.000004000000,  -6.08000,
,,,-00.000003900000,  -6.08000,
,,,-00.000003800000,  -6.16000,
,,,-00.000003700000,  -6.08000,
,,,-00.000003600000,  -6.24000,
,,,-00.000003500000,  -6.16000,
,,,-00.000003400000,  -6.16000,
,,,-00.000003300000,  -6.00000,
,,,-00.000003200000,  -6.08000,
,,,-00.000003100000,  -6.08000,
,,,-00.000003000000,  -6.16000,
,,,-00.000002900000,  -6.08000,
,,,-00.000002800000,  -6.08000,
,,,-00.000002700000,  -6.08000,
,,,-00.000002600000,  -6.00000,
,,,-00.000002500000,  -6.00000,
,,,-00.000002400000,  -6.00000,
,,,-00.000002300000,  -6.08000,
,,,-00.000002200000,  -6.16000,
,,,-00.000002100000,  -5.92000,
,,,-00.000002000000,  -6.24000,
,,,-00.000001900000,  -6.00000,
,,,-00.000001800000,  -6.08000,
,,,-00.000001700000,  -6.00000,
,,,-00.000001600000,  -6.00000,
,,,-00.000001500000,  -6.00000,
,,,-00.000001400000,  -6.08000,
,,,-00.000001300000,  -6.08000,
,,,-00.000001200000,  -6.00000,
,,,-00.000001100000,  -6.08000,
,,,-00.000001000000,  -6.08000,
,,,-00.000000900000,  -6.24000,
,,,-00.000000800000,  -6.08000,
,,,-00.000000700000,  -6.16000,
,,,-00.000000600000,  -6.00000,
,,,-00.000000500000,  -6.08000,
,,,-00.000000400000,  -6.08000,
,,,-00.000000300000,  -6.08000,
,,,-00.000000200000,  -6.08000,
,,,-00.000000100000,  -6.16000,
,,,-00.000000000000,  -6.16000,
,,,00.000000100000,  -6.00000,
,,,00.000000200000,  -6.08000,
,,,00.000000300000,  -6.00000,
,,,00.000000400000,  -6.08000,
,,,00.000000500000,  -6.08000,
,,,00.000000600000,  -6.00000,
,,,00.000000700000,  -5.92000,
,,,00.000000800000,  -6.00000,
,,,00.000000900000,  -5.84000,
,,,00.000001000000,  -5.84000,
,,,00.000001100000,  -5.92000,
,,,00.000001200000,  -5.76000,
,,,00.000001300000,  -5.76000,
,,,00.000001400000,  -5.84000,
,,,00.000001500000,  -5.60000,
,,,00.000001600000,  -5.68000,
,,,00.000001700000,  -5.68000,
,,,00.000001800000,  -5.60000,
,,,00.000001900000,  -5.60000,
,,,00.000002000000,  -5.52000,
,,,00.000002100000,  -5.52000,
,,,00.000002200000,  -5.52000,
,,,00.000002300000,  -5.60000,
,,,00.000002400000,  -5.52000,
,,,00.000002500000,  -5.52000,
,,,00.000002600000,  -5.60000,
,,,00.000002700000,  -5.36000,
,,,00.000002800000,  -5.36000,
,,,00.000002900000,  -5.52000,
,,,00.000003000000,  -5.28000,
,,,00.000003100000,  -5.36000,
,,,00.000003200000,  -5.28000,
,,,00.000003300000,  -5.36000,
,,,00.000003400000,  -5.28000,
,,,00.000003500000,  -5.20000,
,,,00.000003600000,  -5.20000,
,,,00.000003700000,  -5.20000,
,,,00.000003800000,  -5.20000,
,,,00.000003900000,  -5.12000,
,,,00.000004000000,  -5.20000,
,,,00.000004100000,  -5.12000,
,,,00.000004200000,  -5.12000,
,,,00.000004300000,  -5.12000,
,,,00.000004400000,  -5.04000,
,,,00.000004500000,  -5.12000,
,,,00.000004600000,  -5.04000,
,,,00.000004700000,  -4.96000,
,,,00.000004800000,  -5.04000,
,,,00.000004900000,  -4.96000,
,,,00.000005000000,  -4.96000,
,,,00.000005100000,  -4.88000,
,,,00.000005200000,  -4.80000,
,,,00.000005300000,  -4.96000,
,,,00.000005400000,  -4.72000,
,,,00.000005500000,  -4.72000,
,,,00.000005600000,  -4.88000,
,,,00.000005700000,  -4.88000,
,,,00.000005800000,  -4.80000,
,,,00.000005900000,  -4.88000,
,,,00.000006000000,  -4.72000,
,,,00.000006100000,  -4.64000,
,,,00.000006200000,  -4.64000,
,,,00.000006300000,  -4.64000,
,,,00.000006400000,  -4.64000,
,,,00.000006500000,  -4.64000,
,,,00.000006600000,  -4.48000,
,,,00.000006700000,  -4.64000,
,,,00.000006800000,  -4.48000,
,,,00.000006900000,  -4.48000,
,,,00.000007000000,  -4.48000,
,,,00.000007100000,  -4.48000,
,,,00.000007200000,  -4.48000,
,,,00.000007300000,  -4.48000,
,,,00.000007400000,  -4.56000,
,,,00.000007500000,  -4.40000,
,,,00.000007600000,  -4.48000,
,,,00.000007700000,  -4.48000,
,,,00.000007800000,  -4.32000,
,,,00.000007900000,  -4.32000,
,,,00.000008000000,  -4.40000,
,,,00.000008100000,  -4.24000,
,,,00.000008200000,  -4.24000,
,,,00.000008300000,  -4.32000,
,,,00.000008400000,  -4.32000,
,,,00.000008500000,  -4.32000,
,,,00.000008600000,  -4.08000,
,,,00.000008700000,  -4.16000,
,,,00.000008800000,  -4.08000,
,,,00.000008900000,  -4.16000,
,,,00.000009000000,  -4.08000,
,,,00.000009100000,  -4.16000,
,,,00.000009200000,  -4.16000,
,,,00.000009300000,  -4.00000,
,,,00.000009400000,  -4.08000,
,,,00.000009500000,  -3.92000,
,,,00.000009600000,  -3.92000,
,,,00.000009700000,  -4.00000,
,,,00.000009800000,  -4.08000,
,,,00.000009900000,  -4.00000,
,,,00.000010000000,  -3.92000,
,,,00.000010100000,  -3.92000,
,,,00.000010200000,  -3.84000,
,,,00.000010300000,  -3.84000,
,,,00.000010400000,  -3.84000,
,,,00.000010500000,  -3.68000,
,,,00.000010600000,  -3.84000,
,,,00.000010700000,  -3.92000,
,,,00.000010800000,  -3.84000,
,,,00.000010900000,  -3.76000,
,,,00.000011000000,  -3.84000,
,,,00.000011100000,  -3.60000,
,,,00.000011200000,  -3.68000,
,,,00.000011300000,  -3.68000,
,,,00.000011400000,  -3.68000,
,,,00.000011500000,  -3.60000,
,,,00.000011600000,  -3.60000,
,,,00.000011700000,  -3.60000,
,,,00.000011800000,  -3.60000,
,,,00.000011900000,  -3.52000,
,,,00.000012000000,  -3.52000,
,,,00.000012100000,  -3.44000,
,,,00.000012200000,  -3.52000,
,,,00.000012300000,  -3.44000,
,,,00.000012400000,  -3.44000,
,,,00.000012500000,  -3.52000,
,,,00.000012600000,  -3.52000,
,,,00.000012700000,  -3.44000,
,,,00.000012800000,  -3.36000,
,,,00.000012900000,  -3.28000,
,,,00.000013000000,  -3.36000,
,,,00.000013100000,  -3.36000,
,,,00.000013200000,  -3.28000,
,,,00.000013300000,  -3.28000,
,,,00.000013400000,  -3.36000,
,,,00.000013500000,  -3.20000,
,,,00.000013600000,  -3.20000,
,,,00.000013700000,  -3.20000,
,,,00.000013800000,  -3.28000,
,,,00.000013900000,  -3.12000,
,,,00.000014000000,  -3.20000,
,,,00.000014100000,  -3.12000,
,,,00.000014200000,  -3.12000,
,,,00.000014300000,  -3.20000,
,,,00.000014400000,  -3.04000,
,,,00.000014500000,  -3.04000,
,,,00.000014600000,  -3.12000,
,,,00.000014700000,  -3.12000,
,,,00.000014800000,  -3.04000,
,,,00.000014900000,  -2.96000,
,,,00.000015000000,  -2.96000,
,,,00.000015100000,  -3.04000,
,,,00.000015200000,  -2.88000,
,,,00.000015300000,  -2.88000,
,,,00.000015400000,  -2.88000,
,,,00.000015500000,  -2.96000,
,,,00.000015600000,  -2.96000,
,,,00.000015700000,  -2.96000,
,,,00.000015800000,  -2.96000,
,,,00.000015900000,  -2.80000,
,,,00.000016000000,  -2.80000,
,,,00.000016100000,  -2.80000,
,,,00.000016200000,  -2.72000,
,,,00.000016300000,  -2.88000,
,,,00.000016400000,  -2.88000,
,,,00.000016500000,  -2.80000,
,,,00.000016600000,  -2.80000,
,,,00.000016700000,  -2.64000,
,,,00.000016800000,  -2.56000,
,,,00.000016900000,  -2.72000,
,,,00.000017000000,  -2.56000,
,,,00.000017100000,  -2.56000,
,,,00.000017200000,  -2.48000,
,,,00.000017300000,  -2.64000,
,,,00.000017400000,  -2.64000,
,,,00.000017500000,  -2.56000,
,,,00.000017600000,  -2.40000,
,,,00.000017700000,  -2.56000,
,,,00.000017800000,  -2.40000,
,,,00.000017900000,  -2.48000,
,,,00.000018000000,  -2.48000,
,,,00.000018100000,  -2.40000,
,,,00.000018200000,  -2.40000,
,,,00.000018300000,  -2.56000,
,,,00.000018400000,  -2.32000,
,,,00.000018500000,  -2.32000,
,,,00.000018600000,  -2.24000,
,,,00.000018700000,  -2.32000,
,,,00.000018800000,  -2.32000,
,,,00.000018900000,  -2.32000,
,,,00.000019000000,  -2.48000,
,,,00.000019100000,  -2.32000,
,,,00.000019200000,  -2.40000,
,,,00.000019300000,  -2.16000,
,,,00.000019400000,  -2.32000,
,,,00.000019500000,  -2.16000,
,,,00.000019600000,  -2.24000,
,,,00.000019700000,  -2.24000,
,,,00.000019800000,  -2.24000,
,,,00.000019900000,  -2.24000,
,,,00.000020000000,  -2.16000,
,,,00.000020100000,  -2.08000,
,,,00.000020200000,  -2.08000,
,,,00.000020300000,  -2.16000,
,,,00.000020400000,  -2.00000,
,,,00.000020500000,  -2.16000,
,,,00.000020600000,  -2.00000,
,,,00.000020700000,  -2.08000,
,,,00.000020800000,  -2.00000,
,,,00.000020900000,  -2.00000,
,,,00.000021000000,  -1.92000,
,,,00.000021100000,  -2.08000,
,,,00.000021200000,  -2.00000,
,,,00.000021300000,  -2.00000,
,,,00.000021400000,  -1.92000,
,,,00.000021500000,  -1.92000,
,,,00.000021600000,  -1.92000,
,,,00.000021700000,  -1.92000,
,,,00.000021800000,  -1.76000,
,,,00.000021900000,  -1.92000,
,,,00.000022000000,  -1.76000,
,,,00.000022100000,  -1.76000,
,,,00.000022200000,  -1.84000,
,,,00.000022300000,  -1.84000,
,,,00.000022400000,  -1.84000,
,,,00.000022500000,  -1.76000,
,,,00.000022600000,  -1.76000,
,,,00.000022700000,  -1.68000,
,,,00.000022800000,  -1.76000,
,,,00.000022900000,  -1.92000,
,,,00.000023000000,  -1.68000,
,,,00.000023100000,  -1.60000,
,,,00.000023200000,  -1.68000,
,,,00.000023300000,  -1.76000,
,,,00.000023400000,  -1.60000,
,,,00.000023500000,  -1.52000,
,,,00.000023600000,  -1.44000,
,,,00.000023700000,  -1.60000,
,,,00.000023800000,  -1.44000,
,,,00.000023900000,  -1.68000,
,,,00.000024000000,  -1.52000,
,,,00.000024100000,  -1.52000,
,,,00.000024200000,  -1.60000,
,,,00.000024300000,  -1.44000,
,,,00.000024400000,  -1.44000,
,,,00.000024500000,  -1.44000,
,,,00.000024600000,  -1.36000,
,,,00.000024700000,  -1.44000,
,,,00.000024800000,  -1.52000,
,,,00.000024900000,  -1.36000,
,,,00.000025000000,  -1.44000,
,,,00.000025100000,  -1.36000,
,,,00.000025200000,  -1.28000,
,,,00.000025300000,  -1.28000,
,,,00.000025400000,  -1.28000,
,,,00.000025500000,  -1.28000,
,,,00.000025600000,  -1.44000,
,,,00.000025700000,  -1.44000,
,,,00.000025800000,  -1.28000,
,,,00.000025900000,  -1.28000,
,,,00.000026000000,  -1.36000,
,,,00.000026100000,  -1.12000,
,,,00.000026200000,  -1.20000,
,,,00.000026300000,  -1.20000,
,,,00.000026400000,  -1.12000,
,,,00.000026500000,  -1.28000,
,,,00.000026600000,  -1.04000,
,,,00.000026700000,  -1.04000,
,,,00.000026800000,  -1.12000,
,,,00.000026900000,  -1.04000,
,,,00.000027000000,  -1.04000,
,,,00.000027100000,  -1.12000,
