Circuiti_3/data.new/RLC/7000/F0011CH2.CSV

Record Length,2.500000e+03,,  -0.000057000000,  -2.56000,
Sample Interval,1.000000e-07,,  -0.000056900000,  -2.56000,
Trigger Point,5.700000000000e+02,,  -0.000056800000,  -2.56000,
,,,  -0.000056700000,  -2.56000,
,,,  -0.000056600000,  -2.64000,
,,,  -0.000056500000,  -2.64000,
Source,CH2,,  -0.000056400000,  -2.64000,
Vertical Units,V,,  -0.000056300000,  -2.64000,
Vertical Scale,2.000000e+00,,  -0.000056200000,  -2.64000,
Vertical Offset,0.000000e+00,,  -0.000056100000,  -2.64000,
Horizontal Units,s,,  -0.000056000000,  -2.64000,
Horizontal Scale,2.500000e-05,,  -0.000055900000,  -2.72000,
Pt Fmt,Y,,  -0.000055800000,  -2.72000,
Yzero,0.000000e+00,,  -0.000055700000,  -2.72000,
Probe Atten,1.000000e+01,,  -0.000055600000,  -2.72000,
Model Number,TDS2012C,,  -0.000055500000,  -2.72000,
Serial Number,C050125,,  -0.000055400000,  -2.72000,
Firmware Version,FV:v24.26,,  -0.000055300000,  -2.80000,
,,,-00.000055200000,  -2.80000,
,,,-00.000055100000,  -2.80000,
,,,-00.000055000000,  -2.80000,
,,,-00.000054900000,  -2.80000,
,,,-00.000054800000,  -2.80000,
,,,-00.000054700000,  -2.80000,
,,,-00.000054600000,  -2.80000,
,,,-00.000054500000,  -2.80000,
,,,-00.000054400000,  -2.88000,
,,,-00.000054300000,  -2.88000,
,,,-00.000054200000,  -2.88000,
,,,-00.000054100000,  -2.88000,
,,,-00.000054000000,  -2.88000,
,,,-00.000053900000,  -2.88000,
,,,-00.000053800000,  -2.96000,
,,,-00.000053700000,  -2.96000,
,,,-00.000053600000,  -2.96000,
,,,-00.000053500000,  -2.96000,
,,,-00.000053400000,  -2.96000,
,,,-00.000053300000,  -2.96000,
,,,-00.000053200000,  -2.96000,
,,,-00.000053100000,  -2.96000,
,,,-00.000053000000,  -3.04000,
,,,-00.000052900000,  -3.04000,
,,,-00.000052800000,  -3.04000,
,,,-00.000052700000,  -3.04000,
,,,-00.000052600000,  -3.04000,
,,,-00.000052500000,  -3.04000,
,,,-00.000052400000,  -3.04000,
,,,-00.000052300000,  -3.12000,
,,,-00.000052200000,  -3.12000,
,,,-00.000052100000,  -3.12000,
,,,-00.000052000000,  -3.12000,
,,,-00.000051900000,  -3.12000,
,,,-00.000051800000,  -3.12000,
,,,-00.000051700000,  -3.12000,
,,,-00.000051600000,  -3.12000,
,,,-00.000051500000,  -3.12000,
,,,-00.000051400000,  -3.12000,
,,,-00.000051300000,  -3.20000,
,,,-00.000051200000,  -3.20000,
,,,-00.000051100000,  -3.20000,
,,,-00.000051000000,  -3.20000,
,,,-00.000050900000,  -3.20000,
,,,-00.000050800000,  -3.20000,
,,,-00.000050700000,  -3.20000,
,,,-00.000050600000,  -3.20000,
,,,-00.000050500000,  -3.20000,
,,,-00.000050400000,  -3.28000,
,,,-00.000050300000,  -3.28000,
,,,-00.000050200000,  -3.28000,
,,,-00.000050100000,  -3.28000,
,,,-00.000050000000,  -3.28000,
,,,-00.000049900000,  -3.28000,
,,,-00.000049800000,  -3.28000,
,,,-00.000049700000,  -3.28000,
,,,-00.000049600000,  -3.28000,
,,,-00.000049500000,  -3.36000,
,,,-00.000049400000,  -3.36000,
,,,-00.000049300000,  -3.36000,
,,,-00.000049200000,  -3.36000,
,,,-00.000049100000,  -3.36000,
,,,-00.000049000000,  -3.36000,
,,,-00.000048900000,  -3.36000,
,,,-00.000048800000,  -3.36000,
,,,-00.000048700000,  -3.36000,
,,,-00.000048600000,  -3.36000,
,,,-00.000048500000,  -3.36000,
,,,-00.000048400000,  -3.44000,
,,,-00.000048300000,  -3.36000,
,,,-00.000048200000,  -3.44000,
,,,-00.000048100000,  -3.44000,
,,,-00.000048000000,  -3.44000,
,,,-00.000047900000,  -3.44000,
,,,-00.000047800000,  -3.44000,
,,,-00.000047700000,  -3.44000,
,,,-00.000047600000,  -3.44000,
,,,-00.000047500000,  -3.44000,
,,,-00.000047400000,  -3.44000,
,,,-00.000047300000,  -3.44000,
,,,-00.000047200000,  -3.52000,
,,,-00.000047100000,  -3.52000,
,,,-00.000047000000,  -3.52000,
,,,-00.000046900000,  -3.52000,
,,,-00.000046800000,  -3.52000,
,,,-00.000046700000,  -3.52000,
,,,-00.000046600000,  -3.52000,
,,,-00.000046500000,  -3.52000,
,,,-00.000046400000,  -3.52000,
,,,-00.000046300000,  -3.52000,
,,,-00.000046200000,  -3.52000,
,,,-00.000046100000,  -3.52000,
,,,-00.000046000000,  -3.52000,
,,,-00.000045900000,  -3.52000,
,,,-00.000045800000,  -3.52000,
,,,-00.000045700000,  -3.60000,
,,,-00.000045600000,  -3.52000,
,,,-00.000045500000,  -3.60000,
,,,-00.000045400000,  -3.60000,
,,,-00.000045300000,  -3.60000,
,,,-00.000045200000,  -3.60000,
,,,-00.000045100000,  -3.60000,
,,,-00.000045000000,  -3.60000,
,,,-00.000044900000,  -3.60000,
,,,-00.000044800000,  -3.60000,
,,,-00.000044700000,  -3.60000,
,,,-00.000044600000,  -3.60000,
,,,-00.000044500000,  -3.60000,
,,,-00.000044400000,  -3.60000,
,,,-00.000044300000,  -3.60000,
,,,-00.000044200000,  -3.60000,
,,,-00.000044100000,  -3.60000,
,,,-00.000044000000,  -3.60000,
,,,-00.000043900000,  -3.60000,
,,,-00.000043800000,  -3.68000,
,,,-00.000043700000,  -3.68000,
,,,-00.000043600000,  -3.68000,
,,,-00.000043500000,  -3.68000,
,,,-00.000043400000,  -3.68000,
,,,-00.000043300000,  -3.68000,
,,,-00.000043200000,  -3.68000,
,,,-00.000043100000,  -3.68000,
,,,-00.000043000000,  -3.68000,
,,,-00.000042900000,  -3.68000,
,,,-00.000042800000,  -3.68000,
,,,-00.000042700000,  -3.68000,
,,,-00.000042600000,  -3.68000,
,,,-00.000042500000,  -3.68000,
,,,-00.000042400000,  -3.68000,
,,,-00.000042300000,  -3.68000,
,,,-00.000042200000,  -3.68000,
,,,-00.000042100000,  -3.68000,
,,,-00.000042000000,  -3.68000,
,,,-00.000041900000,  -3.76000,
,,,-00.000041800000,  -3.68000,
,,,-00.000041700000,  -3.68000,
,,,-00.000041600000,  -3.76000,
,,,-00.000041500000,  -3.68000,
,,,-00.000041400000,  -3.76000,
,,,-00.000041300000,  -3.76000,
,,,-00.000041200000,  -3.76000,
,,,-00.000041100000,  -3.76000,
,,,-00.000041000000,  -3.76000,
,,,-00.000040900000,  -3.76000,
,,,-00.000040800000,  -3.76000,
,,,-00.000040700000,  -3.76000,
,,,-00.000040600000,  -3.76000,
,,,-00.000040500000,  -3.76000,
,,,-00.000040400000,  -3.76000,
,,,-00.000040300000,  -3.76000,
,,,-00.000040200000,  -3.76000,
,,,-00.000040100000,  -3.76000,
,,,-00.000040000000,  -3.76000,
,,,-00.000039900000,  -3.76000,
,,,-00.000039800000,  -3.76000,
,,,-00.000039700000,  -3.76000,
,,,-00.000039600000,  -3.76000,
,,,-00.000039500000,  -3.76000,
,,,-00.000039400000,  -3.76000,
,,,-00.000039300000,  -3.76000,
,,,-00.000039200000,  -3.76000,
,,,-00.000039100000,  -3.76000,
,,,-00.000039000000,  -3.76000,
,,,-00.000038900000,  -3.76000,
,,,-00.000038800000,  -3.76000,
,,,-00.000038700000,  -3.76000,
,,,-00.000038600000,  -3.76000,
,,,-00.000038500000,  -3.76000,
,,,-00.000038400000,  -3.76000,
,,,-00.000038300000,  -3.76000,
,,,-00.000038200000,  -3.76000,
,,,-00.000038100000,  -3.76000,
,,,-00.000038000000,  -3.76000,
,,,-00.000037900000,  -3.76000,
,,,-00.000037800000,  -3.76000,
,,,-00.000037700000,  -3.76000,
,,,-00.000037600000,  -3.76000,
,,,-00.000037500000,  -3.76000,
,,,-00.000037400000,  -3.76000,
,,,-00.000037300000,  -3.76000,
,,,-00.000037200000,  -3.76000,
,,,-00.000037100000,  -3.76000,
,,,-00.000037000000,  -3.76000,
,,,-00.000036900000,  -3.76000,
,,,-00.000036800000,  -3.76000,
,,,-00.000036700000,  -3.76000,
,,,-00.000036600000,  -3.76000,
,,,-00.000036500000,  -3.76000,
,,,-00.000036400000,  -3.76000,
,,,-00.000036300000,  -3.76000,
,,,-00.000036200000,  -3.76000,
,,,-00.000036100000,  -3.76000,
,,,-00.000036000000,  -3.76000,
,,,-00.000035900000,  -3.76000,
,,,-00.000035800000,  -3.76000,
,,,-00.000035700000,  -3.76000,
,,,-00.000035600000,  -3.76000,
,,,-00.000035500000,  -3.76000,
,,,-00.000035400000,  -3.76000,
,,,-00.000035300000,  -3.76000,
,,,-00.000035200000,  -3.76000,
,,,-00.000035100000,  -3.76000,
,,,-00.000035000000,  -3.76000,
,,,-00.000034900000,  -3.68000,
,,,-00.000034800000,  -3.68000,
,,,-00.000034700000,  -3.68000,
,,,-00.000034600000,  -3.68000,
,,,-00.000034500000,  -3.76000,
,,,-00.000034400000,  -3.76000,
,,,-00.000034300000,  -3.76000,
,,,-00.000034200000,  -3.68000,
,,,-00.000034100000,  -3.68000,
,,,-00.000034000000,  -3.68000,
,,,-00.000033900000,  -3.68000,
,,,-00.000033800000,  -3.76000,
,,,-00.000033700000,  -3.68000,
,,,-00.000033600000,  -3.68000,
,,,-00.000033500000,  -3.68000,
,,,-00.000033400000,  -3.68000,
,,,-00.000033300000,  -3.68000,
,,,-00.000033200000,  -3.68000,
,,,-00.000033100000,  -3.68000,
,,,-00.000033000000,  -3.68000,
,,,-00.000032900000,  -3.68000,
,,,-00.000032800000,  -3.68000,
,,,-00.000032700000,  -3.68000,
,,,-00.000032600000,  -3.68000,
,,,-00.000032500000,  -3.68000,
,,,-00.000032400000,  -3.68000,
,,,-00.000032300000,  -3.68000,
,,,-00.000032200000,  -3.60000,
,,,-00.000032100000,  -3.60000,
,,,-00.000032000000,  -3.68000,
,,,-00.000031900000,  -3.60000,
,,,-00.000031800000,  -3.60000,
,,,-00.000031700000,  -3.60000,
,,,-00.000031600000,  -3.60000,
,,,-00.000031500000,  -3.60000,
,,,-00.000031400000,  -3.60000,
,,,-00.000031300000,  -3.60000,
,,,-00.000031200000,  -3.60000,
,,,-00.000031100000,  -3.60000,
,,,-00.000031000000,  -3.60000,
,,,-00.000030900000,  -3.60000,
,,,-00.000030800000,  -3.60000,
,,,-00.000030700000,  -3.60000,
,,,-00.000030600000,  -3.60000,
,,,-00.000030500000,  -3.60000,
,,,-00.000030400000,  -3.60000,
,,,-00.000030300000,  -3.60000,
,,,-00.000030200000,  -3.60000,
,,,-00.000030100000,  -3.52000,
,,,-00.000030000000,  -3.52000,
,,,-00.000029900000,  -3.52000,
,,,-00.000029800000,  -3.52000,
,,,-00.000029700000,  -3.52000,
,,,-00.000029600000,  -3.52000,
,,,-00.000029500000,  -3.52000,
,,,-00.000029400000,  -3.52000,
,,,-00.000029300000,  -3.52000,
,,,-00.000029200000,  -3.52000,
,,,-00.000029100000,  -3.52000,
,,,-00.000029000000,  -3.52000,
,,,-00.000028900000,  -3.52000,
,,,-00.000028800000,  -3.52000,
,,,-00.000028700000,  -3.44000,
,,,-00.000028600000,  -3.44000,
,,,-00.000028500000,  -3.44000,
,,,-00.000028400000,  -3.44000,
,,,-00.000028300000,  -3.44000,
,,,-00.000028200000,  -3.44000,
,,,-00.000028100000,  -3.44000,
,,,-00.000028000000,  -3.44000,
,,,-00.000027900000,  -3.44000,
,,,-00.000027800000,  -3.44000,
,,,-00.000027700000,  -3.44000,
,,,-00.000027600000,  -3.44000,
,,,-00.000027500000,  -3.44000,
,,,-00.000027400000,  -3.36000,
,,,-00.000027300000,  -3.36000,
,,,-00.000027200000,  -3.36000,
,,,-00.000027100000,  -3.36000,
,,,-00.000027000000,  -3.36000,
,,,-00.000026900000,  -3.36000,
,,,-00.000026800000,  -3.36000,
,,,-00.000026700000,  -3.36000,
,,,-00.000026600000,  -3.36000,
,,,-00.000026500000,  -3.36000,
,,,-00.000026400000,  -3.28000,
,,,-00.000026300000,  -3.36000,
,,,-00.000026200000,  -3.36000,
,,,-00.000026100000,  -3.28000,
,,,-00.000026000000,  -3.28000,
,,,-00.000025900000,  -3.28000,
,,,-00.000025800000,  -3.28000,
,,,-00.000025700000,  -3.28000,
,,,-00.000025600000,  -3.28000,
,,,-00.000025500000,  -3.28000,
,,,-00.000025400000,  -3.20000,
,,,-00.000025300000,  -3.28000,
,,,-00.000025200000,  -3.20000,
,,,-00.000025100000,  -3.20000,
,,,-00.000025000000,  -3.20000,
,,,-00.000024900000,  -3.20000,
,,,-00.000024800000,  -3.20000,
,,,-00.000024700000,  -3.20000,
,,,-00.000024600000,  -3.20000,
,,,-00.000024500000,  -3.12000,
,,,-00.000024400000,  -3.12000,
,,,-00.000024300000,  -3.12000,
,,,-00.000024200000,  -3.12000,
,,,-00.000024100000,  -3.12000,
,,,-00.000024000000,  -3.12000,
,,,-00.000023900000,  -3.12000,
,,,-00.000023800000,  -3.12000,
,,,-00.000023700000,  -3.12000,
,,,-00.000023600000,  -3.04000,
,,,-00.000023500000,  -3.04000,
,,,-00.000023400000,  -3.04000,
,,,-00.000023300000,  -3.04000,
,,,-00.000023200000,  -3.04000,
,,,-00.000023100000,  -3.04000,
,,,-00.000023000000,  -3.04000,
,,,-00.000022900000,  -3.04000,
,,,-00.000022800000,  -3.04000,
,,,-00.000022700000,  -2.96000,
,,,-00.000022600000,  -2.96000,
,,,-00.000022500000,  -2.96000,
,,,-00.000022400000,  -2.96000,
,,,-00.000022300000,  -2.96000,
,,,-00.000022200000,  -2.96000,
,,,-00.000022100000,  -2.96000,
,,,-00.000022000000,  -2.96000,
,,,-00.000021900000,  -2.88000,
,,,-00.000021800000,  -2.88000,
,,,-00.000021700000,  -2.88000,
,,,-00.000021600000,  -2.88000,
,,,-00.000021500000,  -2.88000,
,,,-00.000021400000,  -2.88000,
,,,-00.000021300000,  -2.88000,
,,,-00.000021200000,  -2.80000,
,,,-00.000021100000,  -2.80000,
,,,-00.000021000000,  -2.80000,
,,,-00.000020900000,  -2.80000,
,,,-00.000020800000,  -2.80000,
,,,-00.000020700000,  -2.80000,
,,,-00.000020600000,  -2.80000,
,,,-00.000020500000,  -2.72000,
,,,-00.000020400000,  -2.72000,
,,,-00.000020300000,  -2.72000,
,,,-00.000020200000,  -2.72000,
,,,-00.000020100000,  -2.72000,
,,,-00.000020000000,  -2.72000,
,,,-00.000019900000,  -2.72000,
,,,-00.000019800000,  -2.64000,
,,,-00.000019700000,  -2.64000,
,,,-00.000019600000,  -2.64000,
,,,-00.000019500000,  -2.64000,
,,,-00.000019400000,  -2.64000,
,,,-00.000019300000,  -2.64000,
,,,-00.000019200000,  -2.56000,
,,,-00.000019100000,  -2.56000,
,,,-00.000019000000,  -2.56000,
,,,-00.000018900000,  -2.56000,
,,,-00.000018800000,  -2.56000,
,,,-00.000018700000,  -2.48000,
,,,-00.000018600000,  -2.56000,
,,,-00.000018500000,  -2.48000,
,,,-00.000018400000,  -2.48000,
,,,-00.000018300000,  -2.48000,
,,,-00.000018200000,  -2.48000,
,,,-00.000018100000,  -2.48000,
,,,-00.000018000000,  -2.48000,
,,,-00.000017900000,  -2.40000,
,,,-00.000017800000,  -2.40000,
,,,-00.000017700000,  -2.40000,
,,,-00.000017600000,  -2.40000,
,,,-00.000017500000,  -2.40000,
,,,-00.000017400000,  -2.32000,
,,,-00.000017300000,  -2.32000,
,,,-00.000017200000,  -2.32000,
,,,-00.000017100000,  -2.32000,
,,,-00.000017000000,  -2.32000,
,,,-00.000016900000,  -2.32000,
,,,-00.000016800000,  -2.24000,
,,,-00.000016700000,  -2.24000,
,,,-00.000016600000,  -2.24000,
,,,-00.000016500000,  -2.24000,
,,,-00.000016400000,  -2.24000,
,,,-00.000016300000,  -2.24000,
,,,-00.000016200000,  -2.16000,
,,,-00.000016100000,  -2.16000,
,,,-00.000016000000,  -2.16000,
,,,-00.000015900000,  -2.16000,
,,,-00.000015800000,  -2.16000,
,,,-00.000015700000,  -2.16000,
,,,-00.000015600000,  -2.16000,
,,,-00.000015500000,  -2.08000,
,,,-00.000015400000,  -2.08000,
,,,-00.000015300000,  -2.08000,
,,,-00.000015200000,  -2.00000,
,,,-00.000015100000,  -2.00000,
,,,-00.000015000000,  -2.00000,
,,,-00.000014900000,  -2.00000,
,,,-00.000014800000,  -2.00000,
,,,-00.000014700000,  -2.00000,
,,,-00.000014600000,  -2.00000,
,,,-00.000014500000,  -1.92000,
,,,-00.000014400000,  -1.92000,
,,,-00.000014300000,  -1.92000,
,,,-00.000014200000,  -1.92000,
,,,-00.000014100000,  -1.84000,
,,,-00.000014000000,  -1.92000,
,,,-00.000013900000,  -1.84000,
,,,-00.000013800000,  -1.84000,
,,,-00.000013700000,  -1.84000,
,,,-00.000013600000,  -1.84000,
,,,-00.000013500000,  -1.76000,
,,,-00.000013400000,  -1.76000,
,,,-00.000013300000,  -1.76000,
,,,-00.000013200000,  -1.76000,
,,,-00.000013100000,  -1.76000,
,,,-00.000013000000,  -1.68000,
,,,-00.000012900000,  -1.68000,
,,,-00.000012800000,  -1.68000,
,,,-00.000012700000,  -1.68000,
,,,-00.000012600000,  -1.68000,
,,,-00.000012500000,  -1.60000,
,,,-00.000012400000,  -1.60000,
,,,-00.000012300000,  -1.60000,
,,,-00.000012200000,  -1.60000,
,,,-00.000012100000,  -1.60000,
,,,-00.000012000000,  -1.60000,
,,,-00.000011900000,  -1.52000,
,,,-00.000011800000,  -1.52000,
,,,-00.000011700000,  -1.52000,
,,,-00.000011600000,  -1.52000,
,,,-00.000011500000,  -1.44000,
,,,-00.000011400000,  -1.44000,
,,,-00.000011300000,  -1.44000,
,,,-00.000011200000,  -1.44000,
,,,-00.000011100000,  -1.44000,
,,,-00.000011000000,  -1.36000,
,,,-00.000010900000,  -1.36000,
,,,-00.000010800000,  -1.36000,
,,,-00.000010700000,  -1.36000,
,,,-00.000010600000,  -1.36000,
,,,-00.000010500000,  -1.36000,
,,,-00.000010400000,  -1.28000,
,,,-00.000010300000,  -1.28000,
,,,-00.000010200000,  -1.28000,
,,,-00.000010100000,  -1.28000,
,,,-00.000010000000,  -1.28000,
,,,-00.000009900000,  -1.20000,
,,,-00.000009800000,  -1.20000,
,,,-00.000009700000,  -1.20000,
,,,-00.000009600000,  -1.20000,
,,,-00.000009500000,  -1.12000,
,,,-00.000009400000,  -1.12000,
,,,-00.000009300000,  -1.12000,
,,,-00.000009200000,  -1.12000,
,,,-00.000009100000,  -1.12000,
,,,-00.000009000000,  -1.12000,
,,,-00.000008900000,  -1.04000,
,,,-00.000008800000,  -1.04000,
,,,-00.000008700000,  -1.04000,
,,,-00.000008600000,  -1.04000,
,,,-00.000008500000,  -0.96000,
,,,-00.000008400000,  -0.96000,
,,,-00.000008300000,  -0.96000,
,,,-00.000008200000,  -0.96000,
,,,-00.000008100000,  -0.96000,
,,,-00.000008000000,  -0.88000,
,,,-00.000007900000,  -0.88000,
,,,-00.000007800000,  -0.88000,
,,,-00.000007700000,  -0.88000,
,,,-00.000007600000,  -0.80000,
,,,-00.000007500000,  -0.88000,
,,,-00.000007400000,  -0.80000,
,,,-00.000007300000,  -0.80000,
,,,-00.000007200000,  -0.80000,
,,,-00.000007100000,  -0.72000,
,,,-00.000007000000,  -0.72000,
,,,-00.000006900000,  -0.72000,
,,,-00.000006800000,  -0.72000,
,,,-00.000006700000,  -0.72000,
,,,-00.000006600000,  -0.64000,
,,,-00.000006500000,  -0.64000,
,,,-00.000006400000,  -0.64000,
,,,-00.000006300000,  -0.64000,
,,,-00.000006200000,  -0.64000,
,,,-00.000006100000,  -0.56000,
,,,-00.000006000000,  -0.56000,
,,,-00.000005900000,  -0.56000,
,,,-00.000005800000,  -0.56000,
,,,-00.000005700000,  -0.56000,
,,,-00.000005600000,  -0.56000,
,,,-00.000005500000,  -0.48000,
,,,-00.000005400000,  -0.48000,
,,,-00.000005300000,  -0.48000,
,,,-00.000005200000,  -0.48000,
,,,-00.000005100000,  -0.40000,
,,,-00.000005000000,  -0.40000,
,,,-00.000004900000,  -0.40000,
,,,-00.000004800000,  -0.40000,
,,,-00.000004700000,  -0.40000,
,,,-00.000004600000,  -0.32000,
,,,-00.000004500000,  -0.32000,
,,,-00.000004400000,  -0.32000,
,,,-00.000004300000,  -0.32000,
,,,-00.000004200000,  -0.24000,
,,,-00.000004100000,  -0.24000,
,,,-00.000004000000,  -0.24000,
,,,-00.000003900000,  -0.16000,
,,,-00.000003800000,  -0.24000,
,,,-00.000003700000,  -0.16000,
,,,-00.000003600000,  -0.16000,
,,,-00.000003500000,  -0.16000,
,,,-00.000003400000,  -0.16000,
,,,-00.000003300000,  -0.08000,
,,,-00.000003200000,  -0.08000,
,,,-00.000003100000,  -0.08000,
,,,-00.000003000000,  -0.08000,
,,,-00.000002900000,   0.00000,
,,,-00.000002800000,   0.00000,
,,,-00.000002700000,   0.00000,
,,,-00.000002600000,   0.00000,
,,,-00.000002500000,   0.00000,
,,,-00.000002400000,   0.08000,
,,,-00.000002300000,   0.08000,
,,,-00.000002200000,   0.08000,
,,,-00.000002100000,   0.08000,
,,,-00.000002000000,   0.08000,
,,,-00.000001900000,   0.08000,
,,,-00.000001800000,   0.16000,
,,,-00.000001700000,   0.16000,
,,,-00.000001600000,   0.16000,
,,,-00.000001500000,   0.16000,
,,,-00.000001400000,   0.16000,
,,,-00.000001300000,   0.24000,
,,,-00.000001200000,   0.24000,
,,,-00.000001100000,   0.24000,
,,,-00.000001000000,   0.24000,
,,,-00.000000900000,   0.32000,
,,,-00.000000800000,   0.32000,
,,,-00.000000700000,   0.32000,
,,,-00.000000600000,   0.32000,
,,,-00.000000500000,   0.32000,
,,,-00.000000400000,   0.40000,
,,,-00.000000300000,   0.40000,
,,,-00.000000200000,   0.40000,
,,,-00.000000100000,   0.40000,
,,,-00.000000000000,   0.40000,
,,,00.000000100000,   0.48000,
,,,00.000000200000,   0.48000,
,,,00.000000300000,   0.48000,
,,,00.000000400000,   0.48000,
,,,00.000000500000,   0.48000,
,,,00.000000600000,   0.56000,
,,,00.000000700000,   0.56000,
,,,00.000000800000,   0.56000,
,,,00.000000900000,   0.56000,
,,,00.000001000000,   0.64000,
,,,00.000001100000,   0.64000,
,,,00.000001200000,   0.64000,
,,,00.000001300000,   0.64000,
,,,00.000001400000,   0.64000,
,,,00.000001500000,   0.72000,
,,,00.000001600000,   0.72000,
,,,00.000001700000,   0.72000,
,,,00.000001800000,   0.72000,
,,,00.000001900000,   0.80000,
,,,00.000002000000,   0.80000,
,,,00.000002100000,   0.80000,
,,,00.000002200000,   0.80000,
,,,00.000002300000,   0.80000,
,,,00.000002400000,   0.80000,
,,,00.000002500000,   0.88000,
,,,00.000002600000,   0.88000,
,,,00.000002700000,   0.88000,
,,,00.000002800000,   0.88000,
,,,00.000002900000,   0.88000,
,,,00.000003000000,   0.96000,
,,,00.000003100000,   0.96000,
,,,00.000003200000,   0.96000,
,,,00.000003300000,   0.96000,
,,,00.000003400000,   0.96000,
,,,00.000003500000,   1.04000,
,,,00.000003600000,   1.04000,
,,,00.000003700000,   1.04000,
,,,00.000003800000,   1.04000,
,,,00.000003900000,   1.12000,
,,,00.000004000000,   1.12000,
,,,00.000004100000,   1.12000,
,,,00.000004200000,   1.12000,
,,,00.000004300000,   1.12000,
,,,00.000004400000,   1.12000,
