Circuiti_3/data.new/RLC_R/ALL0013/F0013CH2.CSV

Record Length,2.500000e+03,,  -0.000085000000,   3.92000,
Sample Interval,1.000000e-07,,  -0.000084900000,   4.00000,
Trigger Point,8.500000000000e+02,,  -0.000084800000,   4.00000,
,,,  -0.000084700000,   4.08000,
,,,  -0.000084600000,   4.00000,
,,,  -0.000084500000,   3.92000,
Source,CH2,,  -0.000084400000,   3.92000,
Vertical Units,V,,  -0.000084300000,   4.00000,
Vertical Scale,2.000000e+00,,  -0.000084200000,   4.00000,
Vertical Offset,0.000000e+00,,  -0.000084100000,   4.00000,
Horizontal Units,s,,  -0.000084000000,   4.00000,
Horizontal Scale,2.500000e-05,,  -0.000083900000,   3.92000,
Pt Fmt,Y,,  -0.000083800000,   3.92000,
Yzero,0.000000e+00,,  -0.000083700000,   3.92000,
Probe Atten,1.000000e+01,,  -0.000083600000,   3.92000,
Model Number,TDS2012C,,  -0.000083500000,   3.84000,
Serial Number,C050125,,  -0.000083400000,   4.00000,
Firmware Version,FV:v24.26,,  -0.000083300000,   3.92000,
,,,-00.000083200000,   4.00000,
,,,-00.000083100000,   3.92000,
,,,-00.000083000000,   4.00000,
,,,-00.000082900000,   3.84000,
,,,-00.000082800000,   3.84000,
,,,-00.000082700000,   4.00000,
,,,-00.000082600000,   4.00000,
,,,-00.000082500000,   3.92000,
,,,-00.000082400000,   4.00000,
,,,-00.000082300000,   4.00000,
,,,-00.000082200000,   3.92000,
,,,-00.000082100000,   3.92000,
,,,-00.000082000000,   3.92000,
,,,-00.000081900000,   3.92000,
,,,-00.000081800000,   3.84000,
,,,-00.000081700000,   3.92000,
,,,-00.000081600000,   3.84000,
,,,-00.000081500000,   4.00000,
,,,-00.000081400000,   4.00000,
,,,-00.000081300000,   4.00000,
,,,-00.000081200000,   3.84000,
,,,-00.000081100000,   3.84000,
,,,-00.000081000000,   3.84000,
,,,-00.000080900000,   3.68000,
,,,-00.000080800000,   3.84000,
,,,-00.000080700000,   3.92000,
,,,-00.000080600000,   3.84000,
,,,-00.000080500000,   3.84000,
,,,-00.000080400000,   3.76000,
,,,-00.000080300000,   3.84000,
,,,-00.000080200000,   3.76000,
,,,-00.000080100000,   3.76000,
,,,-00.000080000000,   3.76000,
,,,-00.000079900000,   3.84000,
,,,-00.000079800000,   3.84000,
,,,-00.000079700000,   3.84000,
,,,-00.000079600000,   3.76000,
,,,-00.000079500000,   3.84000,
,,,-00.000079400000,   3.68000,
,,,-00.000079300000,   3.68000,
,,,-00.000079200000,   3.76000,
,,,-00.000079100000,   3.76000,
,,,-00.000079000000,   3.76000,
,,,-00.000078900000,   3.60000,
,,,-00.000078800000,   3.68000,
,,,-00.000078700000,   3.68000,
,,,-00.000078600000,   3.68000,
,,,-00.000078500000,   3.68000,
,,,-00.000078400000,   3.68000,
,,,-00.000078300000,   3.68000,
,,,-00.000078200000,   3.84000,
,,,-00.000078100000,   3.68000,
,,,-00.000078000000,   3.68000,
,,,-00.000077900000,   3.60000,
,,,-00.000077800000,   3.68000,
,,,-00.000077700000,   3.60000,
,,,-00.000077600000,   3.68000,
,,,-00.000077500000,   3.60000,
,,,-00.000077400000,   3.60000,
,,,-00.000077300000,   3.60000,
,,,-00.000077200000,   3.60000,
,,,-00.000077100000,   3.60000,
,,,-00.000077000000,   3.52000,
,,,-00.000076900000,   3.52000,
,,,-00.000076800000,   3.44000,
,,,-00.000076700000,   3.52000,
,,,-00.000076600000,   3.52000,
,,,-00.000076500000,   3.60000,
,,,-00.000076400000,   3.52000,
,,,-00.000076300000,   3.44000,
,,,-00.000076200000,   3.52000,
,,,-00.000076100000,   3.44000,
,,,-00.000076000000,   3.36000,
,,,-00.000075900000,   3.44000,
,,,-00.000075800000,   3.44000,
,,,-00.000075700000,   3.44000,
,,,-00.000075600000,   3.44000,
,,,-00.000075500000,   3.44000,
,,,-00.000075400000,   3.44000,
,,,-00.000075300000,   3.36000,
,,,-00.000075200000,   3.36000,
,,,-00.000075100000,   3.28000,
,,,-00.000075000000,   3.36000,
,,,-00.000074900000,   3.44000,
,,,-00.000074800000,   3.36000,
,,,-00.000074700000,   3.36000,
,,,-00.000074600000,   3.36000,
,,,-00.000074500000,   3.20000,
,,,-00.000074400000,   3.28000,
,,,-00.000074300000,   3.28000,
,,,-00.000074200000,   3.28000,
,,,-00.000074100000,   3.28000,
,,,-00.000074000000,   3.20000,
,,,-00.000073900000,   3.12000,
,,,-00.000073800000,   3.20000,
,,,-00.000073700000,   3.20000,
,,,-00.000073600000,   3.12000,
,,,-00.000073500000,   3.12000,
,,,-00.000073400000,   3.20000,
,,,-00.000073300000,   3.20000,
,,,-00.000073200000,   3.12000,
,,,-00.000073100000,   3.28000,
,,,-00.000073000000,   3.04000,
,,,-00.000072900000,   2.96000,
,,,-00.000072800000,   3.12000,
,,,-00.000072700000,   3.12000,
,,,-00.000072600000,   3.12000,
,,,-00.000072500000,   3.04000,
,,,-00.000072400000,   3.12000,
,,,-00.000072300000,   3.04000,
,,,-00.000072200000,   2.96000,
,,,-00.000072100000,   3.04000,
,,,-00.000072000000,   2.88000,
,,,-00.000071900000,   2.88000,
,,,-00.000071800000,   2.88000,
,,,-00.000071700000,   2.96000,
,,,-00.000071600000,   2.88000,
,,,-00.000071500000,   2.88000,
,,,-00.000071400000,   2.80000,
,,,-00.000071300000,   2.88000,
,,,-00.000071200000,   2.88000,
,,,-00.000071100000,   2.80000,
,,,-00.000071000000,   2.72000,
,,,-00.000070900000,   2.72000,
,,,-00.000070800000,   2.80000,
,,,-00.000070700000,   2.80000,
,,,-00.000070600000,   2.80000,
,,,-00.000070500000,   2.72000,
,,,-00.000070400000,   2.64000,
,,,-00.000070300000,   2.64000,
,,,-00.000070200000,   2.64000,
,,,-00.000070100000,   2.56000,
,,,-00.000070000000,   2.56000,
,,,-00.000069900000,   2.64000,
,,,-00.000069800000,   2.64000,
,,,-00.000069700000,   2.56000,
,,,-00.000069600000,   2.48000,
,,,-00.000069500000,   2.56000,
,,,-00.000069400000,   2.48000,
,,,-00.000069300000,   2.56000,
,,,-00.000069200000,   2.64000,
,,,-00.000069100000,   2.56000,
,,,-00.000069000000,   2.32000,
,,,-00.000068900000,   2.40000,
,,,-00.000068800000,   2.48000,
,,,-00.000068700000,   2.40000,
,,,-00.000068600000,   2.40000,
,,,-00.000068500000,   2.40000,
,,,-00.000068400000,   2.40000,
,,,-00.000068300000,   2.40000,
,,,-00.000068200000,   2.32000,
,,,-00.000068100000,   2.32000,
,,,-00.000068000000,   2.32000,
,,,-00.000067900000,   2.24000,
,,,-00.000067800000,   2.32000,
,,,-00.000067700000,   2.32000,
,,,-00.000067600000,   2.24000,
,,,-00.000067500000,   2.16000,
,,,-00.000067400000,   2.24000,
,,,-00.000067300000,   2.24000,
,,,-00.000067200000,   2.16000,
,,,-00.000067100000,   2.08000,
,,,-00.000067000000,   2.08000,
,,,-00.000066900000,   2.00000,
,,,-00.000066800000,   2.08000,
,,,-00.000066700000,   2.08000,
,,,-00.000066600000,   2.08000,
,,,-00.000066500000,   1.92000,
,,,-00.000066400000,   1.92000,
,,,-00.000066300000,   1.92000,
,,,-00.000066200000,   1.92000,
,,,-00.000066100000,   1.92000,
,,,-00.000066000000,   1.84000,
,,,-00.000065900000,   1.84000,
,,,-00.000065800000,   1.84000,
,,,-00.000065700000,   1.84000,
,,,-00.000065600000,   1.84000,
,,,-00.000065500000,   1.84000,
,,,-00.000065400000,   1.84000,
,,,-00.000065300000,   1.76000,
,,,-00.000065200000,   1.68000,
,,,-00.000065100000,   1.68000,
,,,-00.000065000000,   1.76000,
,,,-00.000064900000,   1.68000,
,,,-00.000064800000,   1.68000,
,,,-00.000064700000,   1.60000,
,,,-00.000064600000,   1.52000,
,,,-00.000064500000,   1.60000,
,,,-00.000064400000,   1.68000,
,,,-00.000064300000,   1.60000,
,,,-00.000064200000,   1.60000,
,,,-00.000064100000,   1.52000,
,,,-00.000064000000,   1.52000,
,,,-00.000063900000,   1.44000,
,,,-00.000063800000,   1.44000,
,,,-00.000063700000,   1.44000,
,,,-00.000063600000,   1.36000,
,,,-00.000063500000,   1.44000,
,,,-00.000063400000,   1.36000,
,,,-00.000063300000,   1.36000,
,,,-00.000063200000,   1.44000,
,,,-00.000063100000,   1.36000,
,,,-00.000063000000,   1.28000,
,,,-00.000062900000,   1.20000,
,,,-00.000062800000,   1.28000,
,,,-00.000062700000,   1.20000,
,,,-00.000062600000,   1.20000,
,,,-00.000062500000,   1.28000,
,,,-00.000062400000,   1.20000,
,,,-00.000062300000,   1.20000,
,,,-00.000062200000,   1.12000,
,,,-00.000062100000,   1.04000,
,,,-00.000062000000,   1.12000,
,,,-00.000061900000,   1.12000,
,,,-00.000061800000,   1.12000,
,,,-00.000061700000,   1.04000,
,,,-00.000061600000,   1.04000,
,,,-00.000061500000,   0.96000,
,,,-00.000061400000,   0.96000,
,,,-00.000061300000,   0.88000,
,,,-00.000061200000,   0.96000,
,,,-00.000061100000,   0.88000,
,,,-00.000061000000,   0.72000,
,,,-00.000060900000,   0.88000,
,,,-00.000060800000,   0.80000,
,,,-00.000060700000,   0.88000,
,,,-00.000060600000,   0.80000,
,,,-00.000060500000,   0.72000,
,,,-00.000060400000,   0.72000,
,,,-00.000060300000,   0.64000,
,,,-00.000060200000,   0.64000,
,,,-00.000060100000,   0.64000,
,,,-00.000060000000,   0.72000,
,,,-00.000059900000,   0.64000,
,,,-00.000059800000,   0.64000,
,,,-00.000059700000,   0.48000,
,,,-00.000059600000,   0.56000,
,,,-00.000059500000,   0.56000,
,,,-00.000059400000,   0.56000,
,,,-00.000059300000,   0.48000,
,,,-00.000059200000,   0.48000,
,,,-00.000059100000,   0.48000,
,,,-00.000059000000,   0.32000,
,,,-00.000058900000,   0.40000,
,,,-00.000058800000,   0.40000,
,,,-00.000058700000,   0.40000,
,,,-00.000058600000,   0.32000,
,,,-00.000058500000,   0.32000,
,,,-00.000058400000,   0.24000,
,,,-00.000058300000,   0.24000,
,,,-00.000058200000,   0.32000,
,,,-00.000058100000,   0.24000,
,,,-00.000058000000,   0.16000,
,,,-00.000057900000,   0.16000,
,,,-00.000057800000,   0.24000,
,,,-00.000057700000,   0.24000,
,,,-00.000057600000,   0.16000,
,,,-00.000057500000,   0.16000,
,,,-00.000057400000,   0.08000,
,,,-00.000057300000,   0.08000,
,,,-00.000057200000,   0.00000,
,,,-00.000057100000,   0.00000,
,,,-00.000057000000,   0.00000,
,,,-00.000056900000,  -0.08000,
,,,-00.000056800000,  -0.08000,
,,,-00.000056700000,   0.00000,
,,,-00.000056600000,  -0.08000,
,,,-00.000056500000,  -0.16000,
,,,-00.000056400000,  -0.16000,
,,,-00.000056300000,  -0.16000,
,,,-00.000056200000,  -0.24000,
,,,-00.000056100000,  -0.16000,
,,,-00.000056000000,  -0.24000,
,,,-00.000055900000,  -0.16000,
,,,-00.000055800000,  -0.24000,
,,,-00.000055700000,  -0.32000,
,,,-00.000055600000,  -0.24000,
,,,-00.000055500000,  -0.32000,
,,,-00.000055400000,  -0.40000,
,,,-00.000055300000,  -0.40000,
,,,-00.000055200000,  -0.40000,
,,,-00.000055100000,  -0.32000,
,,,-00.000055000000,  -0.48000,
,,,-00.000054900000,  -0.48000,
,,,-00.000054800000,  -0.48000,
,,,-00.000054700000,  -0.48000,
,,,-00.000054600000,  -0.56000,
,,,-00.000054500000,  -0.40000,
,,,-00.000054400000,  -0.56000,
,,,-00.000054300000,  -0.56000,
,,,-00.000054200000,  -0.64000,
,,,-00.000054100000,  -0.64000,
,,,-00.000054000000,  -0.72000,
,,,-00.000053900000,  -0.64000,
,,,-00.000053800000,  -0.72000,
,,,-00.000053700000,  -0.72000,
,,,-00.000053600000,  -0.72000,
,,,-00.000053500000,  -0.72000,
,,,-00.000053400000,  -0.72000,
,,,-00.000053300000,  -0.80000,
,,,-00.000053200000,  -0.80000,
,,,-00.000053100000,  -0.88000,
,,,-00.000053000000,  -0.88000,
,,,-00.000052900000,  -0.88000,
,,,-00.000052800000,  -0.96000,
,,,-00.000052700000,  -0.96000,
,,,-00.000052600000,  -0.88000,
,,,-00.000052500000,  -0.96000,
,,,-00.000052400000,  -0.96000,
,,,-00.000052300000,  -0.96000,
,,,-00.000052200000,  -1.04000,
,,,-00.000052100000,  -1.04000,
,,,-00.000052000000,  -1.12000,
,,,-00.000051900000,  -1.12000,
,,,-00.000051800000,  -1.12000,
,,,-00.000051700000,  -1.12000,
,,,-00.000051600000,  -1.12000,
,,,-00.000051500000,  -1.20000,
,,,-00.000051400000,  -1.20000,
,,,-00.000051300000,  -1.12000,
,,,-00.000051200000,  -1.28000,
,,,-00.000051100000,  -1.36000,
,,,-00.000051000000,  -1.20000,
,,,-00.000050900000,  -1.28000,
,,,-00.000050800000,  -1.28000,
,,,-00.000050700000,  -1.36000,
,,,-00.000050600000,  -1.44000,
,,,-00.000050500000,  -1.44000,
,,,-00.000050400000,  -1.44000,
,,,-00.000050300000,  -1.52000,
,,,-00.000050200000,  -1.52000,
,,,-00.000050100000,  -1.44000,
,,,-00.000050000000,  -1.44000,
,,,-00.000049900000,  -1.52000,
,,,-00.000049800000,  -1.60000,
,,,-00.000049700000,  -1.60000,
,,,-00.000049600000,  -1.68000,
,,,-00.000049500000,  -1.52000,
,,,-00.000049400000,  -1.60000,
,,,-00.000049300000,  -1.60000,
,,,-00.000049200000,  -1.76000,
,,,-00.000049100000,  -1.68000,
,,,-00.000049000000,  -1.76000,
,,,-00.000048900000,  -1.76000,
,,,-00.000048800000,  -1.84000,
,,,-00.000048700000,  -1.68000,
,,,-00.000048600000,  -1.76000,
,,,-00.000048500000,  -1.76000,
,,,-00.000048400000,  -1.76000,
,,,-00.000048300000,  -1.76000,
,,,-00.000048200000,  -2.00000,
,,,-00.000048100000,  -1.92000,
,,,-00.000048000000,  -1.92000,
,,,-00.000047900000,  -1.76000,
,,,-00.000047800000,  -1.92000,
,,,-00.000047700000,  -2.00000,
,,,-00.000047600000,  -2.00000,
,,,-00.000047500000,  -1.92000,
,,,-00.000047400000,  -2.08000,
,,,-00.000047300000,  -2.00000,
,,,-00.000047200000,  -2.16000,
,,,-00.000047100000,  -2.08000,
,,,-00.000047000000,  -2.08000,
,,,-00.000046900000,  -2.08000,
,,,-00.000046800000,  -2.00000,
,,,-00.000046700000,  -2.16000,
,,,-00.000046600000,  -2.24000,
,,,-00.000046500000,  -2.24000,
,,,-00.000046400000,  -2.24000,
,,,-00.000046300000,  -2.32000,
,,,-00.000046200000,  -2.16000,
,,,-00.000046100000,  -2.32000,
,,,-00.000046000000,  -2.24000,
,,,-00.000045900000,  -2.24000,
,,,-00.000045800000,  -2.32000,
,,,-00.000045700000,  -2.40000,
,,,-00.000045600000,  -2.24000,
,,,-00.000045500000,  -2.40000,
,,,-00.000045400000,  -2.40000,
,,,-00.000045300000,  -2.40000,
,,,-00.000045200000,  -2.48000,
,,,-00.000045100000,  -2.32000,
,,,-00.000045000000,  -2.48000,
,,,-00.000044900000,  -2.48000,
,,,-00.000044800000,  -2.56000,
,,,-00.000044700000,  -2.56000,
,,,-00.000044600000,  -2.48000,
,,,-00.000044500000,  -2.48000,
,,,-00.000044400000,  -2.56000,
,,,-00.000044300000,  -2.56000,
,,,-00.000044200000,  -2.64000,
,,,-00.000044100000,  -2.72000,
,,,-00.000044000000,  -2.72000,
,,,-00.000043900000,  -2.64000,
,,,-00.000043800000,  -2.64000,
,,,-00.000043700000,  -2.64000,
,,,-00.000043600000,  -2.64000,
,,,-00.000043500000,  -2.64000,
,,,-00.000043400000,  -2.64000,
,,,-00.000043300000,  -2.80000,
,,,-00.000043200000,  -2.80000,
,,,-00.000043100000,  -2.80000,
,,,-00.000043000000,  -2.72000,
,,,-00.000042900000,  -2.88000,
,,,-00.000042800000,  -2.80000,
,,,-00.000042700000,  -2.80000,
,,,-00.000042600000,  -2.80000,
,,,-00.000042500000,  -2.88000,
,,,-00.000042400000,  -2.88000,
,,,-00.000042300000,  -2.88000,
,,,-00.000042200000,  -2.96000,
,,,-00.000042100000,  -2.96000,
,,,-00.000042000000,  -2.96000,
,,,-00.000041900000,  -2.88000,
,,,-00.000041800000,  -2.88000,
,,,-00.000041700000,  -2.96000,
,,,-00.000041600000,  -3.04000,
,,,-00.000041500000,  -3.04000,
,,,-00.000041400000,  -2.96000,
,,,-00.000041300000,  -3.04000,
,,,-00.000041200000,  -3.04000,
,,,-00.000041100000,  -3.04000,
,,,-00.000041000000,  -3.12000,
,,,-00.000040900000,  -3.12000,
,,,-00.000040800000,  -3.12000,
,,,-00.000040700000,  -3.20000,
,,,-00.000040600000,  -3.20000,
,,,-00.000040500000,  -3.12000,
,,,-00.000040400000,  -3.12000,
,,,-00.000040300000,  -3.20000,
,,,-00.000040200000,  -3.20000,
,,,-00.000040100000,  -3.12000,
,,,-00.000040000000,  -3.20000,
,,,-00.000039900000,  -3.20000,
,,,-00.000039800000,  -3.28000,
,,,-00.000039700000,  -3.28000,
,,,-00.000039600000,  -3.20000,
,,,-00.000039500000,  -3.20000,
,,,-00.000039400000,  -3.28000,
,,,-00.000039300000,  -3.44000,
,,,-00.000039200000,  -3.28000,
,,,-00.000039100000,  -3.36000,
,,,-00.000039000000,  -3.44000,
,,,-00.000038900000,  -3.36000,
,,,-00.000038800000,  -3.28000,
,,,-00.000038700000,  -3.36000,
,,,-00.000038600000,  -3.28000,
,,,-00.000038500000,  -3.28000,
,,,-00.000038400000,  -3.44000,
,,,-00.000038300000,  -3.44000,
,,,-00.000038200000,  -3.44000,
,,,-00.000038100000,  -3.36000,
,,,-00.000038000000,  -3.36000,
,,,-00.000037900000,  -3.36000,
,,,-00.000037800000,  -3.36000,
,,,-00.000037700000,  -3.36000,
,,,-00.000037600000,  -3.44000,
,,,-00.000037500000,  -3.44000,
,,,-00.000037400000,  -3.52000,
,,,-00.000037300000,  -3.52000,
,,,-00.000037200000,  -3.52000,
,,,-00.000037100000,  -3.60000,
,,,-00.000037000000,  -3.52000,
,,,-00.000036900000,  -3.44000,
,,,-00.000036800000,  -3.52000,
,,,-00.000036700000,  -3.60000,
,,,-00.000036600000,  -3.60000,
,,,-00.000036500000,  -3.60000,
,,,-00.000036400000,  -3.60000,
,,,-00.000036300000,  -3.52000,
,,,-00.000036200000,  -3.60000,
,,,-00.000036100000,  -3.60000,
,,,-00.000036000000,  -3.52000,
,,,-00.000035900000,  -3.60000,
,,,-00.000035800000,  -3.60000,
,,,-00.000035700000,  -3.52000,
,,,-00.000035600000,  -3.68000,
,,,-00.000035500000,  -3.60000,
,,,-00.000035400000,  -3.68000,
,,,-00.000035300000,  -3.60000,
,,,-00.000035200000,  -3.68000,
,,,-00.000035100000,  -3.60000,
,,,-00.000035000000,  -3.68000,
,,,-00.000034900000,  -3.76000,
,,,-00.000034800000,  -3.76000,
,,,-00.000034700000,  -3.68000,
,,,-00.000034600000,  -3.60000,
,,,-00.000034500000,  -3.68000,
,,,-00.000034400000,  -3.68000,
,,,-00.000034300000,  -3.76000,
,,,-00.000034200000,  -3.68000,
,,,-00.000034100000,  -3.76000,
,,,-00.000034000000,  -3.84000,
,,,-00.000033900000,  -3.68000,
,,,-00.000033800000,  -3.68000,
,,,-00.000033700000,  -3.76000,
,,,-00.000033600000,  -3.68000,
,,,-00.000033500000,  -3.68000,
,,,-00.000033400000,  -3.84000,
,,,-00.000033300000,  -3.92000,
,,,-00.000033200000,  -3.76000,
,,,-00.000033100000,  -3.68000,
,,,-00.000033000000,  -3.84000,
,,,-00.000032900000,  -3.76000,
,,,-00.000032800000,  -3.76000,
,,,-00.000032700000,  -3.76000,
,,,-00.000032600000,  -3.84000,
,,,-00.000032500000,  -3.76000,
,,,-00.000032400000,  -3.84000,
,,,-00.000032300000,  -3.84000,
,,,-00.000032200000,  -3.76000,
,,,-00.000032100000,  -3.84000,
,,,-00.000032000000,  -3.84000,
,,,-00.000031900000,  -3.76000,
,,,-00.000031800000,  -3.84000,
,,,-00.000031700000,  -3.84000,
,,,-00.000031600000,  -3.92000,
,,,-00.000031500000,  -3.84000,
,,,-00.000031400000,  -3.84000,
,,,-00.000031300000,  -3.92000,
,,,-00.000031200000,  -3.84000,
,,,-00.000031100000,  -3.76000,
,,,-00.000031000000,  -3.84000,
,,,-00.000030900000,  -3.84000,
,,,-00.000030800000,  -3.92000,
,,,-00.000030700000,  -3.84000,
,,,-00.000030600000,  -3.84000,
,,,-00.000030500000,  -3.84000,
,,,-00.000030400000,  -3.92000,
,,,-00.000030300000,  -3.84000,
,,,-00.000030200000,  -3.76000,
,,,-00.000030100000,  -3.92000,
,,,-00.000030000000,  -3.92000,
,,,-00.000029900000,  -3.84000,
,,,-00.000029800000,  -3.84000,
,,,-00.000029700000,  -3.84000,
,,,-00.000029600000,  -3.84000,
,,,-00.000029500000,  -3.84000,
,,,-00.000029400000,  -3.84000,
,,,-00.000029300000,  -3.84000,
,,,-00.000029200000,  -3.92000,
,,,-00.000029100000,  -3.92000,
,,,-00.000029000000,  -3.84000,
,,,-00.000028900000,  -3.92000,
,,,-00.000028800000,  -3.76000,
,,,-00.000028700000,  -3.84000,
,,,-00.000028600000,  -3.92000,
,,,-00.000028500000,  -3.84000,
,,,-00.000028400000,  -3.84000,
,,,-00.000028300000,  -3.84000,
,,,-00.000028200000,  -3.76000,
,,,-00.000028100000,  -3.76000,
,,,-00.000028000000,  -3.84000,
,,,-00.000027900000,  -3.92000,
,,,-00.000027800000,  -3.84000,
,,,-00.000027700000,  -3.84000,
,,,-00.000027600000,  -3.84000,
,,,-00.000027500000,  -3.84000,
,,,-00.000027400000,  -3.76000,
,,,-00.000027300000,  -3.84000,
,,,-00.000027200000,  -3.92000,
,,,-00.000027100000,  -3.84000,
,,,-00.000027000000,  -3.76000,
,,,-00.000026900000,  -3.76000,
,,,-00.000026800000,  -3.84000,
,,,-00.000026700000,  -3.92000,
,,,-00.000026600000,  -3.92000,
,,,-00.000026500000,  -3.76000,
,,,-00.000026400000,  -3.76000,
,,,-00.000026300000,  -3.84000,
,,,-00.000026200000,  -3.84000,
,,,-00.000026100000,  -3.76000,
,,,-00.000026000000,  -3.76000,
,,,-00.000025900000,  -3.76000,
,,,-00.000025800000,  -3.76000,
,,,-00.000025700000,  -3.76000,
,,,-00.000025600000,  -3.84000,
,,,-00.000025500000,  -3.84000,
,,,-00.000025400000,  -3.76000,
,,,-00.000025300000,  -3.76000,
,,,-00.000025200000,  -3.68000,
,,,-00.000025100000,  -3.76000,
,,,-00.000025000000,  -3.76000,
,,,-00.000024900000,  -3.76000,
,,,-00.000024800000,  -3.60000,
,,,-00.000024700000,  -3.68000,
,,,-00.000024600000,  -3.68000,
,,,-00.000024500000,  -3.60000,
,,,-00.000024400000,  -3.76000,
,,,-00.000024300000,  -3.76000,
,,,-00.000024200000,  -3.68000,
,,,-00.000024100000,  -3.68000,
,,,-00.000024000000,  -3.76000,
,,,-00.000023900000,  -3.60000,
,,,-00.000023800000,  -3.52000,
,,,-00.000023700000,  -3.52000,
