Circuiti_2/data/ALL0018/F0018CH2.CSV

Record Length,2.500000e+03,,  -0.000032000000,   0.05040,
Sample Interval,4.000000e-07,,  -0.000031600000,   0.00000,
Trigger Point,8.000000000000e+01,,  -0.000031200000,   0.05040,
,,,  -0.000030800000,   0.00000,
,,,  -0.000030400000,   0.00000,
,,,  -0.000030000000,   0.00000,
Source,CH2,,  -0.000029600000,   0.00000,
Vertical Units,V,,  -0.000029200000,   0.05040,
Vertical Scale,1.260000e+00,,  -0.000028800000,   0.00000,
Vertical Offset,-2.721600e+00,,  -0.000028400000,   0.00000,
Horizontal Units,s,,  -0.000028000000,   0.00000,
Horizontal Scale,1.000000e-04,,  -0.000027600000,   0.00000,
Pt Fmt,Y,,  -0.000027200000,   0.05040,
Yzero,0.000000e+00,,  -0.000026800000,   0.00000,
Probe Atten,1.000000e+01,,  -0.000026400000,   0.00000,
Model Number,TDS1001C-EDU,,  -0.000026000000,   0.00000,
Serial Number,C013086,,  -0.000025600000,   0.00000,
Firmware Version,FV:v25.07,,  -0.000025200000,   0.00000,
,,,-00.000024800000,   0.00000,
,,,-00.000024400000,   0.00000,
,,,-00.000024000000,   0.00000,
,,,-00.000023600000,   0.05040,
,,,-00.000023200000,   0.00000,
,,,-00.000022800000,   0.05040,
,,,-00.000022400000,   0.05040,
,,,-00.000022000000,   0.00000,
,,,-00.000021600000,   0.05040,
,,,-00.000021200000,   0.05040,
,,,-00.000020800000,   0.00000,
,,,-00.000020400000,   0.00000,
,,,-00.000020000000,   0.00000,
,,,-00.000019600000,   0.00000,
,,,-00.000019200000,   0.00000,
,,,-00.000018800000,   0.00000,
,,,-00.000018400000,   0.00000,
,,,-00.000018000000,   0.00000,
,,,-00.000017600000,   0.00000,
,,,-00.000017200000,   0.05040,
,,,-00.000016800000,   0.05040,
,,,-00.000016400000,   0.00000,
,,,-00.000016000000,   0.00000,
,,,-00.000015600000,   0.05040,
,,,-00.000015200000,   0.00000,
,,,-00.000014800000,   0.05040,
,,,-00.000014400000,   0.05040,
,,,-00.000014000000,   0.05040,
,,,-00.000013600000,   0.00000,
,,,-00.000013200000,   0.05040,
,,,-00.000012800000,   0.00000,
,,,-00.000012400000,   0.00000,
,,,-00.000012000000,   0.05040,
,,,-00.000011600000,   0.00000,
,,,-00.000011200000,   0.05040,
,,,-00.000010800000,   0.05040,
,,,-00.000010400000,   0.05040,
,,,-00.000010000000,   0.00000,
,,,-00.000009600000,   0.05040,
,,,-00.000009200000,   0.05040,
,,,-00.000008800000,   0.00000,
,,,-00.000008400000,   0.00000,
,,,-00.000008000000,   0.05040,
,,,-00.000007600000,   0.00000,
,,,-00.000007200000,   0.00000,
,,,-00.000006800000,   0.00000,
,,,-00.000006400000,   0.00000,
,,,-00.000006000000,   0.00000,
,,,-00.000005600000,   0.05040,
,,,-00.000005200000,   0.00000,
,,,-00.000004800000,   0.00000,
,,,-00.000004400000,   0.00000,
,,,-00.000004000000,   0.00000,
,,,-00.000003600000,   0.05040,
,,,-00.000003200000,   0.05040,
,,,-00.000002800000,   0.05040,
,,,-00.000002400000,   0.05040,
,,,-00.000002000000,   0.00000,
,,,-00.000001600000,   0.05040,
,,,-00.000001200000,   0.05040,
,,,-00.000000800000,   0.05040,
,,,-00.000000400000,   0.00000,
,,,-00.000000000000,   0.00000,
,,,00.000000400000,   0.05040,
,,,00.000000800000,   0.05040,
,,,00.000001200000,   0.00000,
,,,00.000001600000,   0.00000,
,,,00.000002000000,   0.05040,
,,,00.000002400000,   0.05040,
,,,00.000002800000,   0.20160,
,,,00.000003200000,   0.15120,
,,,00.000003600000,   0.25200,
,,,00.000004000000,   0.30240,
,,,00.000004400000,   0.45360,
,,,00.000004800000,   0.50400,
,,,00.000005200000,   0.60480,
,,,00.000005600000,   0.70560,
,,,00.000006000000,   0.75600,
,,,00.000006400000,   0.85680,
,,,00.000006800000,   0.90720,
,,,00.000007200000,   1.00800,
,,,00.000007600000,   1.10880,
,,,00.000008000000,   1.20960,
,,,00.000008400000,   1.20960,
,,,00.000008800000,   1.31040,
,,,00.000009200000,   1.41120,
,,,00.000009600000,   1.51200,
,,,00.000010000000,   1.56240,
,,,00.000010400000,   1.66320,
,,,00.000010800000,   1.76400,
,,,00.000011200000,   1.81440,
,,,00.000011600000,   1.86480,
,,,00.000012000000,   1.96560,
,,,00.000012400000,   2.01600,
,,,00.000012800000,   2.06640,
,,,00.000013200000,   2.21760,
,,,00.000013600000,   2.26800,
,,,00.000014000000,   2.31840,
,,,00.000014400000,   2.41920,
,,,00.000014800000,   2.41920,
,,,00.000015200000,   2.52000,
,,,00.000015600000,   2.62080,
,,,00.000016000000,   2.67120,
,,,00.000016400000,   2.72160,
,,,00.000016800000,   2.82240,
,,,00.000017200000,   2.82240,
,,,00.000017600000,   2.92320,
,,,00.000018000000,   2.97360,
,,,00.000018400000,   3.07440,
,,,00.000018800000,   3.12480,
,,,00.000019200000,   3.17520,
,,,00.000019600000,   3.22560,
,,,00.000020000000,   3.32640,
,,,00.000020400000,   3.37680,
,,,00.000020800000,   3.42720,
,,,00.000021200000,   3.47760,
,,,00.000021600000,   3.52800,
,,,00.000022000000,   3.62880,
,,,00.000022400000,   3.67920,
,,,00.000022800000,   3.72960,
,,,00.000023200000,   3.78000,
,,,00.000023600000,   3.78000,
,,,00.000024000000,   3.88080,
,,,00.000024400000,   3.93120,
,,,00.000024800000,   3.98160,
,,,00.000025200000,   4.03200,
,,,00.000025600000,   4.13280,
,,,00.000026000000,   4.13280,
,,,00.000026400000,   4.23360,
,,,00.000026800000,   4.28400,
,,,00.000027200000,   4.28400,
,,,00.000027600000,   4.38480,
,,,00.000028000000,   4.38480,
,,,00.000028400000,   4.48560,
,,,00.000028800000,   4.48560,
,,,00.000029200000,   4.53600,
,,,00.000029600000,   4.58640,
,,,00.000030000000,   4.63680,
,,,00.000030400000,   4.68720,
,,,00.000030800000,   4.73760,
,,,00.000031200000,   4.78800,
,,,00.000031600000,   4.83840,
,,,00.000032000000,   4.88880,
,,,00.000032400000,   4.93920,
,,,00.000032800000,   4.98960,
,,,00.000033200000,   5.04000,
,,,00.000033600000,   5.09040,
,,,00.000034000000,   5.09040,
,,,00.000034400000,   5.14080,
,,,00.000034800000,   5.19120,
,,,00.000035200000,   5.24160,
,,,00.000035600000,   5.29200,
,,,00.000036000000,   5.29200,
,,,00.000036400000,   5.34240,
,,,00.000036800000,   5.39280,
,,,00.000037200000,   5.44320,
,,,00.000037600000,   5.44320,
,,,00.000038000000,   5.49360,
,,,00.000038400000,   5.49360,
,,,00.000038800000,   5.54400,
,,,00.000039200000,   5.59440,
,,,00.000039600000,   5.59440,
,,,00.000040000000,   5.64480,
,,,00.000040400000,   5.69520,
,,,00.000040800000,   5.69520,
,,,00.000041200000,   5.74560,
,,,00.000041600000,   5.79600,
,,,00.000042000000,   5.79600,
,,,00.000042400000,   5.79600,
,,,00.000042800000,   5.89680,
,,,00.000043200000,   5.89680,
,,,00.000043600000,   5.94720,
,,,00.000044000000,   5.94720,
,,,00.000044400000,   5.99760,
,,,00.000044800000,   5.99760,
,,,00.000045200000,   5.99760,
,,,00.000045600000,   6.04800,
,,,00.000046000000,   6.04800,
,,,00.000046400000,   6.14880,
,,,00.000046800000,   6.09840,
,,,00.000047200000,   6.14880,
,,,00.000047600000,   6.14880,
,,,00.000048000000,   6.19920,
,,,00.000048400000,   6.19920,
,,,00.000048800000,   6.24960,
,,,00.000049200000,   6.24960,
,,,00.000049600000,   6.24960,
,,,00.000050000000,   6.30000,
,,,00.000050400000,   6.35040,
,,,00.000050800000,   6.35040,
,,,00.000051200000,   6.35040,
,,,00.000051600000,   6.40080,
,,,00.000052000000,   6.40080,
,,,00.000052400000,   6.40080,
,,,00.000052800000,   6.40080,
,,,00.000053200000,   6.40080,
,,,00.000053600000,   6.45120,
,,,00.000054000000,   6.45120,
,,,00.000054400000,   6.45120,
,,,00.000054800000,   6.50160,
,,,00.000055200000,   6.50160,
,,,00.000055600000,   6.50160,
,,,00.000056000000,   6.50160,
,,,00.000056400000,   6.50160,
,,,00.000056800000,   6.55200,
,,,00.000057200000,   6.55200,
,,,00.000057600000,   6.55200,
,,,00.000058000000,   6.55200,
,,,00.000058400000,   6.60240,
,,,00.000058800000,   6.60240,
,,,00.000059200000,   6.60240,
,,,00.000059600000,   6.60240,
,,,00.000060000000,   6.65280,
,,,00.000060400000,   6.60240,
,,,00.000060800000,   6.65280,
,,,00.000061200000,   6.65280,
,,,00.000061600000,   6.60240,
,,,00.000062000000,   6.65280,
,,,00.000062400000,   6.65280,
,,,00.000062800000,   6.65280,
,,,00.000063200000,   6.65280,
,,,00.000063600000,   6.65280,
,,,00.000064000000,   6.65280,
,,,00.000064400000,   6.65280,
,,,00.000064800000,   6.65280,
,,,00.000065200000,   6.70320,
,,,00.000065600000,   6.65280,
,,,00.000066000000,   6.70320,
,,,00.000066400000,   6.65280,
,,,00.000066800000,   6.65280,
,,,00.000067200000,   6.65280,
,,,00.000067600000,   6.65280,
,,,00.000068000000,   6.65280,
,,,00.000068400000,   6.65280,
,,,00.000068800000,   6.65280,
,,,00.000069200000,   6.65280,
,,,00.000069600000,   6.60240,
,,,00.000070000000,   6.65280,
,,,00.000070400000,   6.65280,
,,,00.000070800000,   6.65280,
,,,00.000071200000,   6.65280,
,,,00.000071600000,   6.65280,
,,,00.000072000000,   6.60240,
,,,00.000072400000,   6.60240,
,,,00.000072800000,   6.60240,
,,,00.000073200000,   6.60240,
,,,00.000073600000,   6.60240,
,,,00.000074000000,   6.60240,
,,,00.000074400000,   6.55200,
,,,00.000074800000,   6.60240,
,,,00.000075200000,   6.55200,
,,,00.000075600000,   6.55200,
,,,00.000076000000,   6.55200,
,,,00.000076400000,   6.55200,
,,,00.000076800000,   6.50160,
,,,00.000077200000,   6.50160,
,,,00.000077600000,   6.50160,
,,,00.000078000000,   6.50160,
,,,00.000078400000,   6.45120,
,,,00.000078800000,   6.45120,
,,,00.000079200000,   6.45120,
,,,00.000079600000,   6.40080,
,,,00.000080000000,   6.45120,
,,,00.000080400000,   6.40080,
,,,00.000080800000,   6.40080,
,,,00.000081200000,   6.35040,
,,,00.000081600000,   6.35040,
,,,00.000082000000,   6.30000,
,,,00.000082400000,   6.30000,
,,,00.000082800000,   6.30000,
,,,00.000083200000,   6.30000,
,,,00.000083600000,   6.24960,
,,,00.000084000000,   6.24960,
,,,00.000084400000,   6.24960,
,,,00.000084800000,   6.19920,
,,,00.000085200000,   6.19920,
,,,00.000085600000,   6.14880,
,,,00.000086000000,   6.14880,
,,,00.000086400000,   6.19920,
,,,00.000086800000,   6.14880,
,,,00.000087200000,   6.14880,
,,,00.000087600000,   6.09840,
,,,00.000088000000,   6.04800,
,,,00.000088400000,   5.99760,
,,,00.000088800000,   5.99760,
,,,00.000089200000,   5.99760,
,,,00.000089600000,   5.94720,
,,,00.000090000000,   5.99760,
,,,00.000090400000,   5.94720,
,,,00.000090800000,   5.89680,
,,,00.000091200000,   5.89680,
,,,00.000091600000,   5.84640,
,,,00.000092000000,   5.84640,
,,,00.000092400000,   5.84640,
,,,00.000092800000,   5.79600,
,,,00.000093200000,   5.79600,
,,,00.000093600000,   5.74560,
,,,00.000094000000,   5.79600,
,,,00.000094400000,   5.74560,
,,,00.000094800000,   5.69520,
,,,00.000095200000,   5.69520,
,,,00.000095600000,   5.64480,
,,,00.000096000000,   5.64480,
,,,00.000096400000,   5.59440,
,,,00.000096800000,   5.54400,
,,,00.000097200000,   5.54400,
,,,00.000097600000,   5.49360,
,,,00.000098000000,   5.49360,
,,,00.000098400000,   5.49360,
,,,00.000098800000,   5.44320,
,,,00.000099200000,   5.44320,
,,,00.000099600000,   5.39280,
,,,00.000100000000,   5.34240,
,,,00.000100400000,   5.34240,
,,,00.000100800000,   5.34240,
,,,00.000101200000,   5.29200,
,,,00.000101600000,   5.24160,
,,,00.000102000000,   5.24160,
,,,00.000102400000,   5.19120,
,,,00.000102800000,   5.19120,
,,,00.000103200000,   5.14080,
,,,00.000103600000,   5.14080,
,,,00.000104000000,   5.09040,
,,,00.000104400000,   5.04000,
,,,00.000104800000,   4.98960,
,,,00.000105200000,   4.98960,
,,,00.000105600000,   4.98960,
,,,00.000106000000,   4.93920,
,,,00.000106400000,   4.88880,
,,,00.000106800000,   4.88880,
,,,00.000107200000,   4.83840,
,,,00.000107600000,   4.83840,
,,,00.000108000000,   4.78800,
,,,00.000108400000,   4.73760,
,,,00.000108800000,   4.73760,
,,,00.000109200000,   4.73760,
,,,00.000109600000,   4.68720,
,,,00.000110000000,   4.68720,
,,,00.000110400000,   4.58640,
,,,00.000110800000,   4.58640,
,,,00.000111200000,   4.53600,
,,,00.000111600000,   4.53600,
,,,00.000112000000,   4.48560,
,,,00.000112400000,   4.48560,
,,,00.000112800000,   4.43520,
,,,00.000113200000,   4.38480,
,,,00.000113600000,   4.38480,
,,,00.000114000000,   4.33440,
,,,00.000114400000,   4.33440,
,,,00.000114800000,   4.23360,
,,,00.000115200000,   4.23360,
,,,00.000115600000,   4.23360,
,,,00.000116000000,   4.18320,
,,,00.000116400000,   4.13280,
,,,00.000116800000,   4.13280,
,,,00.000117200000,   4.08240,
,,,00.000117600000,   4.03200,
,,,00.000118000000,   4.03200,
,,,00.000118400000,   3.98160,
,,,00.000118800000,   3.98160,
,,,00.000119200000,   3.93120,
,,,00.000119600000,   3.98160,
,,,00.000120000000,   3.88080,
,,,00.000120400000,   3.83040,
,,,00.000120800000,   3.83040,
,,,00.000121200000,   3.78000,
,,,00.000121600000,   3.67920,
,,,00.000122000000,   3.72960,
,,,00.000122400000,   3.67920,
,,,00.000122800000,   3.62880,
,,,00.000123200000,   3.62880,
,,,00.000123600000,   3.57840,
,,,00.000124000000,   3.52800,
,,,00.000124400000,   3.47760,
,,,00.000124800000,   3.47760,
,,,00.000125200000,   3.42720,
,,,00.000125600000,   3.42720,
,,,00.000126000000,   3.42720,
,,,00.000126400000,   3.37680,
,,,00.000126800000,   3.32640,
,,,00.000127200000,   3.27600,
,,,00.000127600000,   3.27600,
,,,00.000128000000,   3.22560,
,,,00.000128400000,   3.22560,
,,,00.000128800000,   3.17520,
,,,00.000129200000,   3.12480,
,,,00.000129600000,   3.12480,
,,,00.000130000000,   3.07440,
,,,00.000130400000,   3.02400,
,,,00.000130800000,   3.02400,
,,,00.000131200000,   2.97360,
,,,00.000131600000,   2.92320,
,,,00.000132000000,   2.87280,
,,,00.000132400000,   2.87280,
,,,00.000132800000,   2.82240,
,,,00.000133200000,   2.82240,
,,,00.000133600000,   2.77200,
,,,00.000134000000,   2.72160,
,,,00.000134400000,   2.72160,
,,,00.000134800000,   2.67120,
,,,00.000135200000,   2.67120,
,,,00.000135600000,   2.62080,
,,,00.000136000000,   2.62080,
,,,00.000136400000,   2.57040,
,,,00.000136800000,   2.57040,
,,,00.000137200000,   2.52000,
,,,00.000137600000,   2.46960,
,,,00.000138000000,   2.41920,
,,,00.000138400000,   2.41920,
,,,00.000138800000,   2.36880,
,,,00.000139200000,   2.36880,
,,,00.000139600000,   2.31840,
,,,00.000140000000,   2.26800,
,,,00.000140400000,   2.26800,
,,,00.000140800000,   2.21760,
,,,00.000141200000,   2.16720,
,,,00.000141600000,   2.11680,
,,,00.000142000000,   2.11680,
,,,00.000142400000,   2.11680,
,,,00.000142800000,   2.06640,
,,,00.000143200000,   2.01600,
,,,00.000143600000,   2.01600,
,,,00.000144000000,   2.01600,
,,,00.000144400000,   1.91520,
,,,00.000144800000,   1.91520,
,,,00.000145200000,   1.86480,
,,,00.000145600000,   1.86480,
,,,00.000146000000,   1.81440,
,,,00.000146400000,   1.76400,
,,,00.000146800000,   1.76400,
,,,00.000147200000,   1.76400,
,,,00.000147600000,   1.71360,
,,,00.000148000000,   1.71360,
,,,00.000148400000,   1.66320,
,,,00.000148800000,   1.61280,
,,,00.000149200000,   1.56240,
,,,00.000149600000,   1.56240,
,,,00.000150000000,   1.56240,
,,,00.000150400000,   1.51200,
,,,00.000150800000,   1.46160,
,,,00.000151200000,   1.46160,
,,,00.000151600000,   1.41120,
,,,00.000152000000,   1.41120,
,,,00.000152400000,   1.31040,
,,,00.000152800000,   1.31040,
,,,00.000153200000,   1.31040,
,,,00.000153600000,   1.26000,
,,,00.000154000000,   1.26000,
,,,00.000154400000,   1.20960,
,,,00.000154800000,   1.15920,
,,,00.000155200000,   1.15920,
,,,00.000155600000,   1.15920,
,,,00.000156000000,   1.10880,
,,,00.000156400000,   1.05840,
,,,00.000156800000,   1.05840,
,,,00.000157200000,   1.00800,
,,,00.000157600000,   1.00800,
,,,00.000158000000,   0.95760,
,,,00.000158400000,   0.95760,
,,,00.000158800000,   0.90720,
,,,00.000159200000,   0.85680,
,,,00.000159600000,   0.80640,
,,,00.000160000000,   0.85680,
,,,00.000160400000,   0.80640,
,,,00.000160800000,   0.80640,
,,,00.000161200000,   0.75600,
,,,00.000161600000,   0.75600,
,,,00.000162000000,   0.70560,
,,,00.000162400000,   0.70560,
,,,00.000162800000,   0.65520,
,,,00.000163200000,   0.60480,
,,,00.000163600000,   0.60480,
,,,00.000164000000,   0.55440,
,,,00.000164400000,   0.55440,
,,,00.000164800000,   0.55440,
,,,00.000165200000,   0.50400,
,,,00.000165600000,   0.45360,
,,,00.000166000000,   0.45360,
,,,00.000166400000,   0.40320,
,,,00.000166800000,   0.40320,
,,,00.000167200000,   0.35280,
,,,00.000167600000,   0.35280,
,,,00.000168000000,   0.30240,
,,,00.000168400000,   0.30240,
,,,00.000168800000,   0.30240,
,,,00.000169200000,   0.25200,
,,,00.000169600000,   0.25200,
,,,00.000170000000,   0.20160,
,,,00.000170400000,   0.15120,
,,,00.000170800000,   0.15120,
,,,00.000171200000,   0.15120,
,,,00.000171600000,   0.15120,
,,,00.000172000000,   0.10080,
,,,00.000172400000,   0.10080,
,,,00.000172800000,   0.10080,
,,,00.000173200000,   0.00000,
,,,00.000173600000,   0.00000,
,,,00.000174000000,  -0.05040,
,,,00.000174400000,  -0.05040,
,,,00.000174800000,  -0.05040,
,,,00.000175200000,  -0.10080,
,,,00.000175600000,  -0.10080,
,,,00.000176000000,  -0.10080,
,,,00.000176400000,  -0.15120,
,,,00.000176800000,  -0.20160,
,,,00.000177200000,  -0.20160,
,,,00.000177600000,  -0.20160,
,,,00.000178000000,  -0.25200,
,,,00.000178400000,  -0.25200,
,,,00.000178800000,  -0.25200,
,,,00.000179200000,  -0.30240,
,,,00.000179600000,  -0.30240,
,,,00.000180000000,  -0.35280,
,,,00.000180400000,  -0.35280,
,,,00.000180800000,  -0.35280,
,,,00.000181200000,  -0.40320,
,,,00.000181600000,  -0.40320,
,,,00.000182000000,  -0.45360,
,,,00.000182400000,  -0.45360,
,,,00.000182800000,  -0.45360,
,,,00.000183200000,  -0.45360,
,,,00.000183600000,  -0.50400,
,,,00.000184000000,  -0.50400,
,,,00.000184400000,  -0.55440,
,,,00.000184800000,  -0.55440,
,,,00.000185200000,  -0.60480,
,,,00.000185600000,  -0.60480,
,,,00.000186000000,  -0.55440,
,,,00.000186400000,  -0.65520,
,,,00.000186800000,  -0.65520,
,,,00.000187200000,  -0.65520,
,,,00.000187600000,  -0.65520,
,,,00.000188000000,  -0.70560,
,,,00.000188400000,  -0.70560,
,,,00.000188800000,  -0.75600,
,,,00.000189200000,  -0.75600,
,,,00.000189600000,  -0.75600,
,,,00.000190000000,  -0.80640,
,,,00.000190400000,  -0.80640,
,,,00.000190800000,  -0.80640,
,,,00.000191200000,  -0.80640,
,,,00.000191600000,  -0.80640,
,,,00.000192000000,  -0.85680,
,,,00.000192400000,  -0.85680,
,,,00.000192800000,  -0.85680,
,,,00.000193200000,  -0.95760,
,,,00.000193600000,  -0.95760,
,,,00.000194000000,  -0.95760,
,,,00.000194400000,  -0.95760,
,,,00.000194800000,  -0.95760,
,,,00.000195200000,  -0.95760,
,,,00.000195600000,  -0.95760,
,,,00.000196000000,  -1.00800,
,,,00.000196400000,  -1.00800,
,,,00.000196800000,  -1.00800,
,,,00.000197200000,  -1.05840,
,,,00.000197600000,  -1.05840,
,,,00.000198000000,  -1.05840,
,,,00.000198400000,  -1.05840,
,,,00.000198800000,  -1.10880,
,,,00.000199200000,  -1.10880,
,,,00.000199600000,  -1.10880,
,,,00.000200000000,  -1.10880,
,,,00.000200400000,  -1.15920,
,,,00.000200800000,  -1.15920,
,,,00.000201200000,  -1.15920,
,,,00.000201600000,  -1.15920,
,,,00.000202000000,  -1.20960,
,,,00.000202400000,  -1.20960,
,,,00.000202800000,  -1.20960,
,,,00.000203200000,  -1.20960,
,,,00.000203600000,  -1.20960,
,,,00.000204000000,  -1.20960,
,,,00.000204400000,  -1.26000,
,,,00.000204800000,  -1.26000,
,,,00.000205200000,  -1.31040,
,,,00.000205600000,  -1.31040,
,,,00.000206000000,  -1.31040,
,,,00.000206400000,  -1.31040,
,,,00.000206800000,  -1.31040,
,,,00.000207200000,  -1.36080,
,,,00.000207600000,  -1.36080,
,,,00.000208000000,  -1.31040,
,,,00.000208400000,  -1.36080,
,,,00.000208800000,  -1.41120,
,,,00.000209200000,  -1.36080,
,,,00.000209600000,  -1.36080,
,,,00.000210000000,  -1.41120,
,,,00.000210400000,  -1.41120,
,,,00.000210800000,  -1.36080,
,,,00.000211200000,  -1.41120,
,,,00.000211600000,  -1.46160,
,,,00.000212000000,  -1.46160,
,,,00.000212400000,  -1.41120,
,,,00.000212800000,  -1.46160,
,,,00.000213200000,  -1.46160,
,,,00.000213600000,  -1.51200,
,,,00.000214000000,  -1.46160,
,,,00.000214400000,  -1.46160,
,,,00.000214800000,  -1.51200,
,,,00.000215200000,  -1.46160,
,,,00.000215600000,  -1.46160,
,,,00.000216000000,  -1.51200,
,,,00.000216400000,  -1.51200,
,,,00.000216800000,  -1.51200,
,,,00.000217200000,  -1.56240,
,,,00.000217600000,  -1.51200,
,,,00.000218000000,  -1.51200,
,,,00.000218400000,  -1.51200,
,,,00.000218800000,  -1.51200,
,,,00.000219200000,  -1.56240,
,,,00.000219600000,  -1.61280,
,,,00.000220000000,  -1.56240,
