Circuiti_2/data/RLC_300/F0017CH1.CSV

Record Length,2.500000e+03,,  -0.000032000000,  -8.23360,
Sample Interval,4.000000e-07,,  -0.000031600000,  -8.13440,
Trigger Point,8.000000000000e+01,,  -0.000031200000,  -8.13440,
,,,  -0.000030800000,  -8.13440,
,,,  -0.000030400000,  -8.13440,
,,,  -0.000030000000,  -8.13440,
Source,CH1,,  -0.000029600000,  -8.13440,
Vertical Units,V,,  -0.000029200000,  -8.13440,
Vertical Scale,2.480000e+00,,  -0.000028800000,  -8.13440,
Vertical Offset,-9.920000e-02,,  -0.000028400000,  -8.13440,
Horizontal Units,s,,  -0.000028000000,  -8.03520,
Horizontal Scale,1.000000e-04,,  -0.000027600000,  -8.13440,
Pt Fmt,Y,,  -0.000027200000,  -8.13440,
Yzero,0.000000e+00,,  -0.000026800000,  -8.23360,
Probe Atten,1.000000e+01,,  -0.000026400000,  -8.13440,
Model Number,TDS1001C-EDU,,  -0.000026000000,  -8.23360,
Serial Number,C013086,,  -0.000025600000,  -8.13440,
Firmware Version,FV:v25.07,,  -0.000025200000,  -8.13440,
,,,-00.000024800000,  -8.13440,
,,,-00.000024400000,  -8.13440,
,,,-00.000024000000,  -8.13440,
,,,-00.000023600000,  -8.13440,
,,,-00.000023200000,  -8.13440,
,,,-00.000022800000,  -8.23360,
,,,-00.000022400000,  -8.13440,
,,,-00.000022000000,  -8.33280,
,,,-00.000021600000,  -8.03520,
,,,-00.000021200000,  -8.13440,
,,,-00.000020800000,  -8.13440,
,,,-00.000020400000,  -8.23360,
,,,-00.000020000000,  -8.13440,
,,,-00.000019600000,  -8.13440,
,,,-00.000019200000,  -8.13440,
,,,-00.000018800000,  -8.13440,
,,,-00.000018400000,  -8.23360,
,,,-00.000018000000,  -8.23360,
,,,-00.000017600000,  -8.13440,
,,,-00.000017200000,  -8.23360,
,,,-00.000016800000,  -8.23360,
,,,-00.000016400000,  -8.13440,
,,,-00.000016000000,  -8.13440,
,,,-00.000015600000,  -8.13440,
,,,-00.000015200000,  -8.13440,
,,,-00.000014800000,  -8.03520,
,,,-00.000014400000,  -8.13440,
,,,-00.000014000000,  -8.13440,
,,,-00.000013600000,  -8.13440,
,,,-00.000013200000,  -8.13440,
,,,-00.000012800000,  -8.23360,
,,,-00.000012400000,  -8.23360,
,,,-00.000012000000,  -8.03520,
,,,-00.000011600000,  -8.03520,
,,,-00.000011200000,  -8.13440,
,,,-00.000010800000,  -8.13440,
,,,-00.000010400000,  -8.13440,
,,,-00.000010000000,  -8.13440,
,,,-00.000009600000,  -8.13440,
,,,-00.000009200000,  -8.23360,
,,,-00.000008800000,  -8.13440,
,,,-00.000008400000,  -8.03520,
,,,-00.000008000000,  -8.13440,
,,,-00.000007600000,  -8.13440,
,,,-00.000007200000,  -8.13440,
,,,-00.000006800000,  -8.13440,
,,,-00.000006400000,  -8.13440,
,,,-00.000006000000,  -8.13440,
,,,-00.000005600000,  -8.13440,
,,,-00.000005200000,  -8.13440,
,,,-00.000004800000,  -8.13440,
,,,-00.000004400000,  -8.03520,
,,,-00.000004000000,  -8.13440,
,,,-00.000003600000,  -8.23360,
,,,-00.000003200000,  -8.03520,
,,,-00.000002800000,  -8.03520,
,,,-00.000002400000,  -8.13440,
,,,-00.000002000000,  -8.13440,
,,,-00.000001600000,  -8.13440,
,,,-00.000001200000,  -8.13440,
,,,-00.000000800000,  -8.13440,
,,,-00.000000400000,  -8.03520,
,,,-00.000000000000,  -8.13440,
,,,00.000000400000,  -8.13440,
,,,00.000000800000,  -8.03520,
,,,00.000001200000,  -8.13440,
,,,00.000001600000,  -8.13440,
,,,00.000002000000,  -8.03520,
,,,00.000002400000,  -7.63840,
,,,00.000002800000,   8.23360,
,,,00.000003200000,   8.13440,
,,,00.000003600000,   8.03520,
,,,00.000004000000,   8.03520,
,,,00.000004400000,   8.13440,
,,,00.000004800000,   8.03520,
,,,00.000005200000,   8.03520,
,,,00.000005600000,   8.03520,
,,,00.000006000000,   8.03520,
,,,00.000006400000,   8.03520,
,,,00.000006800000,   8.03520,
,,,00.000007200000,   7.93600,
,,,00.000007600000,   7.93600,
,,,00.000008000000,   7.83680,
,,,00.000008400000,   7.93600,
,,,00.000008800000,   7.93600,
,,,00.000009200000,   7.93600,
,,,00.000009600000,   7.93600,
,,,00.000010000000,   7.83680,
,,,00.000010400000,   7.93600,
,,,00.000010800000,   7.93600,
,,,00.000011200000,   7.83680,
,,,00.000011600000,   7.83680,
,,,00.000012000000,   7.93600,
,,,00.000012400000,   7.83680,
,,,00.000012800000,   7.93600,
,,,00.000013200000,   7.83680,
,,,00.000013600000,   7.83680,
,,,00.000014000000,   7.83680,
,,,00.000014400000,   7.83680,
,,,00.000014800000,   7.83680,
,,,00.000015200000,   7.93600,
,,,00.000015600000,   7.83680,
,,,00.000016000000,   7.83680,
,,,00.000016400000,   7.83680,
,,,00.000016800000,   7.83680,
,,,00.000017200000,   7.83680,
,,,00.000017600000,   7.83680,
,,,00.000018000000,   7.63840,
,,,00.000018400000,   7.83680,
,,,00.000018800000,   7.73760,
,,,00.000019200000,   7.93600,
,,,00.000019600000,   7.73760,
,,,00.000020000000,   7.73760,
,,,00.000020400000,   7.83680,
,,,00.000020800000,   7.73760,
,,,00.000021200000,   7.83680,
,,,00.000021600000,   7.83680,
,,,00.000022000000,   7.83680,
,,,00.000022400000,   7.73760,
,,,00.000022800000,   7.73760,
,,,00.000023200000,   7.83680,
,,,00.000023600000,   7.73760,
,,,00.000024000000,   7.73760,
,,,00.000024400000,   7.73760,
,,,00.000024800000,   7.73760,
,,,00.000025200000,   7.73760,
,,,00.000025600000,   7.83680,
,,,00.000026000000,   7.73760,
,,,00.000026400000,   7.63840,
,,,00.000026800000,   7.73760,
,,,00.000027200000,   7.73760,
,,,00.000027600000,   7.63840,
,,,00.000028000000,   7.73760,
,,,00.000028400000,   7.63840,
,,,00.000028800000,   7.73760,
,,,00.000029200000,   7.63840,
,,,00.000029600000,   7.53920,
,,,00.000030000000,   7.63840,
,,,00.000030400000,   7.63840,
,,,00.000030800000,   7.73760,
,,,00.000031200000,   7.73760,
,,,00.000031600000,   7.73760,
,,,00.000032000000,   7.63840,
,,,00.000032400000,   7.63840,
,,,00.000032800000,   7.63840,
,,,00.000033200000,   7.63840,
,,,00.000033600000,   7.73760,
,,,00.000034000000,   7.63840,
,,,00.000034400000,   7.73760,
,,,00.000034800000,   7.63840,
,,,00.000035200000,   7.63840,
,,,00.000035600000,   7.73760,
,,,00.000036000000,   7.53920,
,,,00.000036400000,   7.63840,
,,,00.000036800000,   7.63840,
,,,00.000037200000,   7.53920,
,,,00.000037600000,   7.53920,
,,,00.000038000000,   7.63840,
,,,00.000038400000,   7.63840,
,,,00.000038800000,   7.63840,
,,,00.000039200000,   7.53920,
,,,00.000039600000,   7.53920,
,,,00.000040000000,   7.63840,
,,,00.000040400000,   7.63840,
,,,00.000040800000,   7.63840,
,,,00.000041200000,   7.53920,
,,,00.000041600000,   7.53920,
,,,00.000042000000,   7.63840,
,,,00.000042400000,   7.53920,
,,,00.000042800000,   7.53920,
,,,00.000043200000,   7.53920,
,,,00.000043600000,   7.53920,
,,,00.000044000000,   7.63840,
,,,00.000044400000,   7.53920,
,,,00.000044800000,   7.53920,
,,,00.000045200000,   7.63840,
,,,00.000045600000,   7.63840,
,,,00.000046000000,   7.53920,
,,,00.000046400000,   7.53920,
,,,00.000046800000,   7.53920,
,,,00.000047200000,   7.63840,
,,,00.000047600000,   7.53920,
,,,00.000048000000,   7.53920,
,,,00.000048400000,   7.63840,
,,,00.000048800000,   7.53920,
,,,00.000049200000,   7.53920,
,,,00.000049600000,   7.44000,
,,,00.000050000000,   7.44000,
,,,00.000050400000,   7.44000,
,,,00.000050800000,   7.53920,
,,,00.000051200000,   7.53920,
,,,00.000051600000,   7.44000,
,,,00.000052000000,   7.44000,
,,,00.000052400000,   7.53920,
,,,00.000052800000,   7.44000,
,,,00.000053200000,   7.53920,
,,,00.000053600000,   7.53920,
,,,00.000054000000,   7.53920,
,,,00.000054400000,   7.44000,
,,,00.000054800000,   7.63840,
,,,00.000055200000,   7.53920,
,,,00.000055600000,   7.53920,
,,,00.000056000000,   7.44000,
,,,00.000056400000,   7.44000,
,,,00.000056800000,   7.53920,
,,,00.000057200000,   7.53920,
,,,00.000057600000,   7.44000,
,,,00.000058000000,   7.53920,
,,,00.000058400000,   7.34080,
,,,00.000058800000,   7.53920,
,,,00.000059200000,   7.44000,
,,,00.000059600000,   7.44000,
,,,00.000060000000,   7.53920,
,,,00.000060400000,   7.44000,
,,,00.000060800000,   7.44000,
,,,00.000061200000,   7.53920,
,,,00.000061600000,   7.44000,
,,,00.000062000000,   7.44000,
,,,00.000062400000,   7.53920,
,,,00.000062800000,   7.44000,
,,,00.000063200000,   7.44000,
,,,00.000063600000,   7.44000,
,,,00.000064000000,   7.53920,
,,,00.000064400000,   7.44000,
,,,00.000064800000,   7.44000,
,,,00.000065200000,   7.53920,
,,,00.000065600000,   7.44000,
,,,00.000066000000,   7.34080,
,,,00.000066400000,   7.44000,
,,,00.000066800000,   7.44000,
,,,00.000067200000,   7.34080,
,,,00.000067600000,   7.44000,
,,,00.000068000000,   7.44000,
,,,00.000068400000,   7.44000,
,,,00.000068800000,   7.44000,
,,,00.000069200000,   7.53920,
,,,00.000069600000,   7.44000,
,,,00.000070000000,   7.44000,
,,,00.000070400000,   7.34080,
,,,00.000070800000,   7.44000,
,,,00.000071200000,   7.44000,
,,,00.000071600000,   7.44000,
,,,00.000072000000,   7.53920,
,,,00.000072400000,   7.44000,
,,,00.000072800000,   7.53920,
,,,00.000073200000,   7.44000,
,,,00.000073600000,   7.44000,
,,,00.000074000000,   7.44000,
,,,00.000074400000,   7.44000,
,,,00.000074800000,   7.44000,
,,,00.000075200000,   7.44000,
,,,00.000075600000,   7.34080,
,,,00.000076000000,   7.34080,
,,,00.000076400000,   7.44000,
,,,00.000076800000,   7.53920,
,,,00.000077200000,   7.44000,
,,,00.000077600000,   7.44000,
,,,00.000078000000,   7.53920,
,,,00.000078400000,   7.53920,
,,,00.000078800000,   7.44000,
,,,00.000079200000,   7.44000,
,,,00.000079600000,   7.44000,
,,,00.000080000000,   7.44000,
,,,00.000080400000,   7.44000,
,,,00.000080800000,   7.44000,
,,,00.000081200000,   7.53920,
,,,00.000081600000,   7.53920,
,,,00.000082000000,   7.34080,
,,,00.000082400000,   7.53920,
,,,00.000082800000,   7.44000,
,,,00.000083200000,   7.53920,
,,,00.000083600000,   7.53920,
,,,00.000084000000,   7.44000,
,,,00.000084400000,   7.44000,
,,,00.000084800000,   7.53920,
,,,00.000085200000,   7.53920,
,,,00.000085600000,   7.53920,
,,,00.000086000000,   7.53920,
,,,00.000086400000,   7.53920,
,,,00.000086800000,   7.53920,
,,,00.000087200000,   7.53920,
,,,00.000087600000,   7.53920,
,,,00.000088000000,   7.53920,
,,,00.000088400000,   7.63840,
,,,00.000088800000,   7.53920,
,,,00.000089200000,   7.44000,
,,,00.000089600000,   7.53920,
,,,00.000090000000,   7.53920,
,,,00.000090400000,   7.44000,
,,,00.000090800000,   7.44000,
,,,00.000091200000,   7.53920,
,,,00.000091600000,   7.53920,
,,,00.000092000000,   7.53920,
,,,00.000092400000,   7.53920,
,,,00.000092800000,   7.53920,
,,,00.000093200000,   7.53920,
,,,00.000093600000,   7.53920,
,,,00.000094000000,   7.53920,
,,,00.000094400000,   7.53920,
,,,00.000094800000,   7.63840,
,,,00.000095200000,   7.63840,
,,,00.000095600000,   7.53920,
,,,00.000096000000,   7.53920,
,,,00.000096400000,   7.53920,
,,,00.000096800000,   7.53920,
,,,00.000097200000,   7.53920,
,,,00.000097600000,   7.63840,
,,,00.000098000000,   7.63840,
,,,00.000098400000,   7.53920,
,,,00.000098800000,   7.53920,
,,,00.000099200000,   7.63840,
,,,00.000099600000,   7.63840,
,,,00.000100000000,   7.63840,
,,,00.000100400000,   7.53920,
,,,00.000100800000,   7.53920,
,,,00.000101200000,   7.63840,
,,,00.000101600000,   7.63840,
,,,00.000102000000,   7.53920,
,,,00.000102400000,   7.53920,
,,,00.000102800000,   7.63840,
,,,00.000103200000,   7.63840,
,,,00.000103600000,   7.63840,
,,,00.000104000000,   7.53920,
,,,00.000104400000,   7.63840,
,,,00.000104800000,   7.63840,
,,,00.000105200000,   7.73760,
,,,00.000105600000,   7.53920,
,,,00.000106000000,   7.53920,
,,,00.000106400000,   7.73760,
,,,00.000106800000,   7.63840,
,,,00.000107200000,   7.63840,
,,,00.000107600000,   7.63840,
,,,00.000108000000,   7.63840,
,,,00.000108400000,   7.63840,
,,,00.000108800000,   7.63840,
,,,00.000109200000,   7.73760,
,,,00.000109600000,   7.63840,
,,,00.000110000000,   7.63840,
,,,00.000110400000,   7.73760,
,,,00.000110800000,   7.73760,
,,,00.000111200000,   7.73760,
,,,00.000111600000,   7.73760,
,,,00.000112000000,   7.73760,
,,,00.000112400000,   7.63840,
,,,00.000112800000,   7.63840,
,,,00.000113200000,   7.63840,
,,,00.000113600000,   7.63840,
,,,00.000114000000,   7.63840,
,,,00.000114400000,   7.73760,
,,,00.000114800000,   7.73760,
,,,00.000115200000,   7.63840,
,,,00.000115600000,   7.63840,
,,,00.000116000000,   7.63840,
,,,00.000116400000,   7.83680,
,,,00.000116800000,   7.73760,
,,,00.000117200000,   7.63840,
,,,00.000117600000,   7.73760,
,,,00.000118000000,   7.73760,
,,,00.000118400000,   7.73760,
,,,00.000118800000,   7.83680,
,,,00.000119200000,   7.73760,
,,,00.000119600000,   7.83680,
,,,00.000120000000,   7.73760,
,,,00.000120400000,   7.63840,
,,,00.000120800000,   7.73760,
,,,00.000121200000,   7.83680,
,,,00.000121600000,   7.73760,
,,,00.000122000000,   7.73760,
,,,00.000122400000,   7.83680,
,,,00.000122800000,   7.73760,
,,,00.000123200000,   7.83680,
,,,00.000123600000,   7.73760,
,,,00.000124000000,   7.83680,
,,,00.000124400000,   7.73760,
,,,00.000124800000,   7.83680,
,,,00.000125200000,   7.93600,
,,,00.000125600000,   7.83680,
,,,00.000126000000,   7.93600,
,,,00.000126400000,   7.83680,
,,,00.000126800000,   7.93600,
,,,00.000127200000,   7.83680,
,,,00.000127600000,   7.83680,
,,,00.000128000000,   7.93600,
,,,00.000128400000,   7.83680,
,,,00.000128800000,   7.63840,
,,,00.000129200000,   7.83680,
,,,00.000129600000,   7.83680,
,,,00.000130000000,   7.83680,
,,,00.000130400000,   7.73760,
,,,00.000130800000,   7.83680,
,,,00.000131200000,   7.83680,
,,,00.000131600000,   7.93600,
,,,00.000132000000,   7.83680,
,,,00.000132400000,   7.83680,
,,,00.000132800000,   7.83680,
,,,00.000133200000,   7.93600,
,,,00.000133600000,   7.83680,
,,,00.000134000000,   7.93600,
,,,00.000134400000,   7.93600,
,,,00.000134800000,   7.83680,
,,,00.000135200000,   7.83680,
,,,00.000135600000,   7.93600,
,,,00.000136000000,   7.93600,
,,,00.000136400000,   7.93600,
,,,00.000136800000,   7.93600,
,,,00.000137200000,   7.93600,
,,,00.000137600000,   7.93600,
,,,00.000138000000,   7.93600,
,,,00.000138400000,   7.93600,
,,,00.000138800000,   7.93600,
,,,00.000139200000,   7.93600,
,,,00.000139600000,   8.03520,
,,,00.000140000000,   7.93600,
,,,00.000140400000,   7.93600,
,,,00.000140800000,   8.03520,
,,,00.000141200000,   8.03520,
,,,00.000141600000,   7.93600,
,,,00.000142000000,   8.03520,
,,,00.000142400000,   8.03520,
,,,00.000142800000,   8.03520,
,,,00.000143200000,   8.03520,
,,,00.000143600000,   7.93600,
,,,00.000144000000,   8.03520,
,,,00.000144400000,   8.13440,
,,,00.000144800000,   7.93600,
,,,00.000145200000,   7.93600,
,,,00.000145600000,   7.83680,
,,,00.000146000000,   7.93600,
,,,00.000146400000,   7.93600,
,,,00.000146800000,   8.03520,
,,,00.000147200000,   7.93600,
,,,00.000147600000,   8.03520,
,,,00.000148000000,   8.13440,
,,,00.000148400000,   7.93600,
,,,00.000148800000,   8.03520,
,,,00.000149200000,   8.03520,
,,,00.000149600000,   8.03520,
,,,00.000150000000,   8.03520,
,,,00.000150400000,   8.03520,
,,,00.000150800000,   8.13440,
,,,00.000151200000,   8.03520,
,,,00.000151600000,   8.03520,
,,,00.000152000000,   7.93600,
,,,00.000152400000,   8.03520,
,,,00.000152800000,   8.13440,
,,,00.000153200000,   8.03520,
,,,00.000153600000,   8.13440,
,,,00.000154000000,   8.03520,
,,,00.000154400000,   8.13440,
,,,00.000154800000,   8.03520,
,,,00.000155200000,   8.03520,
,,,00.000155600000,   8.03520,
,,,00.000156000000,   8.13440,
,,,00.000156400000,   8.13440,
,,,00.000156800000,   8.03520,
,,,00.000157200000,   8.13440,
,,,00.000157600000,   8.13440,
,,,00.000158000000,   8.03520,
,,,00.000158400000,   8.03520,
,,,00.000158800000,   8.13440,
,,,00.000159200000,   8.13440,
,,,00.000159600000,   8.13440,
,,,00.000160000000,   8.03520,
,,,00.000160400000,   8.03520,
,,,00.000160800000,   8.13440,
,,,00.000161200000,   8.13440,
,,,00.000161600000,   8.13440,
,,,00.000162000000,   8.23360,
,,,00.000162400000,   8.13440,
,,,00.000162800000,   8.13440,
,,,00.000163200000,   8.03520,
,,,00.000163600000,   8.13440,
,,,00.000164000000,   8.23360,
,,,00.000164400000,   8.23360,
,,,00.000164800000,   8.23360,
,,,00.000165200000,   8.13440,
,,,00.000165600000,   8.23360,
,,,00.000166000000,   8.23360,
,,,00.000166400000,   8.23360,
,,,00.000166800000,   8.23360,
,,,00.000167200000,   8.23360,
,,,00.000167600000,   8.23360,
,,,00.000168000000,   8.03520,
,,,00.000168400000,   8.23360,
,,,00.000168800000,   8.13440,
,,,00.000169200000,   8.33280,
,,,00.000169600000,   8.23360,
,,,00.000170000000,   8.13440,
,,,00.000170400000,   8.23360,
,,,00.000170800000,   8.23360,
,,,00.000171200000,   8.13440,
,,,00.000171600000,   8.23360,
,,,00.000172000000,   8.13440,
,,,00.000172400000,   8.23360,
,,,00.000172800000,   8.23360,
,,,00.000173200000,   8.23360,
,,,00.000173600000,   8.23360,
,,,00.000174000000,   8.23360,
,,,00.000174400000,   8.33280,
,,,00.000174800000,   8.23360,
,,,00.000175200000,   8.23360,
,,,00.000175600000,   8.13440,
,,,00.000176000000,   8.33280,
,,,00.000176400000,   8.23360,
,,,00.000176800000,   8.23360,
,,,00.000177200000,   8.33280,
,,,00.000177600000,   8.33280,
,,,00.000178000000,   8.23360,
,,,00.000178400000,   8.13440,
,,,00.000178800000,   8.33280,
,,,00.000179200000,   8.23360,
,,,00.000179600000,   8.33280,
,,,00.000180000000,   8.33280,
,,,00.000180400000,   8.23360,
,,,00.000180800000,   8.33280,
,,,00.000181200000,   8.23360,
,,,00.000181600000,   8.23360,
,,,00.000182000000,   8.43200,
,,,00.000182400000,   8.33280,
,,,00.000182800000,   8.23360,
,,,00.000183200000,   8.23360,
,,,00.000183600000,   8.33280,
,,,00.000184000000,   8.33280,
,,,00.000184400000,   8.33280,
,,,00.000184800000,   8.23360,
,,,00.000185200000,   8.33280,
,,,00.000185600000,   8.43200,
,,,00.000186000000,   8.33280,
,,,00.000186400000,   8.33280,
,,,00.000186800000,   8.33280,
,,,00.000187200000,   8.43200,
,,,00.000187600000,   8.33280,
,,,00.000188000000,   8.43200,
,,,00.000188400000,   8.33280,
,,,00.000188800000,   8.33280,
,,,00.000189200000,   8.33280,
,,,00.000189600000,   8.33280,
,,,00.000190000000,   8.43200,
,,,00.000190400000,   8.33280,
,,,00.000190800000,   8.43200,
,,,00.000191200000,   8.33280,
,,,00.000191600000,   8.43200,
,,,00.000192000000,   8.43200,
,,,00.000192400000,   8.33280,
,,,00.000192800000,   8.43200,
,,,00.000193200000,   8.33280,
,,,00.000193600000,   8.23360,
,,,00.000194000000,   8.43200,
,,,00.000194400000,   8.33280,
,,,00.000194800000,   8.23360,
,,,00.000195200000,   8.43200,
,,,00.000195600000,   8.33280,
,,,00.000196000000,   8.33280,
,,,00.000196400000,   8.33280,
,,,00.000196800000,   8.43200,
,,,00.000197200000,   8.43200,
,,,00.000197600000,   8.43200,
,,,00.000198000000,   8.33280,
,,,00.000198400000,   8.43200,
,,,00.000198800000,   8.53120,
,,,00.000199200000,   8.43200,
,,,00.000199600000,   8.43200,
,,,00.000200000000,   8.43200,
,,,00.000200400000,   8.43200,
,,,00.000200800000,   8.43200,
,,,00.000201200000,   8.43200,
,,,00.000201600000,   8.43200,
,,,00.000202000000,   8.33280,
,,,00.000202400000,   8.43200,
,,,00.000202800000,   8.43200,
,,,00.000203200000,   8.43200,
,,,00.000203600000,   8.53120,
,,,00.000204000000,   8.43200,
,,,00.000204400000,   8.33280,
,,,00.000204800000,   8.53120,
,,,00.000205200000,   8.43200,
,,,00.000205600000,   8.53120,
,,,00.000206000000,   8.43200,
,,,00.000206400000,   8.33280,
,,,00.000206800000,   8.53120,
,,,00.000207200000,   8.53120,
,,,00.000207600000,   8.33280,
,,,00.000208000000,   8.23360,
,,,00.000208400000,   8.53120,
,,,00.000208800000,   8.43200,
,,,00.000209200000,   8.43200,
,,,00.000209600000,   8.33280,
,,,00.000210000000,   8.43200,
,,,00.000210400000,   8.43200,
,,,00.000210800000,   8.43200,
,,,00.000211200000,   8.33280,
,,,00.000211600000,   8.43200,
,,,00.000212000000,   8.43200,
,,,00.000212400000,   8.53120,
,,,00.000212800000,   8.43200,
,,,00.000213200000,   8.43200,
,,,00.000213600000,   8.53120,
,,,00.000214000000,   8.43200,
,,,00.000214400000,   8.43200,
,,,00.000214800000,   8.43200,
,,,00.000215200000,   8.43200,
,,,00.000215600000,   8.53120,
,,,00.000216000000,   8.43200,
,,,00.000216400000,   8.43200,
,,,00.000216800000,   8.43200,
,,,00.000217200000,   8.43200,
,,,00.000217600000,   8.43200,
,,,00.000218000000,   8.43200,
,,,00.000218400000,   8.43200,
,,,00.000218800000,   8.43200,
,,,00.000219200000,   8.33280,
,,,00.000219600000,   8.43200,
,,,00.000220000000,   8.43200,
