Circuiti_3/data.leo/RLC_R/21000/F0020MTH.CSV

Record Length,2.500000e+03,,  -0.000034400000,   3.60000,
Sample Interval,4.000000e-08,,  -0.000034360000,   3.52000,
Trigger Point,8.600000000000e+02,,  -0.000034320000,   3.60000,
,,,  -0.000034280000,   3.52000,
,,,  -0.000034240000,   3.60000,
,,,  -0.000034200000,   3.60000,
Source,MATH,,  -0.000034160000,   3.44000,
Vertical Units,V,,  -0.000034120000,   3.52000,
Vertical Scale,2.000000e+00,,  -0.000034080000,   3.60000,
Vertical Offset,0.000000e+00,,  -0.000034040000,   3.60000,
Horizontal Units,s,,  -0.000034000000,   3.60000,
Horizontal Scale,1.000000e-05,,  -0.000033960000,   3.60000,
Pt Fmt,Y,,  -0.000033920000,   3.44000,
Yzero,0.000000e+00,,  -0.000033880000,   3.44000,
Probe Atten,1.000000e+00,,  -0.000033840000,   3.44000,
Model Number,TDS2012C,,  -0.000033800000,   3.52000,
Serial Number,C050125,,  -0.000033760000,   3.36000,
Firmware Version,FV:v24.26,,  -0.000033720000,   3.44000,
,,,-00.000033680000,   3.44000,
,,,-00.000033640000,   3.44000,
,,,-00.000033600000,   3.44000,
,,,-00.000033560000,   3.36000,
,,,-00.000033520000,   3.20000,
,,,-00.000033480000,   3.44000,
,,,-00.000033440000,   3.44000,
,,,-00.000033400000,   3.44000,
,,,-00.000033360000,   3.36000,
,,,-00.000033320000,   3.20000,
,,,-00.000033280000,   3.28000,
,,,-00.000033240000,   3.28000,
,,,-00.000033200000,   3.36000,
,,,-00.000033160000,   3.20000,
,,,-00.000033120000,   3.20000,
,,,-00.000033080000,   3.20000,
,,,-00.000033040000,   3.20000,
,,,-00.000033000000,   3.28000,
,,,-00.000032960000,   3.12000,
,,,-00.000032920000,   3.28000,
,,,-00.000032880000,   3.28000,
,,,-00.000032840000,   3.12000,
,,,-00.000032800000,   3.12000,
,,,-00.000032760000,   3.20000,
,,,-00.000032720000,   3.12000,
,,,-00.000032680000,   3.20000,
,,,-00.000032640000,   3.20000,
,,,-00.000032600000,   3.12000,
,,,-00.000032560000,   3.04000,
,,,-00.000032520000,   3.12000,
,,,-00.000032480000,   3.04000,
,,,-00.000032440000,   3.20000,
,,,-00.000032400000,   3.04000,
,,,-00.000032360000,   2.96000,
,,,-00.000032320000,   3.04000,
,,,-00.000032280000,   2.96000,
,,,-00.000032240000,   2.88000,
,,,-00.000032200000,   3.04000,
,,,-00.000032160000,   2.80000,
,,,-00.000032120000,   2.96000,
,,,-00.000032080000,   2.88000,
,,,-00.000032040000,   2.88000,
,,,-00.000032000000,   2.88000,
,,,-00.000031960000,   2.88000,
,,,-00.000031920000,   2.96000,
,,,-00.000031880000,   2.88000,
,,,-00.000031840000,   2.80000,
,,,-00.000031800000,   2.72000,
,,,-00.000031760000,   2.80000,
,,,-00.000031720000,   2.72000,
,,,-00.000031680000,   2.88000,
,,,-00.000031640000,   2.80000,
,,,-00.000031600000,   2.72000,
,,,-00.000031560000,   2.80000,
,,,-00.000031520000,   2.64000,
,,,-00.000031480000,   2.64000,
,,,-00.000031440000,   2.56000,
,,,-00.000031400000,   2.64000,
,,,-00.000031360000,   2.56000,
,,,-00.000031320000,   2.56000,
,,,-00.000031280000,   2.64000,
,,,-00.000031240000,   2.64000,
,,,-00.000031200000,   2.56000,
,,,-00.000031160000,   2.56000,
,,,-00.000031120000,   2.48000,
,,,-00.000031080000,   2.64000,
,,,-00.000031040000,   2.48000,
,,,-00.000031000000,   2.40000,
,,,-00.000030960000,   2.40000,
,,,-00.000030920000,   2.56000,
,,,-00.000030880000,   2.48000,
,,,-00.000030840000,   2.40000,
,,,-00.000030800000,   2.56000,
,,,-00.000030760000,   2.40000,
,,,-00.000030720000,   2.32000,
,,,-00.000030680000,   2.32000,
,,,-00.000030640000,   2.32000,
,,,-00.000030600000,   2.40000,
,,,-00.000030560000,   2.24000,
,,,-00.000030520000,   2.24000,
,,,-00.000030480000,   2.24000,
,,,-00.000030440000,   2.24000,
,,,-00.000030400000,   2.32000,
,,,-00.000030360000,   2.32000,
,,,-00.000030320000,   2.32000,
,,,-00.000030280000,   2.16000,
,,,-00.000030240000,   2.16000,
,,,-00.000030200000,   2.24000,
,,,-00.000030160000,   2.16000,
,,,-00.000030120000,   2.16000,
,,,-00.000030080000,   2.16000,
,,,-00.000030040000,   2.24000,
,,,-00.000030000000,   2.16000,
,,,-00.000029960000,   2.16000,
,,,-00.000029920000,   2.00000,
,,,-00.000029880000,   2.00000,
,,,-00.000029840000,   2.00000,
,,,-00.000029800000,   2.00000,
,,,-00.000029760000,   1.92000,
,,,-00.000029720000,   1.92000,
,,,-00.000029680000,   1.84000,
,,,-00.000029640000,   1.92000,
,,,-00.000029600000,   1.92000,
,,,-00.000029560000,   1.84000,
,,,-00.000029520000,   1.92000,
,,,-00.000029480000,   1.84000,
,,,-00.000029440000,   1.84000,
,,,-00.000029400000,   1.76000,
,,,-00.000029360000,   1.68000,
,,,-00.000029320000,   1.76000,
,,,-00.000029280000,   1.68000,
,,,-00.000029240000,   1.76000,
,,,-00.000029200000,   1.76000,
,,,-00.000029160000,   1.60000,
,,,-00.000029120000,   1.60000,
,,,-00.000029080000,   1.60000,
,,,-00.000029040000,   1.76000,
,,,-00.000029000000,   1.60000,
,,,-00.000028960000,   1.60000,
,,,-00.000028920000,   1.60000,
,,,-00.000028880000,   1.52000,
,,,-00.000028840000,   1.52000,
,,,-00.000028800000,   1.44000,
,,,-00.000028760000,   1.52000,
,,,-00.000028720000,   1.52000,
,,,-00.000028680000,   1.44000,
,,,-00.000028640000,   1.36000,
,,,-00.000028600000,   1.44000,
,,,-00.000028560000,   1.44000,
,,,-00.000028520000,   1.28000,
,,,-00.000028480000,   1.44000,
,,,-00.000028440000,   1.28000,
,,,-00.000028400000,   1.44000,
,,,-00.000028360000,   1.36000,
,,,-00.000028320000,   1.36000,
,,,-00.000028280000,   1.20000,
,,,-00.000028240000,   1.20000,
,,,-00.000028200000,   1.28000,
,,,-00.000028160000,   1.20000,
,,,-00.000028120000,   1.04000,
,,,-00.000028080000,   1.20000,
,,,-00.000028040000,   1.12000,
,,,-00.000028000000,   1.04000,
,,,-00.000027960000,   1.12000,
,,,-00.000027920000,   1.12000,
,,,-00.000027880000,   1.20000,
,,,-00.000027840000,   0.96000,
,,,-00.000027800000,   1.04000,
,,,-00.000027760000,   0.96000,
,,,-00.000027720000,   0.96000,
,,,-00.000027680000,   0.96000,
,,,-00.000027640000,   0.88000,
,,,-00.000027600000,   0.96000,
,,,-00.000027560000,   0.80000,
,,,-00.000027520000,   0.88000,
,,,-00.000027480000,   0.80000,
,,,-00.000027440000,   0.88000,
,,,-00.000027400000,   0.72000,
,,,-00.000027360000,   0.72000,
,,,-00.000027320000,   0.64000,
,,,-00.000027280000,   0.72000,
,,,-00.000027240000,   0.64000,
,,,-00.000027200000,   0.72000,
,,,-00.000027160000,   0.64000,
,,,-00.000027120000,   0.80000,
,,,-00.000027080000,   0.64000,
,,,-00.000027040000,   0.56000,
,,,-00.000027000000,   0.72000,
,,,-00.000026960000,   0.64000,
,,,-00.000026920000,   0.40000,
,,,-00.000026880000,   0.56000,
,,,-00.000026840000,   0.56000,
,,,-00.000026800000,   0.48000,
,,,-00.000026760000,   0.56000,
,,,-00.000026720000,   0.48000,
,,,-00.000026680000,   0.48000,
,,,-00.000026640000,   0.64000,
,,,-00.000026600000,   0.48000,
,,,-00.000026560000,   0.40000,
,,,-00.000026520000,   0.32000,
,,,-00.000026480000,   0.32000,
,,,-00.000026440000,   0.32000,
,,,-00.000026400000,   0.40000,
,,,-00.000026360000,   0.32000,
,,,-00.000026320000,   0.24000,
,,,-00.000026280000,   0.24000,
,,,-00.000026240000,   0.24000,
,,,-00.000026200000,   0.16000,
,,,-00.000026160000,   0.24000,
,,,-00.000026120000,   0.24000,
,,,-00.000026080000,   0.24000,
,,,-00.000026040000,   0.08000,
,,,-00.000026000000,   0.08000,
,,,-00.000025960000,   0.00000,
,,,-00.000025920000,   0.08000,
,,,-00.000025880000,   0.16000,
,,,-00.000025840000,   0.00000,
,,,-00.000025800000,   0.00000,
,,,-00.000025760000,  -0.08000,
,,,-00.000025720000,   0.00000,
,,,-00.000025680000,  -0.08000,
,,,-00.000025640000,   0.00000,
,,,-00.000025600000,  -0.16000,
,,,-00.000025560000,  -0.08000,
,,,-00.000025520000,  -0.16000,
,,,-00.000025480000,  -0.16000,
,,,-00.000025440000,  -0.24000,
,,,-00.000025400000,  -0.32000,
,,,-00.000025360000,  -0.24000,
,,,-00.000025320000,  -0.32000,
,,,-00.000025280000,  -0.24000,
,,,-00.000025240000,  -0.16000,
,,,-00.000025200000,  -0.32000,
,,,-00.000025160000,  -0.40000,
,,,-00.000025120000,  -0.40000,
,,,-00.000025080000,  -0.32000,
,,,-00.000025040000,  -0.24000,
,,,-00.000025000000,  -0.24000,
,,,-00.000024960000,  -0.40000,
,,,-00.000024920000,  -0.56000,
,,,-00.000024880000,  -0.56000,
,,,-00.000024840000,  -0.40000,
,,,-00.000024800000,  -0.48000,
,,,-00.000024760000,  -0.48000,
,,,-00.000024720000,  -0.56000,
,,,-00.000024680000,  -0.64000,
,,,-00.000024640000,  -0.64000,
,,,-00.000024600000,  -0.64000,
,,,-00.000024560000,  -0.64000,
,,,-00.000024520000,  -0.64000,
,,,-00.000024480000,  -0.72000,
,,,-00.000024440000,  -0.56000,
,,,-00.000024400000,  -0.80000,
,,,-00.000024360000,  -0.80000,
,,,-00.000024320000,  -0.72000,
,,,-00.000024280000,  -0.72000,
,,,-00.000024240000,  -0.80000,
,,,-00.000024200000,  -0.72000,
,,,-00.000024160000,  -0.80000,
,,,-00.000024120000,  -0.80000,
,,,-00.000024080000,  -0.88000,
,,,-00.000024040000,  -0.96000,
,,,-00.000024000000,  -0.80000,
,,,-00.000023960000,  -0.96000,
,,,-00.000023920000,  -0.96000,
,,,-00.000023880000,  -0.88000,
,,,-00.000023840000,  -0.96000,
,,,-00.000023800000,  -0.96000,
,,,-00.000023760000,  -0.96000,
,,,-00.000023720000,  -1.04000,
,,,-00.000023680000,  -1.12000,
,,,-00.000023640000,  -1.04000,
,,,-00.000023600000,  -1.20000,
,,,-00.000023560000,  -1.04000,
,,,-00.000023520000,  -1.12000,
,,,-00.000023480000,  -1.20000,
,,,-00.000023440000,  -1.20000,
,,,-00.000023400000,  -1.20000,
,,,-00.000023360000,  -1.28000,
,,,-00.000023320000,  -1.28000,
,,,-00.000023280000,  -1.28000,
,,,-00.000023240000,  -1.20000,
,,,-00.000023200000,  -1.36000,
,,,-00.000023160000,  -1.20000,
,,,-00.000023120000,  -1.20000,
,,,-00.000023080000,  -1.44000,
,,,-00.000023040000,  -1.36000,
,,,-00.000023000000,  -1.44000,
,,,-00.000022960000,  -1.44000,
,,,-00.000022920000,  -1.52000,
,,,-00.000022880000,  -1.44000,
,,,-00.000022840000,  -1.44000,
,,,-00.000022800000,  -1.52000,
,,,-00.000022760000,  -1.44000,
,,,-00.000022720000,  -1.52000,
,,,-00.000022680000,  -1.52000,
,,,-00.000022640000,  -1.60000,
,,,-00.000022600000,  -1.60000,
,,,-00.000022560000,  -1.68000,
,,,-00.000022520000,  -1.68000,
,,,-00.000022480000,  -1.68000,
,,,-00.000022440000,  -1.60000,
,,,-00.000022400000,  -1.60000,
,,,-00.000022360000,  -1.76000,
,,,-00.000022320000,  -1.76000,
,,,-00.000022280000,  -1.68000,
,,,-00.000022240000,  -1.84000,
,,,-00.000022200000,  -1.76000,
,,,-00.000022160000,  -1.76000,
,,,-00.000022120000,  -1.84000,
,,,-00.000022080000,  -1.92000,
,,,-00.000022040000,  -1.92000,
,,,-00.000022000000,  -2.00000,
,,,-00.000021960000,  -1.92000,
,,,-00.000021920000,  -1.92000,
,,,-00.000021880000,  -2.00000,
,,,-00.000021840000,  -1.92000,
,,,-00.000021800000,  -2.08000,
,,,-00.000021760000,  -2.00000,
,,,-00.000021720000,  -2.00000,
,,,-00.000021680000,  -2.08000,
,,,-00.000021640000,  -2.08000,
,,,-00.000021600000,  -1.92000,
,,,-00.000021560000,  -2.00000,
,,,-00.000021520000,  -2.08000,
,,,-00.000021480000,  -2.32000,
,,,-00.000021440000,  -2.16000,
,,,-00.000021400000,  -2.08000,
,,,-00.000021360000,  -2.16000,
,,,-00.000021320000,  -2.16000,
,,,-00.000021280000,  -2.08000,
,,,-00.000021240000,  -2.16000,
,,,-00.000021200000,  -2.24000,
,,,-00.000021160000,  -2.32000,
,,,-00.000021120000,  -2.24000,
,,,-00.000021080000,  -2.24000,
,,,-00.000021040000,  -2.24000,
,,,-00.000021000000,  -2.32000,
,,,-00.000020960000,  -2.32000,
,,,-00.000020920000,  -2.32000,
,,,-00.000020880000,  -2.48000,
,,,-00.000020840000,  -2.32000,
,,,-00.000020800000,  -2.32000,
,,,-00.000020760000,  -2.40000,
,,,-00.000020720000,  -2.48000,
,,,-00.000020680000,  -2.48000,
,,,-00.000020640000,  -2.48000,
,,,-00.000020600000,  -2.48000,
,,,-00.000020560000,  -2.40000,
,,,-00.000020520000,  -2.48000,
,,,-00.000020480000,  -2.48000,
,,,-00.000020440000,  -2.64000,
,,,-00.000020400000,  -2.64000,
,,,-00.000020360000,  -2.64000,
,,,-00.000020320000,  -2.64000,
,,,-00.000020280000,  -2.64000,
,,,-00.000020240000,  -2.72000,
,,,-00.000020200000,  -2.64000,
,,,-00.000020160000,  -2.80000,
,,,-00.000020120000,  -2.72000,
,,,-00.000020080000,  -2.72000,
,,,-00.000020040000,  -2.72000,
,,,-00.000020000000,  -2.72000,
,,,-00.000019960000,  -2.72000,
,,,-00.000019920000,  -2.80000,
,,,-00.000019880000,  -2.88000,
,,,-00.000019840000,  -2.64000,
,,,-00.000019800000,  -2.88000,
,,,-00.000019760000,  -2.80000,
,,,-00.000019720000,  -2.80000,
,,,-00.000019680000,  -2.88000,
,,,-00.000019640000,  -2.88000,
,,,-00.000019600000,  -2.96000,
,,,-00.000019560000,  -2.96000,
,,,-00.000019520000,  -2.96000,
,,,-00.000019480000,  -2.88000,
,,,-00.000019440000,  -2.96000,
,,,-00.000019400000,  -3.04000,
,,,-00.000019360000,  -2.96000,
,,,-00.000019320000,  -3.04000,
,,,-00.000019280000,  -2.88000,
,,,-00.000019240000,  -3.04000,
,,,-00.000019200000,  -2.96000,
,,,-00.000019160000,  -2.96000,
,,,-00.000019120000,  -3.12000,
,,,-00.000019080000,  -3.04000,
,,,-00.000019040000,  -3.12000,
,,,-00.000019000000,  -3.12000,
,,,-00.000018960000,  -3.04000,
,,,-00.000018920000,  -3.04000,
,,,-00.000018880000,  -3.12000,
,,,-00.000018840000,  -3.12000,
,,,-00.000018800000,  -3.12000,
,,,-00.000018760000,  -3.12000,
,,,-00.000018720000,  -3.04000,
,,,-00.000018680000,  -3.20000,
,,,-00.000018640000,  -3.04000,
,,,-00.000018600000,  -3.20000,
,,,-00.000018560000,  -3.28000,
,,,-00.000018520000,  -3.20000,
,,,-00.000018480000,  -3.12000,
,,,-00.000018440000,  -3.04000,
,,,-00.000018400000,  -3.28000,
,,,-00.000018360000,  -3.28000,
,,,-00.000018320000,  -3.28000,
,,,-00.000018280000,  -3.36000,
,,,-00.000018240000,  -3.28000,
,,,-00.000018200000,  -3.28000,
,,,-00.000018160000,  -3.28000,
,,,-00.000018120000,  -3.28000,
,,,-00.000018080000,  -3.44000,
,,,-00.000018040000,  -3.52000,
,,,-00.000018000000,  -3.36000,
,,,-00.000017960000,  -3.36000,
,,,-00.000017920000,  -3.44000,
,,,-00.000017880000,  -3.36000,
,,,-00.000017840000,  -3.44000,
,,,-00.000017800000,  -3.52000,
,,,-00.000017760000,  -3.52000,
,,,-00.000017720000,  -3.44000,
,,,-00.000017680000,  -3.44000,
,,,-00.000017640000,  -3.44000,
,,,-00.000017600000,  -3.44000,
,,,-00.000017560000,  -3.44000,
,,,-00.000017520000,  -3.52000,
,,,-00.000017480000,  -3.52000,
,,,-00.000017440000,  -3.44000,
,,,-00.000017400000,  -3.52000,
,,,-00.000017360000,  -3.44000,
,,,-00.000017320000,  -3.52000,
,,,-00.000017280000,  -3.52000,
,,,-00.000017240000,  -3.60000,
,,,-00.000017200000,  -3.68000,
,,,-00.000017160000,  -3.60000,
,,,-00.000017120000,  -3.52000,
,,,-00.000017080000,  -3.52000,
,,,-00.000017040000,  -3.52000,
,,,-00.000017000000,  -3.60000,
,,,-00.000016960000,  -3.68000,
,,,-00.000016920000,  -3.60000,
,,,-00.000016880000,  -3.60000,
,,,-00.000016840000,  -3.52000,
,,,-00.000016800000,  -3.60000,
,,,-00.000016760000,  -3.76000,
,,,-00.000016720000,  -3.68000,
,,,-00.000016680000,  -3.68000,
,,,-00.000016640000,  -3.68000,
,,,-00.000016600000,  -3.60000,
,,,-00.000016560000,  -3.60000,
,,,-00.000016520000,  -3.68000,
,,,-00.000016480000,  -3.68000,
,,,-00.000016440000,  -3.68000,
,,,-00.000016400000,  -3.68000,
,,,-00.000016360000,  -3.68000,
,,,-00.000016320000,  -3.76000,
,,,-00.000016280000,  -3.68000,
,,,-00.000016240000,  -3.76000,
,,,-00.000016200000,  -3.84000,
,,,-00.000016160000,  -3.60000,
,,,-00.000016120000,  -3.68000,
,,,-00.000016080000,  -3.76000,
,,,-00.000016040000,  -3.76000,
,,,-00.000016000000,  -3.76000,
,,,-00.000015960000,  -3.68000,
,,,-00.000015920000,  -3.84000,
,,,-00.000015880000,  -3.76000,
,,,-00.000015840000,  -3.76000,
,,,-00.000015800000,  -3.92000,
,,,-00.000015760000,  -3.84000,
,,,-00.000015720000,  -3.68000,
,,,-00.000015680000,  -3.84000,
,,,-00.000015640000,  -3.92000,
,,,-00.000015600000,  -3.84000,
,,,-00.000015560000,  -3.76000,
,,,-00.000015520000,  -3.92000,
,,,-00.000015480000,  -3.84000,
,,,-00.000015440000,  -3.84000,
,,,-00.000015400000,  -3.84000,
,,,-00.000015360000,  -3.84000,
,,,-00.000015320000,  -3.84000,
,,,-00.000015280000,  -3.92000,
,,,-00.000015240000,  -3.84000,
,,,-00.000015200000,  -3.76000,
,,,-00.000015160000,  -3.92000,
,,,-00.000015120000,  -3.84000,
,,,-00.000015080000,  -3.84000,
,,,-00.000015040000,  -3.84000,
,,,-00.000015000000,  -3.92000,
,,,-00.000014960000,  -3.92000,
,,,-00.000014920000,  -3.92000,
,,,-00.000014880000,  -3.92000,
,,,-00.000014840000,  -3.92000,
,,,-00.000014800000,  -3.92000,
,,,-00.000014760000,  -3.84000,
,,,-00.000014720000,  -3.84000,
,,,-00.000014680000,  -3.92000,
,,,-00.000014640000,  -4.00000,
,,,-00.000014600000,  -4.00000,
,,,-00.000014560000,  -3.92000,
,,,-00.000014520000,  -3.92000,
,,,-00.000014480000,  -3.84000,
,,,-00.000014440000,  -3.92000,
,,,-00.000014400000,  -4.00000,
,,,-00.000014360000,  -3.76000,
,,,-00.000014320000,  -3.92000,
,,,-00.000014280000,  -3.84000,
,,,-00.000014240000,  -3.76000,
,,,-00.000014200000,  -3.76000,
,,,-00.000014160000,  -3.84000,
,,,-00.000014120000,  -4.00000,
,,,-00.000014080000,  -4.00000,
,,,-00.000014040000,  -3.84000,
,,,-00.000014000000,  -3.92000,
,,,-00.000013960000,  -3.84000,
,,,-00.000013920000,  -3.84000,
,,,-00.000013880000,  -3.92000,
,,,-00.000013840000,  -3.92000,
,,,-00.000013800000,  -4.00000,
,,,-00.000013760000,  -3.84000,
,,,-00.000013720000,  -4.00000,
,,,-00.000013680000,  -3.84000,
,,,-00.000013640000,  -3.84000,
,,,-00.000013600000,  -4.00000,
,,,-00.000013560000,  -4.00000,
,,,-00.000013520000,  -3.92000,
,,,-00.000013480000,  -3.92000,
,,,-00.000013440000,  -4.00000,
,,,-00.000013400000,  -3.84000,
,,,-00.000013360000,  -3.92000,
,,,-00.000013320000,  -3.92000,
,,,-00.000013280000,  -4.00000,
,,,-00.000013240000,  -3.92000,
,,,-00.000013200000,  -3.92000,
,,,-00.000013160000,  -4.00000,
,,,-00.000013120000,  -3.92000,
,,,-00.000013080000,  -3.76000,
,,,-00.000013040000,  -3.92000,
,,,-00.000013000000,  -3.92000,
,,,-00.000012960000,  -3.92000,
,,,-00.000012920000,  -3.84000,
,,,-00.000012880000,  -3.84000,
,,,-00.000012840000,  -4.00000,
,,,-00.000012800000,  -3.92000,
,,,-00.000012760000,  -3.92000,
,,,-00.000012720000,  -3.92000,
,,,-00.000012680000,  -3.84000,
,,,-00.000012640000,  -3.84000,
,,,-00.000012600000,  -3.68000,
,,,-00.000012560000,  -3.84000,
,,,-00.000012520000,  -3.92000,
,,,-00.000012480000,  -3.92000,
,,,-00.000012440000,  -3.84000,
,,,-00.000012400000,  -3.84000,
,,,-00.000012360000,  -3.92000,
,,,-00.000012320000,  -3.84000,
,,,-00.000012280000,  -3.92000,
,,,-00.000012240000,  -3.76000,
,,,-00.000012200000,  -3.84000,
,,,-00.000012160000,  -3.84000,
,,,-00.000012120000,  -3.76000,
,,,-00.000012080000,  -3.84000,
,,,-00.000012040000,  -3.84000,
,,,-00.000012000000,  -3.84000,
,,,-00.000011960000,  -3.84000,
,,,-00.000011920000,  -3.76000,
,,,-00.000011880000,  -3.68000,
,,,-00.000011840000,  -3.92000,
,,,-00.000011800000,  -3.84000,
,,,-00.000011760000,  -3.84000,
,,,-00.000011720000,  -3.76000,
,,,-00.000011680000,  -3.76000,
,,,-00.000011640000,  -3.76000,
,,,-00.000011600000,  -3.68000,
,,,-00.000011560000,  -3.76000,
,,,-00.000011520000,  -3.68000,
,,,-00.000011480000,  -3.84000,
,,,-00.000011440000,  -3.76000,
,,,-00.000011400000,  -3.84000,
,,,-00.000011360000,  -3.68000,
,,,-00.000011320000,  -3.76000,
,,,-00.000011280000,  -3.68000,
,,,-00.000011240000,  -3.68000,
,,,-00.000011200000,  -3.76000,
,,,-00.000011160000,  -3.52000,
,,,-00.000011120000,  -3.68000,
,,,-00.000011080000,  -3.76000,
,,,-00.000011040000,  -3.44000,
,,,-00.000011000000,  -3.60000,
,,,-00.000010960000,  -3.68000,
,,,-00.000010920000,  -3.60000,
,,,-00.000010880000,  -3.60000,
,,,-00.000010840000,  -3.68000,
,,,-00.000010800000,  -3.60000,
,,,-00.000010760000,  -3.52000,
,,,-00.000010720000,  -3.60000,
,,,-00.000010680000,  -3.52000,
,,,-00.000010640000,  -3.76000,
,,,-00.000010600000,  -3.52000,
,,,-00.000010560000,  -3.44000,
,,,-00.000010520000,  -3.44000,
,,,-00.000010480000,  -3.60000,
,,,-00.000010440000,  -3.52000,
,,,-00.000010400000,  -3.52000,
,,,-00.000010360000,  -3.60000,
,,,-00.000010320000,  -3.36000,
,,,-00.000010280000,  -3.52000,
,,,-00.000010240000,  -3.36000,
,,,-00.000010200000,  -3.36000,
,,,-00.000010160000,  -3.44000,
,,,-00.000010120000,  -3.44000,
,,,-00.000010080000,  -3.36000,
,,,-00.000010040000,  -3.52000,
,,,-00.000010000000,  -3.36000,
,,,-00.000009960000,  -3.52000,
,,,-00.000009920000,  -3.52000,
,,,-00.000009880000,  -3.52000,
