Circuiti_3/data/RLC_C/ALL0017/F0017MTH.CSV

Record Length,2.500000e+03,,  -0.000050000000,  -4.20000,
Sample Interval,4.000000e-08,,  -0.000049960000,  -4.20000,
Trigger Point,1.250000000000e+03,,  -0.000049920000,  -4.20000,
,,,  -0.000049880000,  -4.20000,
,,,  -0.000049840000,  -4.20000,
,,,  -0.000049800000,  -4.20000,
Source,MATH,,  -0.000049760000,  -4.40000,
Vertical Units,V,,  -0.000049720000,  -4.40000,
Vertical Scale,5.000000e+00,,  -0.000049680000,  -4.40000,
Vertical Offset,0.000000e+00,,  -0.000049640000,  -4.40000,
Horizontal Units,s,,  -0.000049600000,  -4.20000,
Horizontal Scale,1.000000e-05,,  -0.000049560000,  -4.40000,
Pt Fmt,Y,,  -0.000049520000,  -4.40000,
Yzero,0.000000e+00,,  -0.000049480000,  -4.60000,
Probe Atten,1.000000e+00,,  -0.000049440000,  -4.60000,
Model Number,TDS2012C,,  -0.000049400000,  -4.60000,
Serial Number,C050125,,  -0.000049360000,  -4.60000,
Firmware Version,FV:v24.26,,  -0.000049320000,  -4.60000,
,,,-00.000049280000,  -4.60000,
,,,-00.000049240000,  -4.60000,
,,,-00.000049200000,  -4.60000,
,,,-00.000049160000,  -4.60000,
,,,-00.000049120000,  -4.60000,
,,,-00.000049080000,  -4.60000,
,,,-00.000049040000,  -4.60000,
,,,-00.000049000000,  -4.60000,
,,,-00.000048960000,  -4.60000,
,,,-00.000048920000,  -4.80000,
,,,-00.000048880000,  -4.80000,
,,,-00.000048840000,  -4.80000,
,,,-00.000048800000,  -4.60000,
,,,-00.000048760000,  -4.80000,
,,,-00.000048720000,  -4.60000,
,,,-00.000048680000,  -4.80000,
,,,-00.000048640000,  -4.80000,
,,,-00.000048600000,  -4.80000,
,,,-00.000048560000,  -4.80000,
,,,-00.000048520000,  -4.80000,
,,,-00.000048480000,  -4.80000,
,,,-00.000048440000,  -4.80000,
,,,-00.000048400000,  -5.00000,
,,,-00.000048360000,  -4.80000,
,,,-00.000048320000,  -4.80000,
,,,-00.000048280000,  -5.00000,
,,,-00.000048240000,  -5.00000,
,,,-00.000048200000,  -5.00000,
,,,-00.000048160000,  -5.20000,
,,,-00.000048120000,  -5.00000,
,,,-00.000048080000,  -5.00000,
,,,-00.000048040000,  -5.00000,
,,,-00.000048000000,  -5.00000,
,,,-00.000047960000,  -5.00000,
,,,-00.000047920000,  -5.00000,
,,,-00.000047880000,  -5.00000,
,,,-00.000047840000,  -5.20000,
,,,-00.000047800000,  -5.00000,
,,,-00.000047760000,  -5.20000,
,,,-00.000047720000,  -5.20000,
,,,-00.000047680000,  -5.20000,
,,,-00.000047640000,  -5.40000,
,,,-00.000047600000,  -5.20000,
,,,-00.000047560000,  -5.20000,
,,,-00.000047520000,  -5.40000,
,,,-00.000047480000,  -5.20000,
,,,-00.000047440000,  -5.40000,
,,,-00.000047400000,  -5.20000,
,,,-00.000047360000,  -5.40000,
,,,-00.000047320000,  -5.40000,
,,,-00.000047280000,  -5.40000,
,,,-00.000047240000,  -5.40000,
,,,-00.000047200000,  -5.40000,
,,,-00.000047160000,  -5.40000,
,,,-00.000047120000,  -5.40000,
,,,-00.000047080000,  -5.40000,
,,,-00.000047040000,  -5.40000,
,,,-00.000047000000,  -5.40000,
,,,-00.000046960000,  -5.40000,
,,,-00.000046920000,  -5.40000,
,,,-00.000046880000,  -5.40000,
,,,-00.000046840000,  -5.80000,
,,,-00.000046800000,  -5.60000,
,,,-00.000046760000,  -5.60000,
,,,-00.000046720000,  -5.40000,
,,,-00.000046680000,  -5.80000,
,,,-00.000046640000,  -5.60000,
,,,-00.000046600000,  -5.60000,
,,,-00.000046560000,  -5.80000,
,,,-00.000046520000,  -5.60000,
,,,-00.000046480000,  -5.80000,
,,,-00.000046440000,  -5.80000,
,,,-00.000046400000,  -5.80000,
,,,-00.000046360000,  -5.80000,
,,,-00.000046320000,  -5.80000,
,,,-00.000046280000,  -5.80000,
,,,-00.000046240000,  -5.80000,
,,,-00.000046200000,  -5.80000,
,,,-00.000046160000,  -5.80000,
,,,-00.000046120000,  -6.00000,
,,,-00.000046080000,  -5.80000,
,,,-00.000046040000,  -5.80000,
,,,-00.000046000000,  -6.00000,
,,,-00.000045960000,  -5.80000,
,,,-00.000045920000,  -5.80000,
,,,-00.000045880000,  -5.80000,
,,,-00.000045840000,  -5.80000,
,,,-00.000045800000,  -5.80000,
,,,-00.000045760000,  -6.00000,
,,,-00.000045720000,  -6.20000,
,,,-00.000045680000,  -6.00000,
,,,-00.000045640000,  -6.00000,
,,,-00.000045600000,  -5.80000,
,,,-00.000045560000,  -6.00000,
,,,-00.000045520000,  -6.00000,
,,,-00.000045480000,  -6.00000,
,,,-00.000045440000,  -6.20000,
,,,-00.000045400000,  -6.20000,
,,,-00.000045360000,  -6.00000,
,,,-00.000045320000,  -6.20000,
,,,-00.000045280000,  -6.20000,
,,,-00.000045240000,  -6.00000,
,,,-00.000045200000,  -6.20000,
,,,-00.000045160000,  -6.00000,
,,,-00.000045120000,  -6.20000,
,,,-00.000045080000,  -6.20000,
,,,-00.000045040000,  -6.20000,
,,,-00.000045000000,  -6.20000,
,,,-00.000044960000,  -6.20000,
,,,-00.000044920000,  -6.20000,
,,,-00.000044880000,  -6.20000,
,,,-00.000044840000,  -6.20000,
,,,-00.000044800000,  -6.20000,
,,,-00.000044760000,  -6.20000,
,,,-00.000044720000,  -6.40000,
,,,-00.000044680000,  -6.40000,
,,,-00.000044640000,  -6.40000,
,,,-00.000044600000,  -6.20000,
,,,-00.000044560000,  -6.20000,
,,,-00.000044520000,  -6.40000,
,,,-00.000044480000,  -6.40000,
,,,-00.000044440000,  -6.60000,
,,,-00.000044400000,  -6.60000,
,,,-00.000044360000,  -6.40000,
,,,-00.000044320000,  -6.40000,
,,,-00.000044280000,  -6.40000,
,,,-00.000044240000,  -6.40000,
,,,-00.000044200000,  -6.60000,
,,,-00.000044160000,  -6.40000,
,,,-00.000044120000,  -6.60000,
,,,-00.000044080000,  -6.60000,
,,,-00.000044040000,  -6.40000,
,,,-00.000044000000,  -6.60000,
,,,-00.000043960000,  -6.60000,
,,,-00.000043920000,  -6.60000,
,,,-00.000043880000,  -6.60000,
,,,-00.000043840000,  -6.60000,
,,,-00.000043800000,  -6.60000,
,,,-00.000043760000,  -6.60000,
,,,-00.000043720000,  -6.60000,
,,,-00.000043680000,  -6.60000,
,,,-00.000043640000,  -6.60000,
,,,-00.000043600000,  -6.60000,
,,,-00.000043560000,  -6.60000,
,,,-00.000043520000,  -6.60000,
,,,-00.000043480000,  -6.80000,
,,,-00.000043440000,  -6.60000,
,,,-00.000043400000,  -6.80000,
,,,-00.000043360000,  -6.80000,
,,,-00.000043320000,  -6.80000,
,,,-00.000043280000,  -6.80000,
,,,-00.000043240000,  -7.00000,
,,,-00.000043200000,  -6.80000,
,,,-00.000043160000,  -7.00000,
,,,-00.000043120000,  -6.80000,
,,,-00.000043080000,  -6.80000,
,,,-00.000043040000,  -7.00000,
,,,-00.000043000000,  -7.00000,
,,,-00.000042960000,  -6.80000,
,,,-00.000042920000,  -7.00000,
,,,-00.000042880000,  -7.00000,
,,,-00.000042840000,  -7.00000,
,,,-00.000042800000,  -6.80000,
,,,-00.000042760000,  -7.00000,
,,,-00.000042720000,  -7.00000,
,,,-00.000042680000,  -7.00000,
,,,-00.000042640000,  -7.00000,
,,,-00.000042600000,  -7.00000,
,,,-00.000042560000,  -7.00000,
,,,-00.000042520000,  -7.00000,
,,,-00.000042480000,  -7.00000,
,,,-00.000042440000,  -7.00000,
,,,-00.000042400000,  -7.00000,
,,,-00.000042360000,  -7.20000,
,,,-00.000042320000,  -7.00000,
,,,-00.000042280000,  -7.00000,
,,,-00.000042240000,  -6.80000,
,,,-00.000042200000,  -7.00000,
,,,-00.000042160000,  -7.40000,
,,,-00.000042120000,  -7.20000,
,,,-00.000042080000,  -7.00000,
,,,-00.000042040000,  -7.20000,
,,,-00.000042000000,  -7.20000,
,,,-00.000041960000,  -7.20000,
,,,-00.000041920000,  -7.20000,
,,,-00.000041880000,  -7.20000,
,,,-00.000041840000,  -7.20000,
,,,-00.000041800000,  -7.40000,
,,,-00.000041760000,  -7.20000,
,,,-00.000041720000,  -7.40000,
,,,-00.000041680000,  -7.20000,
,,,-00.000041640000,  -7.40000,
,,,-00.000041600000,  -7.40000,
,,,-00.000041560000,  -7.40000,
,,,-00.000041520000,  -7.40000,
,,,-00.000041480000,  -7.40000,
,,,-00.000041440000,  -7.40000,
,,,-00.000041400000,  -7.40000,
,,,-00.000041360000,  -7.40000,
,,,-00.000041320000,  -7.40000,
,,,-00.000041280000,  -7.40000,
,,,-00.000041240000,  -7.40000,
,,,-00.000041200000,  -7.40000,
,,,-00.000041160000,  -7.40000,
,,,-00.000041120000,  -7.40000,
,,,-00.000041080000,  -7.40000,
,,,-00.000041040000,  -7.40000,
,,,-00.000041000000,  -7.60000,
,,,-00.000040960000,  -7.60000,
,,,-00.000040920000,  -7.40000,
,,,-00.000040880000,  -7.60000,
,,,-00.000040840000,  -7.40000,
,,,-00.000040800000,  -7.60000,
,,,-00.000040760000,  -7.60000,
,,,-00.000040720000,  -7.60000,
,,,-00.000040680000,  -7.60000,
,,,-00.000040640000,  -7.60000,
,,,-00.000040600000,  -7.60000,
,,,-00.000040560000,  -7.60000,
,,,-00.000040520000,  -7.80000,
,,,-00.000040480000,  -7.80000,
,,,-00.000040440000,  -7.60000,
,,,-00.000040400000,  -7.60000,
,,,-00.000040360000,  -7.60000,
,,,-00.000040320000,  -7.60000,
,,,-00.000040280000,  -7.80000,
,,,-00.000040240000,  -7.80000,
,,,-00.000040200000,  -7.80000,
,,,-00.000040160000,  -7.60000,
,,,-00.000040120000,  -7.60000,
,,,-00.000040080000,  -7.60000,
,,,-00.000040040000,  -7.80000,
,,,-00.000040000000,  -7.60000,
,,,-00.000039960000,  -7.80000,
,,,-00.000039920000,  -7.80000,
,,,-00.000039880000,  -7.80000,
,,,-00.000039840000,  -7.60000,
,,,-00.000039800000,  -7.80000,
,,,-00.000039760000,  -7.80000,
,,,-00.000039720000,  -7.80000,
,,,-00.000039680000,  -7.80000,
,,,-00.000039640000,  -7.80000,
,,,-00.000039600000,  -7.80000,
,,,-00.000039560000,  -7.80000,
,,,-00.000039520000,  -7.80000,
,,,-00.000039480000,  -7.80000,
,,,-00.000039440000,  -7.80000,
,,,-00.000039400000,  -7.80000,
,,,-00.000039360000,  -7.80000,
,,,-00.000039320000,  -7.80000,
,,,-00.000039280000,  -7.80000,
,,,-00.000039240000,  -7.80000,
,,,-00.000039200000,  -7.80000,
,,,-00.000039160000,  -8.00000,
,,,-00.000039120000,  -8.00000,
,,,-00.000039080000,  -7.80000,
,,,-00.000039040000,  -7.80000,
,,,-00.000039000000,  -7.80000,
,,,-00.000038960000,  -8.00000,
,,,-00.000038920000,  -8.00000,
,,,-00.000038880000,  -8.00000,
,,,-00.000038840000,  -7.80000,
,,,-00.000038800000,  -8.00000,
,,,-00.000038760000,  -8.00000,
,,,-00.000038720000,  -8.20000,
,,,-00.000038680000,  -8.20000,
,,,-00.000038640000,  -8.20000,
,,,-00.000038600000,  -8.00000,
,,,-00.000038560000,  -8.00000,
,,,-00.000038520000,  -8.00000,
,,,-00.000038480000,  -8.20000,
,,,-00.000038440000,  -8.20000,
,,,-00.000038400000,  -8.20000,
,,,-00.000038360000,  -8.20000,
,,,-00.000038320000,  -8.20000,
,,,-00.000038280000,  -8.20000,
,,,-00.000038240000,  -8.00000,
,,,-00.000038200000,  -8.20000,
,,,-00.000038160000,  -8.20000,
,,,-00.000038120000,  -8.00000,
,,,-00.000038080000,  -8.40000,
,,,-00.000038040000,  -8.00000,
,,,-00.000038000000,  -8.20000,
,,,-00.000037960000,  -8.20000,
,,,-00.000037920000,  -8.20000,
,,,-00.000037880000,  -8.20000,
,,,-00.000037840000,  -8.20000,
,,,-00.000037800000,  -8.20000,
,,,-00.000037760000,  -8.40000,
,,,-00.000037720000,  -8.20000,
,,,-00.000037680000,  -8.20000,
,,,-00.000037640000,  -8.20000,
,,,-00.000037600000,  -8.20000,
,,,-00.000037560000,  -8.40000,
,,,-00.000037520000,  -8.40000,
,,,-00.000037480000,  -8.20000,
,,,-00.000037440000,  -8.20000,
,,,-00.000037400000,  -8.20000,
,,,-00.000037360000,  -8.20000,
,,,-00.000037320000,  -8.20000,
,,,-00.000037280000,  -8.20000,
,,,-00.000037240000,  -8.40000,
,,,-00.000037200000,  -8.20000,
,,,-00.000037160000,  -8.40000,
,,,-00.000037120000,  -8.20000,
,,,-00.000037080000,  -8.40000,
,,,-00.000037040000,  -8.60000,
,,,-00.000037000000,  -8.40000,
,,,-00.000036960000,  -8.60000,
,,,-00.000036920000,  -8.40000,
,,,-00.000036880000,  -8.40000,
,,,-00.000036840000,  -8.40000,
,,,-00.000036800000,  -8.40000,
,,,-00.000036760000,  -8.40000,
,,,-00.000036720000,  -8.40000,
,,,-00.000036680000,  -8.40000,
,,,-00.000036640000,  -8.40000,
,,,-00.000036600000,  -8.40000,
,,,-00.000036560000,  -8.40000,
,,,-00.000036520000,  -8.60000,
,,,-00.000036480000,  -8.40000,
,,,-00.000036440000,  -8.40000,
,,,-00.000036400000,  -8.40000,
,,,-00.000036360000,  -8.20000,
,,,-00.000036320000,  -8.60000,
,,,-00.000036280000,  -8.40000,
,,,-00.000036240000,  -8.40000,
,,,-00.000036200000,  -8.60000,
,,,-00.000036160000,  -8.60000,
,,,-00.000036120000,  -8.60000,
,,,-00.000036080000,  -8.60000,
,,,-00.000036040000,  -8.60000,
,,,-00.000036000000,  -8.40000,
,,,-00.000035960000,  -8.60000,
,,,-00.000035920000,  -8.60000,
,,,-00.000035880000,  -8.40000,
,,,-00.000035840000,  -8.60000,
,,,-00.000035800000,  -8.60000,
,,,-00.000035760000,  -8.60000,
,,,-00.000035720000,  -8.60000,
,,,-00.000035680000,  -8.60000,
,,,-00.000035640000,  -8.60000,
,,,-00.000035600000,  -8.40000,
,,,-00.000035560000,  -8.60000,
,,,-00.000035520000,  -8.60000,
,,,-00.000035480000,  -8.60000,
,,,-00.000035440000,  -8.60000,
,,,-00.000035400000,  -8.60000,
,,,-00.000035360000,  -8.60000,
,,,-00.000035320000,  -8.60000,
,,,-00.000035280000,  -8.60000,
,,,-00.000035240000,  -8.60000,
,,,-00.000035200000,  -8.60000,
,,,-00.000035160000,  -8.60000,
,,,-00.000035120000,  -8.60000,
,,,-00.000035080000,  -8.60000,
,,,-00.000035040000,  -8.60000,
,,,-00.000035000000,  -8.60000,
,,,-00.000034960000,  -8.60000,
,,,-00.000034920000,  -8.80000,
,,,-00.000034880000,  -8.60000,
,,,-00.000034840000,  -8.60000,
,,,-00.000034800000,  -8.80000,
,,,-00.000034760000,  -8.60000,
,,,-00.000034720000,  -8.60000,
,,,-00.000034680000,  -8.80000,
,,,-00.000034640000,  -8.60000,
,,,-00.000034600000,  -8.60000,
,,,-00.000034560000,  -8.60000,
,,,-00.000034520000,  -8.60000,
,,,-00.000034480000,  -8.60000,
,,,-00.000034440000,  -8.80000,
,,,-00.000034400000,  -8.80000,
,,,-00.000034360000,  -8.80000,
,,,-00.000034320000,  -8.60000,
,,,-00.000034280000,  -8.60000,
,,,-00.000034240000,  -8.80000,
,,,-00.000034200000,  -8.60000,
,,,-00.000034160000,  -8.60000,
,,,-00.000034120000,  -8.80000,
,,,-00.000034080000,  -8.60000,
,,,-00.000034040000,  -8.80000,
,,,-00.000034000000,  -8.60000,
,,,-00.000033960000,  -8.60000,
,,,-00.000033920000,  -8.80000,
,,,-00.000033880000,  -8.80000,
,,,-00.000033840000,  -8.60000,
,,,-00.000033800000,  -8.80000,
,,,-00.000033760000,  -8.60000,
,,,-00.000033720000,  -8.80000,
,,,-00.000033680000,  -8.80000,
,,,-00.000033640000,  -8.80000,
,,,-00.000033600000,  -8.80000,
,,,-00.000033560000,  -8.80000,
,,,-00.000033520000,  -8.80000,
,,,-00.000033480000,  -8.80000,
,,,-00.000033440000,  -8.80000,
,,,-00.000033400000,  -8.60000,
,,,-00.000033360000,  -8.80000,
,,,-00.000033320000,  -8.80000,
,,,-00.000033280000,  -8.80000,
,,,-00.000033240000,  -8.80000,
,,,-00.000033200000,  -8.80000,
,,,-00.000033160000,  -8.80000,
,,,-00.000033120000,  -8.80000,
,,,-00.000033080000,  -8.80000,
,,,-00.000033040000,  -9.00000,
,,,-00.000033000000,  -8.80000,
,,,-00.000032960000,  -8.80000,
,,,-00.000032920000,  -8.80000,
,,,-00.000032880000,  -9.00000,
,,,-00.000032840000,  -8.80000,
,,,-00.000032800000,  -8.80000,
,,,-00.000032760000,  -8.80000,
,,,-00.000032720000,  -8.60000,
,,,-00.000032680000,  -8.80000,
,,,-00.000032640000,  -8.80000,
,,,-00.000032600000,  -8.80000,
,,,-00.000032560000,  -9.00000,
,,,-00.000032520000,  -8.80000,
,,,-00.000032480000,  -8.80000,
,,,-00.000032440000,  -8.80000,
,,,-00.000032400000,  -8.80000,
,,,-00.000032360000,  -9.00000,
,,,-00.000032320000,  -9.00000,
,,,-00.000032280000,  -8.80000,
,,,-00.000032240000,  -8.80000,
,,,-00.000032200000,  -8.80000,
,,,-00.000032160000,  -8.80000,
,,,-00.000032120000,  -8.80000,
,,,-00.000032080000,  -8.60000,
,,,-00.000032040000,  -8.80000,
,,,-00.000032000000,  -8.80000,
,,,-00.000031960000,  -9.00000,
,,,-00.000031920000,  -8.80000,
,,,-00.000031880000,  -8.80000,
,,,-00.000031840000,  -9.00000,
,,,-00.000031800000,  -9.00000,
,,,-00.000031760000,  -9.00000,
,,,-00.000031720000,  -9.00000,
,,,-00.000031680000,  -9.00000,
,,,-00.000031640000,  -9.00000,
,,,-00.000031600000,  -8.80000,
,,,-00.000031560000,  -8.80000,
,,,-00.000031520000,  -9.00000,
,,,-00.000031480000,  -8.80000,
,,,-00.000031440000,  -9.00000,
,,,-00.000031400000,  -8.80000,
,,,-00.000031360000,  -8.80000,
,,,-00.000031320000,  -8.80000,
,,,-00.000031280000,  -8.80000,
,,,-00.000031240000,  -9.00000,
,,,-00.000031200000,  -8.80000,
,,,-00.000031160000,  -8.80000,
,,,-00.000031120000,  -8.80000,
,,,-00.000031080000,  -9.00000,
,,,-00.000031040000,  -9.00000,
,,,-00.000031000000,  -9.00000,
,,,-00.000030960000,  -9.00000,
,,,-00.000030920000,  -8.80000,
,,,-00.000030880000,  -8.80000,
,,,-00.000030840000,  -9.00000,
,,,-00.000030800000,  -8.80000,
,,,-00.000030760000,  -9.00000,
,,,-00.000030720000,  -9.00000,
,,,-00.000030680000,  -9.00000,
,,,-00.000030640000,  -9.00000,
,,,-00.000030600000,  -8.80000,
,,,-00.000030560000,  -8.80000,
,,,-00.000030520000,  -9.00000,
,,,-00.000030480000,  -8.80000,
,,,-00.000030440000,  -8.80000,
,,,-00.000030400000,  -9.00000,
,,,-00.000030360000,  -8.80000,
,,,-00.000030320000,  -8.80000,
,,,-00.000030280000,  -9.00000,
,,,-00.000030240000,  -9.00000,
,,,-00.000030200000,  -8.80000,
,,,-00.000030160000,  -9.00000,
,,,-00.000030120000,  -8.80000,
,,,-00.000030080000,  -8.80000,
,,,-00.000030040000,  -8.80000,
,,,-00.000030000000,  -8.80000,
,,,-00.000029960000,  -9.00000,
,,,-00.000029920000,  -8.80000,
,,,-00.000029880000,  -8.80000,
,,,-00.000029840000,  -9.00000,
,,,-00.000029800000,  -8.80000,
,,,-00.000029760000,  -8.80000,
,,,-00.000029720000,  -9.00000,
,,,-00.000029680000,  -9.00000,
,,,-00.000029640000,  -9.00000,
,,,-00.000029600000,  -9.00000,
,,,-00.000029560000,  -9.00000,
,,,-00.000029520000,  -8.80000,
,,,-00.000029480000,  -8.80000,
,,,-00.000029440000,  -8.80000,
,,,-00.000029400000,  -8.80000,
,,,-00.000029360000,  -8.80000,
,,,-00.000029320000,  -8.80000,
,,,-00.000029280000,  -8.80000,
,,,-00.000029240000,  -8.80000,
,,,-00.000029200000,  -9.00000,
,,,-00.000029160000,  -8.80000,
,,,-00.000029120000,  -8.80000,
,,,-00.000029080000,  -8.80000,
,,,-00.000029040000,  -9.00000,
,,,-00.000029000000,  -8.80000,
,,,-00.000028960000,  -8.80000,
,,,-00.000028920000,  -9.00000,
,,,-00.000028880000,  -8.80000,
,,,-00.000028840000,  -8.80000,
,,,-00.000028800000,  -8.80000,
,,,-00.000028760000,  -8.80000,
,,,-00.000028720000,  -8.80000,
,,,-00.000028680000,  -8.60000,
,,,-00.000028640000,  -8.80000,
,,,-00.000028600000,  -8.80000,
,,,-00.000028560000,  -8.80000,
,,,-00.000028520000,  -8.80000,
,,,-00.000028480000,  -8.80000,
,,,-00.000028440000,  -8.80000,
,,,-00.000028400000,  -8.80000,
,,,-00.000028360000,  -8.80000,
,,,-00.000028320000,  -8.80000,
,,,-00.000028280000,  -8.60000,
,,,-00.000028240000,  -8.80000,
,,,-00.000028200000,  -8.80000,
,,,-00.000028160000,  -8.80000,
,,,-00.000028120000,  -8.80000,
,,,-00.000028080000,  -8.80000,
,,,-00.000028040000,  -8.80000,
,,,-00.000028000000,  -8.80000,
,,,-00.000027960000,  -8.60000,
,,,-00.000027920000,  -8.80000,
,,,-00.000027880000,  -8.60000,
,,,-00.000027840000,  -8.80000,
,,,-00.000027800000,  -8.80000,
,,,-00.000027760000,  -8.80000,
,,,-00.000027720000,  -8.80000,
,,,-00.000027680000,  -8.60000,
,,,-00.000027640000,  -8.80000,
,,,-00.000027600000,  -8.80000,
,,,-00.000027560000,  -8.60000,
,,,-00.000027520000,  -8.80000,
,,,-00.000027480000,  -8.80000,
,,,-00.000027440000,  -8.60000,
,,,-00.000027400000,  -8.60000,
,,,-00.000027360000,  -8.60000,
,,,-00.000027320000,  -8.60000,
,,,-00.000027280000,  -8.60000,
,,,-00.000027240000,  -8.80000,
,,,-00.000027200000,  -8.60000,
,,,-00.000027160000,  -8.60000,
,,,-00.000027120000,  -8.60000,
,,,-00.000027080000,  -8.60000,
,,,-00.000027040000,  -8.80000,
,,,-00.000027000000,  -8.60000,
,,,-00.000026960000,  -8.60000,
,,,-00.000026920000,  -8.60000,
,,,-00.000026880000,  -8.60000,
,,,-00.000026840000,  -8.60000,
,,,-00.000026800000,  -8.60000,
,,,-00.000026760000,  -8.60000,
,,,-00.000026720000,  -8.60000,
,,,-00.000026680000,  -8.60000,
,,,-00.000026640000,  -8.60000,
,,,-00.000026600000,  -8.60000,
,,,-00.000026560000,  -8.60000,
,,,-00.000026520000,  -8.60000,
,,,-00.000026480000,  -8.60000,
,,,-00.000026440000,  -8.60000,
,,,-00.000026400000,  -8.60000,
,,,-00.000026360000,  -8.40000,
,,,-00.000026320000,  -8.60000,
,,,-00.000026280000,  -8.60000,
,,,-00.000026240000,  -8.40000,
,,,-00.000026200000,  -8.60000,
,,,-00.000026160000,  -8.60000,
,,,-00.000026120000,  -8.60000,
,,,-00.000026080000,  -8.60000,
,,,-00.000026040000,  -8.60000,
,,,-00.000026000000,  -8.60000,
,,,-00.000025960000,  -8.60000,
,,,-00.000025920000,  -8.60000,
,,,-00.000025880000,  -8.60000,
,,,-00.000025840000,  -8.60000,
,,,-00.000025800000,  -8.60000,
,,,-00.000025760000,  -8.60000,
,,,-00.000025720000,  -8.40000,
,,,-00.000025680000,  -8.60000,
,,,-00.000025640000,  -8.60000,
,,,-00.000025600000,  -8.60000,
,,,-00.000025560000,  -8.40000,
,,,-00.000025520000,  -8.40000,
,,,-00.000025480000,  -8.60000,
