Circuiti_3/data.new/RLC_C/ALL0005/F0005CH1.CSV

Record Length,2.500000e+03,,  -0.000220000000,   4.56000,
Sample Interval,2.000000e-07,,  -0.000219800000,   4.48000,
Trigger Point,1.100000000000e+03,,  -0.000219600000,   4.56000,
,,,  -0.000219400000,   4.40000,
,,,  -0.000219200000,   4.56000,
,,,  -0.000219000000,   4.48000,
Source,CH1,,  -0.000218800000,   4.48000,
Vertical Units,V,,  -0.000218600000,   4.40000,
Vertical Scale,2.000000e+00,,  -0.000218400000,   4.48000,
Vertical Offset,-2.400000e-01,,  -0.000218200000,   4.40000,
Horizontal Units,s,,  -0.000218000000,   4.48000,
Horizontal Scale,5.000000e-05,,  -0.000217800000,   4.48000,
Pt Fmt,Y,,  -0.000217600000,   4.48000,
Yzero,0.000000e+00,,  -0.000217400000,   4.48000,
Probe Atten,1.000000e+01,,  -0.000217200000,   4.48000,
Model Number,TDS2012C,,  -0.000217000000,   4.48000,
Serial Number,C050125,,  -0.000216800000,   4.48000,
Firmware Version,FV:v24.26,,  -0.000216600000,   4.40000,
,,,-00.000216400000,   4.48000,
,,,-00.000216200000,   4.40000,
,,,-00.000216000000,   4.40000,
,,,-00.000215800000,   4.32000,
,,,-00.000215600000,   4.40000,
,,,-00.000215400000,   4.40000,
,,,-00.000215200000,   4.40000,
,,,-00.000215000000,   4.32000,
,,,-00.000214800000,   4.40000,
,,,-00.000214600000,   4.32000,
,,,-00.000214400000,   4.24000,
,,,-00.000214200000,   4.24000,
,,,-00.000214000000,   4.32000,
,,,-00.000213800000,   4.24000,
,,,-00.000213600000,   4.32000,
,,,-00.000213400000,   4.32000,
,,,-00.000213200000,   4.32000,
,,,-00.000213000000,   4.24000,
,,,-00.000212800000,   4.08000,
,,,-00.000212600000,   4.24000,
,,,-00.000212400000,   4.24000,
,,,-00.000212200000,   4.24000,
,,,-00.000212000000,   4.16000,
,,,-00.000211800000,   4.24000,
,,,-00.000211600000,   4.24000,
,,,-00.000211400000,   4.16000,
,,,-00.000211200000,   4.08000,
,,,-00.000211000000,   4.16000,
,,,-00.000210800000,   4.16000,
,,,-00.000210600000,   4.08000,
,,,-00.000210400000,   4.16000,
,,,-00.000210200000,   4.16000,
,,,-00.000210000000,   4.08000,
,,,-00.000209800000,   4.16000,
,,,-00.000209600000,   4.16000,
,,,-00.000209400000,   3.92000,
,,,-00.000209200000,   4.08000,
,,,-00.000209000000,   4.16000,
,,,-00.000208800000,   4.00000,
,,,-00.000208600000,   4.00000,
,,,-00.000208400000,   4.08000,
,,,-00.000208200000,   4.00000,
,,,-00.000208000000,   4.08000,
,,,-00.000207800000,   3.92000,
,,,-00.000207600000,   4.00000,
,,,-00.000207400000,   4.00000,
,,,-00.000207200000,   4.00000,
,,,-00.000207000000,   3.92000,
,,,-00.000206800000,   3.92000,
,,,-00.000206600000,   3.92000,
,,,-00.000206400000,   4.00000,
,,,-00.000206200000,   3.92000,
,,,-00.000206000000,   3.84000,
,,,-00.000205800000,   3.84000,
,,,-00.000205600000,   3.84000,
,,,-00.000205400000,   3.84000,
,,,-00.000205200000,   3.92000,
,,,-00.000205000000,   3.84000,
,,,-00.000204800000,   3.92000,
,,,-00.000204600000,   3.68000,
,,,-00.000204400000,   3.76000,
,,,-00.000204200000,   3.84000,
,,,-00.000204000000,   3.76000,
,,,-00.000203800000,   3.68000,
,,,-00.000203600000,   3.68000,
,,,-00.000203400000,   3.76000,
,,,-00.000203200000,   3.76000,
,,,-00.000203000000,   3.76000,
,,,-00.000202800000,   3.68000,
,,,-00.000202600000,   3.68000,
,,,-00.000202400000,   3.76000,
,,,-00.000202200000,   3.68000,
,,,-00.000202000000,   3.68000,
,,,-00.000201800000,   3.68000,
,,,-00.000201600000,   3.60000,
,,,-00.000201400000,   3.68000,
,,,-00.000201200000,   3.60000,
,,,-00.000201000000,   3.60000,
,,,-00.000200800000,   3.68000,
,,,-00.000200600000,   3.60000,
,,,-00.000200400000,   3.52000,
,,,-00.000200200000,   3.44000,
,,,-00.000200000000,   3.52000,
,,,-00.000199800000,   3.52000,
,,,-00.000199600000,   3.52000,
,,,-00.000199400000,   3.52000,
,,,-00.000199200000,   3.44000,
,,,-00.000199000000,   3.52000,
,,,-00.000198800000,   3.52000,
,,,-00.000198600000,   3.36000,
,,,-00.000198400000,   3.36000,
,,,-00.000198200000,   3.44000,
,,,-00.000198000000,   3.44000,
,,,-00.000197800000,   3.44000,
,,,-00.000197600000,   3.36000,
,,,-00.000197400000,   3.36000,
,,,-00.000197200000,   3.36000,
,,,-00.000197000000,   3.36000,
,,,-00.000196800000,   3.36000,
,,,-00.000196600000,   3.36000,
,,,-00.000196400000,   3.20000,
,,,-00.000196200000,   3.20000,
,,,-00.000196000000,   3.28000,
,,,-00.000195800000,   3.28000,
,,,-00.000195600000,   3.20000,
,,,-00.000195400000,   3.28000,
,,,-00.000195200000,   3.20000,
,,,-00.000195000000,   3.20000,
,,,-00.000194800000,   3.20000,
,,,-00.000194600000,   3.12000,
,,,-00.000194400000,   3.12000,
,,,-00.000194200000,   3.04000,
,,,-00.000194000000,   3.12000,
,,,-00.000193800000,   3.12000,
,,,-00.000193600000,   3.04000,
,,,-00.000193400000,   3.04000,
,,,-00.000193200000,   3.12000,
,,,-00.000193000000,   3.04000,
,,,-00.000192800000,   3.04000,
,,,-00.000192600000,   3.04000,
,,,-00.000192400000,   3.04000,
,,,-00.000192200000,   2.96000,
,,,-00.000192000000,   2.96000,
,,,-00.000191800000,   2.96000,
,,,-00.000191600000,   2.96000,
,,,-00.000191400000,   2.88000,
,,,-00.000191200000,   2.96000,
,,,-00.000191000000,   2.96000,
,,,-00.000190800000,   2.88000,
,,,-00.000190600000,   2.96000,
,,,-00.000190400000,   2.88000,
,,,-00.000190200000,   2.88000,
,,,-00.000190000000,   2.88000,
,,,-00.000189800000,   2.88000,
,,,-00.000189600000,   2.72000,
,,,-00.000189400000,   2.72000,
,,,-00.000189200000,   2.88000,
,,,-00.000189000000,   2.80000,
,,,-00.000188800000,   2.80000,
,,,-00.000188600000,   2.72000,
,,,-00.000188400000,   2.64000,
,,,-00.000188200000,   2.72000,
,,,-00.000188000000,   2.56000,
,,,-00.000187800000,   2.64000,
,,,-00.000187600000,   2.72000,
,,,-00.000187400000,   2.56000,
,,,-00.000187200000,   2.64000,
,,,-00.000187000000,   2.64000,
,,,-00.000186800000,   2.64000,
,,,-00.000186600000,   2.64000,
,,,-00.000186400000,   2.48000,
,,,-00.000186200000,   2.48000,
,,,-00.000186000000,   2.48000,
,,,-00.000185800000,   2.48000,
,,,-00.000185600000,   2.48000,
,,,-00.000185400000,   2.48000,
,,,-00.000185200000,   2.40000,
,,,-00.000185000000,   2.40000,
,,,-00.000184800000,   2.48000,
,,,-00.000184600000,   2.40000,
,,,-00.000184400000,   2.40000,
,,,-00.000184200000,   2.40000,
,,,-00.000184000000,   2.32000,
,,,-00.000183800000,   2.40000,
,,,-00.000183600000,   2.32000,
,,,-00.000183400000,   2.40000,
,,,-00.000183200000,   2.32000,
,,,-00.000183000000,   2.32000,
,,,-00.000182800000,   2.24000,
,,,-00.000182600000,   2.16000,
,,,-00.000182400000,   2.32000,
,,,-00.000182200000,   2.24000,
,,,-00.000182000000,   2.16000,
,,,-00.000181800000,   2.16000,
,,,-00.000181600000,   2.08000,
,,,-00.000181400000,   2.08000,
,,,-00.000181200000,   2.08000,
,,,-00.000181000000,   2.08000,
,,,-00.000180800000,   2.16000,
,,,-00.000180600000,   2.08000,
,,,-00.000180400000,   2.00000,
,,,-00.000180200000,   2.00000,
,,,-00.000180000000,   2.00000,
,,,-00.000179800000,   2.00000,
,,,-00.000179600000,   2.08000,
,,,-00.000179400000,   2.00000,
,,,-00.000179200000,   2.00000,
,,,-00.000179000000,   1.92000,
,,,-00.000178800000,   1.92000,
,,,-00.000178600000,   1.92000,
,,,-00.000178400000,   2.00000,
,,,-00.000178200000,   1.84000,
,,,-00.000178000000,   1.92000,
,,,-00.000177800000,   1.84000,
,,,-00.000177600000,   1.76000,
,,,-00.000177400000,   1.84000,
,,,-00.000177200000,   1.76000,
,,,-00.000177000000,   1.76000,
,,,-00.000176800000,   1.76000,
,,,-00.000176600000,   1.76000,
,,,-00.000176400000,   1.60000,
,,,-00.000176200000,   1.68000,
,,,-00.000176000000,   1.76000,
,,,-00.000175800000,   1.60000,
,,,-00.000175600000,   1.68000,
,,,-00.000175400000,   1.60000,
,,,-00.000175200000,   1.68000,
,,,-00.000175000000,   1.68000,
,,,-00.000174800000,   1.60000,
,,,-00.000174600000,   1.60000,
,,,-00.000174400000,   1.52000,
,,,-00.000174200000,   1.60000,
,,,-00.000174000000,   1.52000,
,,,-00.000173800000,   1.44000,
,,,-00.000173600000,   1.52000,
,,,-00.000173400000,   1.44000,
,,,-00.000173200000,   1.36000,
,,,-00.000173000000,   1.52000,
,,,-00.000172800000,   1.44000,
,,,-00.000172600000,   1.44000,
,,,-00.000172400000,   1.36000,
,,,-00.000172200000,   1.36000,
,,,-00.000172000000,   1.28000,
,,,-00.000171800000,   1.36000,
,,,-00.000171600000,   1.28000,
,,,-00.000171400000,   1.20000,
,,,-00.000171200000,   1.28000,
,,,-00.000171000000,   1.28000,
,,,-00.000170800000,   1.28000,
,,,-00.000170600000,   1.20000,
,,,-00.000170400000,   1.20000,
,,,-00.000170200000,   1.20000,
,,,-00.000170000000,   1.12000,
,,,-00.000169800000,   1.12000,
,,,-00.000169600000,   1.12000,
,,,-00.000169400000,   1.12000,
,,,-00.000169200000,   1.04000,
,,,-00.000169000000,   1.12000,
,,,-00.000168800000,   1.04000,
,,,-00.000168600000,   1.04000,
,,,-00.000168400000,   1.04000,
,,,-00.000168200000,   1.04000,
,,,-00.000168000000,   1.04000,
,,,-00.000167800000,   0.96000,
,,,-00.000167600000,   1.04000,
,,,-00.000167400000,   0.88000,
,,,-00.000167200000,   0.88000,
,,,-00.000167000000,   0.96000,
,,,-00.000166800000,   0.88000,
,,,-00.000166600000,   0.80000,
,,,-00.000166400000,   0.80000,
,,,-00.000166200000,   0.72000,
,,,-00.000166000000,   0.80000,
,,,-00.000165800000,   0.72000,
,,,-00.000165600000,   0.72000,
,,,-00.000165400000,   0.72000,
,,,-00.000165200000,   0.80000,
,,,-00.000165000000,   0.64000,
,,,-00.000164800000,   0.64000,
,,,-00.000164600000,   0.64000,
,,,-00.000164400000,   0.64000,
,,,-00.000164200000,   0.64000,
,,,-00.000164000000,   0.64000,
,,,-00.000163800000,   0.56000,
,,,-00.000163600000,   0.56000,
,,,-00.000163400000,   0.64000,
,,,-00.000163200000,   0.56000,
,,,-00.000163000000,   0.40000,
,,,-00.000162800000,   0.48000,
,,,-00.000162600000,   0.48000,
,,,-00.000162400000,   0.48000,
,,,-00.000162200000,   0.48000,
,,,-00.000162000000,   0.48000,
,,,-00.000161800000,   0.48000,
,,,-00.000161600000,   0.32000,
,,,-00.000161400000,   0.32000,
,,,-00.000161200000,   0.40000,
,,,-00.000161000000,   0.32000,
,,,-00.000160800000,   0.32000,
,,,-00.000160600000,   0.32000,
,,,-00.000160400000,   0.24000,
,,,-00.000160200000,   0.32000,
,,,-00.000160000000,   0.24000,
,,,-00.000159800000,   0.24000,
,,,-00.000159600000,   0.24000,
,,,-00.000159400000,   0.16000,
,,,-00.000159200000,   0.24000,
,,,-00.000159000000,   0.16000,
,,,-00.000158800000,   0.08000,
,,,-00.000158600000,   0.08000,
,,,-00.000158400000,   0.00000,
,,,-00.000158200000,   0.00000,
,,,-00.000158000000,   0.08000,
,,,-00.000157800000,  -0.08000,
,,,-00.000157600000,   0.08000,
,,,-00.000157400000,   0.00000,
,,,-00.000157200000,   0.08000,
,,,-00.000157000000,  -0.08000,
,,,-00.000156800000,   0.00000,
,,,-00.000156600000,  -0.08000,
,,,-00.000156400000,  -0.16000,
,,,-00.000156200000,  -0.08000,
,,,-00.000156000000,  -0.16000,
,,,-00.000155800000,  -0.16000,
,,,-00.000155600000,  -0.16000,
,,,-00.000155400000,  -0.16000,
,,,-00.000155200000,  -0.16000,
,,,-00.000155000000,  -0.16000,
,,,-00.000154800000,  -0.24000,
,,,-00.000154600000,  -0.32000,
,,,-00.000154400000,  -0.32000,
,,,-00.000154200000,  -0.32000,
,,,-00.000154000000,  -0.32000,
,,,-00.000153800000,  -0.32000,
,,,-00.000153600000,  -0.40000,
,,,-00.000153400000,  -0.48000,
,,,-00.000153200000,  -0.40000,
,,,-00.000153000000,  -0.40000,
,,,-00.000152800000,  -0.32000,
,,,-00.000152600000,  -0.48000,
,,,-00.000152400000,  -0.40000,
,,,-00.000152200000,  -0.48000,
,,,-00.000152000000,  -0.40000,
,,,-00.000151800000,  -0.56000,
,,,-00.000151600000,  -0.56000,
,,,-00.000151400000,  -0.64000,
,,,-00.000151200000,  -0.64000,
,,,-00.000151000000,  -0.64000,
,,,-00.000150800000,  -0.64000,
,,,-00.000150600000,  -0.64000,
,,,-00.000150400000,  -0.56000,
,,,-00.000150200000,  -0.64000,
,,,-00.000150000000,  -0.72000,
,,,-00.000149800000,  -0.72000,
,,,-00.000149600000,  -0.80000,
,,,-00.000149400000,  -0.80000,
,,,-00.000149200000,  -0.72000,
,,,-00.000149000000,  -0.80000,
,,,-00.000148800000,  -0.80000,
,,,-00.000148600000,  -0.72000,
,,,-00.000148400000,  -0.80000,
,,,-00.000148200000,  -0.80000,
,,,-00.000148000000,  -0.80000,
,,,-00.000147800000,  -0.96000,
,,,-00.000147600000,  -0.80000,
,,,-00.000147400000,  -0.88000,
,,,-00.000147200000,  -0.80000,
,,,-00.000147000000,  -0.96000,
,,,-00.000146800000,  -0.96000,
,,,-00.000146600000,  -0.96000,
,,,-00.000146400000,  -1.04000,
,,,-00.000146200000,  -1.04000,
,,,-00.000146000000,  -1.04000,
,,,-00.000145800000,  -1.04000,
,,,-00.000145600000,  -1.04000,
,,,-00.000145400000,  -1.12000,
,,,-00.000145200000,  -1.12000,
,,,-00.000145000000,  -1.04000,
,,,-00.000144800000,  -1.20000,
,,,-00.000144600000,  -1.12000,
,,,-00.000144400000,  -1.20000,
,,,-00.000144200000,  -1.12000,
,,,-00.000144000000,  -1.28000,
,,,-00.000143800000,  -1.28000,
,,,-00.000143600000,  -1.20000,
,,,-00.000143400000,  -1.12000,
,,,-00.000143200000,  -1.28000,
,,,-00.000143000000,  -1.28000,
,,,-00.000142800000,  -1.36000,
,,,-00.000142600000,  -1.28000,
,,,-00.000142400000,  -1.36000,
,,,-00.000142200000,  -1.36000,
,,,-00.000142000000,  -1.36000,
,,,-00.000141800000,  -1.52000,
,,,-00.000141600000,  -1.52000,
,,,-00.000141400000,  -1.44000,
,,,-00.000141200000,  -1.44000,
,,,-00.000141000000,  -1.52000,
,,,-00.000140800000,  -1.44000,
,,,-00.000140600000,  -1.44000,
,,,-00.000140400000,  -1.52000,
,,,-00.000140200000,  -1.52000,
,,,-00.000140000000,  -1.60000,
,,,-00.000139800000,  -1.60000,
,,,-00.000139600000,  -1.60000,
,,,-00.000139400000,  -1.68000,
,,,-00.000139200000,  -1.68000,
,,,-00.000139000000,  -1.60000,
,,,-00.000138800000,  -1.68000,
,,,-00.000138600000,  -1.68000,
,,,-00.000138400000,  -1.76000,
,,,-00.000138200000,  -1.76000,
,,,-00.000138000000,  -1.76000,
,,,-00.000137800000,  -1.68000,
,,,-00.000137600000,  -1.68000,
,,,-00.000137400000,  -1.76000,
,,,-00.000137200000,  -1.76000,
,,,-00.000137000000,  -1.84000,
,,,-00.000136800000,  -1.76000,
,,,-00.000136600000,  -1.84000,
,,,-00.000136400000,  -1.92000,
,,,-00.000136200000,  -1.92000,
,,,-00.000136000000,  -1.92000,
,,,-00.000135800000,  -1.92000,
,,,-00.000135600000,  -1.92000,
,,,-00.000135400000,  -2.00000,
,,,-00.000135200000,  -2.08000,
,,,-00.000135000000,  -1.92000,
,,,-00.000134800000,  -2.00000,
,,,-00.000134600000,  -2.00000,
,,,-00.000134400000,  -2.00000,
,,,-00.000134200000,  -2.08000,
,,,-00.000134000000,  -2.00000,
,,,-00.000133800000,  -2.16000,
,,,-00.000133600000,  -2.08000,
,,,-00.000133400000,  -2.08000,
,,,-00.000133200000,  -2.24000,
,,,-00.000133000000,  -2.16000,
,,,-00.000132800000,  -2.16000,
,,,-00.000132600000,  -2.16000,
,,,-00.000132400000,  -2.16000,
,,,-00.000132200000,  -2.24000,
,,,-00.000132000000,  -2.24000,
,,,-00.000131800000,  -2.24000,
,,,-00.000131600000,  -2.16000,
,,,-00.000131400000,  -2.24000,
,,,-00.000131200000,  -2.32000,
,,,-00.000131000000,  -2.32000,
,,,-00.000130800000,  -2.32000,
,,,-00.000130600000,  -2.32000,
,,,-00.000130400000,  -2.32000,
,,,-00.000130200000,  -2.40000,
,,,-00.000130000000,  -2.40000,
,,,-00.000129800000,  -2.32000,
,,,-00.000129600000,  -2.40000,
,,,-00.000129400000,  -2.40000,
,,,-00.000129200000,  -2.32000,
,,,-00.000129000000,  -2.48000,
,,,-00.000128800000,  -2.48000,
,,,-00.000128600000,  -2.48000,
,,,-00.000128400000,  -2.48000,
,,,-00.000128200000,  -2.48000,
,,,-00.000128000000,  -2.56000,
,,,-00.000127800000,  -2.64000,
,,,-00.000127600000,  -2.56000,
,,,-00.000127400000,  -2.56000,
,,,-00.000127200000,  -2.56000,
,,,-00.000127000000,  -2.56000,
,,,-00.000126800000,  -2.64000,
,,,-00.000126600000,  -2.72000,
,,,-00.000126400000,  -2.64000,
,,,-00.000126200000,  -2.72000,
,,,-00.000126000000,  -2.72000,
,,,-00.000125800000,  -2.64000,
,,,-00.000125600000,  -2.72000,
,,,-00.000125400000,  -2.80000,
,,,-00.000125200000,  -2.72000,
,,,-00.000125000000,  -2.80000,
,,,-00.000124800000,  -2.80000,
,,,-00.000124600000,  -2.80000,
,,,-00.000124400000,  -2.72000,
,,,-00.000124200000,  -2.80000,
,,,-00.000124000000,  -2.80000,
,,,-00.000123800000,  -2.80000,
,,,-00.000123600000,  -2.88000,
,,,-00.000123400000,  -2.88000,
,,,-00.000123200000,  -2.96000,
,,,-00.000123000000,  -2.96000,
,,,-00.000122800000,  -2.96000,
,,,-00.000122600000,  -2.96000,
,,,-00.000122400000,  -2.96000,
,,,-00.000122200000,  -3.04000,
,,,-00.000122000000,  -2.96000,
,,,-00.000121800000,  -3.04000,
,,,-00.000121600000,  -2.96000,
,,,-00.000121400000,  -2.96000,
,,,-00.000121200000,  -3.04000,
,,,-00.000121000000,  -3.12000,
,,,-00.000120800000,  -3.04000,
,,,-00.000120600000,  -3.12000,
,,,-00.000120400000,  -3.12000,
,,,-00.000120200000,  -3.12000,
,,,-00.000120000000,  -3.04000,
,,,-00.000119800000,  -3.20000,
,,,-00.000119600000,  -3.12000,
,,,-00.000119400000,  -3.28000,
,,,-00.000119200000,  -3.20000,
,,,-00.000119000000,  -3.20000,
,,,-00.000118800000,  -3.20000,
,,,-00.000118600000,  -3.20000,
,,,-00.000118400000,  -3.28000,
,,,-00.000118200000,  -3.36000,
,,,-00.000118000000,  -3.12000,
,,,-00.000117800000,  -3.20000,
,,,-00.000117600000,  -3.36000,
,,,-00.000117400000,  -3.28000,
,,,-00.000117200000,  -3.36000,
,,,-00.000117000000,  -3.36000,
,,,-00.000116800000,  -3.36000,
,,,-00.000116600000,  -3.36000,
,,,-00.000116400000,  -3.36000,
,,,-00.000116200000,  -3.44000,
,,,-00.000116000000,  -3.52000,
,,,-00.000115800000,  -3.44000,
,,,-00.000115600000,  -3.36000,
,,,-00.000115400000,  -3.44000,
,,,-00.000115200000,  -3.44000,
,,,-00.000115000000,  -3.44000,
,,,-00.000114800000,  -3.44000,
,,,-00.000114600000,  -3.44000,
,,,-00.000114400000,  -3.52000,
,,,-00.000114200000,  -3.44000,
,,,-00.000114000000,  -3.52000,
,,,-00.000113800000,  -3.60000,
,,,-00.000113600000,  -3.52000,
,,,-00.000113400000,  -3.60000,
,,,-00.000113200000,  -3.60000,
,,,-00.000113000000,  -3.60000,
,,,-00.000112800000,  -3.60000,
,,,-00.000112600000,  -3.68000,
,,,-00.000112400000,  -3.60000,
,,,-00.000112200000,  -3.68000,
,,,-00.000112000000,  -3.60000,
,,,-00.000111800000,  -3.68000,
,,,-00.000111600000,  -3.76000,
,,,-00.000111400000,  -3.68000,
,,,-00.000111200000,  -3.68000,
,,,-00.000111000000,  -3.68000,
,,,-00.000110800000,  -3.84000,
,,,-00.000110600000,  -3.76000,
,,,-00.000110400000,  -3.84000,
,,,-00.000110200000,  -3.76000,
,,,-00.000110000000,  -3.76000,
,,,-00.000109800000,  -3.76000,
,,,-00.000109600000,  -3.76000,
,,,-00.000109400000,  -3.76000,
,,,-00.000109200000,  -3.76000,
,,,-00.000109000000,  -3.76000,
,,,-00.000108800000,  -3.84000,
,,,-00.000108600000,  -3.76000,
,,,-00.000108400000,  -3.84000,
,,,-00.000108200000,  -3.92000,
,,,-00.000108000000,  -3.92000,
,,,-00.000107800000,  -4.00000,
,,,-00.000107600000,  -3.84000,
,,,-00.000107400000,  -3.92000,
,,,-00.000107200000,  -4.00000,
,,,-00.000107000000,  -4.00000,
,,,-00.000106800000,  -4.00000,
,,,-00.000106600000,  -4.00000,
,,,-00.000106400000,  -4.00000,
,,,-00.000106200000,  -4.00000,
,,,-00.000106000000,  -4.00000,
,,,-00.000105800000,  -4.08000,
,,,-00.000105600000,  -4.00000,
,,,-00.000105400000,  -4.08000,
,,,-00.000105200000,  -4.08000,
,,,-00.000105000000,  -4.00000,
,,,-00.000104800000,  -4.00000,
,,,-00.000104600000,  -4.00000,
,,,-00.000104400000,  -4.16000,
,,,-00.000104200000,  -4.08000,
,,,-00.000104000000,  -4.08000,
,,,-00.000103800000,  -4.08000,
,,,-00.000103600000,  -4.16000,
,,,-00.000103400000,  -4.16000,
,,,-00.000103200000,  -4.16000,
,,,-00.000103000000,  -4.16000,
,,,-00.000102800000,  -4.16000,
,,,-00.000102600000,  -4.16000,
,,,-00.000102400000,  -4.24000,
,,,-00.000102200000,  -4.24000,
,,,-00.000102000000,  -4.24000,
,,,-00.000101800000,  -4.24000,
,,,-00.000101600000,  -4.16000,
,,,-00.000101400000,  -4.32000,
,,,-00.000101200000,  -4.16000,
,,,-00.000101000000,  -4.24000,
,,,-00.000100800000,  -4.16000,
,,,-00.000100600000,  -4.24000,
,,,-00.000100400000,  -4.24000,
,,,-00.000100200000,  -4.32000,
,,,-00.000100000000,  -4.24000,
,,,-00.000099800000,  -4.32000,
,,,-00.000099600000,  -4.40000,
,,,-00.000099400000,  -4.24000,
,,,-00.000099200000,  -4.24000,
,,,-00.000099000000,  -4.32000,
,,,-00.000098800000,  -4.24000,
,,,-00.000098600000,  -4.40000,
,,,-00.000098400000,  -4.32000,
,,,-00.000098200000,  -4.40000,
,,,-00.000098000000,  -4.32000,
,,,-00.000097800000,  -4.40000,
,,,-00.000097600000,  -4.40000,
,,,-00.000097400000,  -4.40000,
