Circuiti_3/data.leo/RC/140000/F0027MTH.CSV

Record Length,2.500000e+03,,   0.000002760000,   0.40000,
Sample Interval,4.000000e-09,,   0.000002764000,   0.32000,
Trigger Point,-6.900000000000e+02,,   0.000002768000,   0.40000,
,,,   0.000002772000,   0.40000,
,,,   0.000002776000,   0.32000,
,,,   0.000002780000,   0.40000,
Source,MATH,,   0.000002784000,   0.32000,
Vertical Units,V,,   0.000002788000,   0.32000,
Vertical Scale,2.000000e+00,,   0.000002792000,   0.40000,
Vertical Offset,0.000000e+00,,   0.000002796000,   0.40000,
Horizontal Units,s,,   0.000002800000,   0.40000,
Horizontal Scale,1.000000e-06,,   0.000002804000,   0.32000,
Pt Fmt,Y,,   0.000002808000,   0.32000,
Yzero,0.000000e+00,,   0.000002812000,   0.32000,
Probe Atten,1.000000e+00,,   0.000002816000,   0.32000,
Model Number,TDS2012C,,   0.000002820000,   0.32000,
Serial Number,C050125,,   0.000002824000,   0.40000,
Firmware Version,FV:v24.26,,   0.000002828000,   0.40000,
,,,0.000002832000,   0.32000,
,,,0.000002836000,   0.32000,
,,,0.000002840000,   0.32000,
,,,0.000002844000,   0.40000,
,,,0.000002848000,   0.40000,
,,,0.000002852000,   0.32000,
,,,0.000002856000,   0.40000,
,,,0.000002860000,   0.32000,
,,,0.000002864000,   0.32000,
,,,0.000002868000,   0.40000,
,,,0.000002872000,   0.32000,
,,,0.000002876000,   0.32000,
,,,0.000002880000,   0.40000,
,,,0.000002884000,   0.32000,
,,,0.000002888000,   0.40000,
,,,0.000002892000,   0.40000,
,,,0.000002896000,   0.40000,
,,,0.000002900000,   0.40000,
,,,0.000002904000,   0.40000,
,,,0.000002908000,   0.32000,
,,,0.000002912000,   0.40000,
,,,0.000002916000,   0.32000,
,,,0.000002920000,   0.32000,
,,,0.000002924000,   0.40000,
,,,0.000002928000,   0.40000,
,,,0.000002932000,   0.40000,
,,,0.000002936000,   0.32000,
,,,0.000002940000,   0.32000,
,,,0.000002944000,   0.40000,
,,,0.000002948000,   0.32000,
,,,0.000002952000,   0.40000,
,,,0.000002956000,   0.40000,
,,,0.000002960000,   0.40000,
,,,0.000002964000,   0.32000,
,,,0.000002968000,   0.32000,
,,,0.000002972000,   0.32000,
,,,0.000002976000,   0.40000,
,,,0.000002980000,   0.40000,
,,,0.000002984000,   0.32000,
,,,0.000002988000,   0.32000,
,,,0.000002992000,   0.40000,
,,,0.000002996000,   0.32000,
,,,0.000003000000,   0.40000,
,,,0.000003004000,   0.40000,
,,,0.000003008000,   0.40000,
,,,0.000003012000,   0.32000,
,,,0.000003016000,   0.32000,
,,,0.000003020000,   0.32000,
,,,0.000003024000,   0.40000,
,,,0.000003028000,   0.40000,
,,,0.000003032000,   0.40000,
,,,0.000003036000,   0.40000,
,,,0.000003040000,   0.32000,
,,,0.000003044000,   0.40000,
,,,0.000003048000,   0.32000,
,,,0.000003052000,   0.40000,
,,,0.000003056000,   0.40000,
,,,0.000003060000,   0.40000,
,,,0.000003064000,   0.32000,
,,,0.000003068000,   0.32000,
,,,0.000003072000,   0.40000,
,,,0.000003076000,   0.40000,
,,,0.000003080000,   0.32000,
,,,0.000003084000,   0.32000,
,,,0.000003088000,   0.32000,
,,,0.000003092000,   0.48000,
,,,0.000003096000,   0.32000,
,,,0.000003100000,   0.40000,
,,,0.000003104000,   0.40000,
,,,0.000003108000,   0.40000,
,,,0.000003112000,   0.40000,
,,,0.000003116000,   0.40000,
,,,0.000003120000,   0.40000,
,,,0.000003124000,   0.40000,
,,,0.000003128000,   0.32000,
,,,0.000003132000,   0.40000,
,,,0.000003136000,   0.40000,
,,,0.000003140000,   0.40000,
,,,0.000003144000,   0.32000,
,,,0.000003148000,   0.40000,
,,,0.000003152000,   0.40000,
,,,0.000003156000,   0.32000,
,,,0.000003160000,   0.40000,
,,,0.000003164000,   0.32000,
,,,0.000003168000,   0.32000,
,,,0.000003172000,   0.40000,
,,,0.000003176000,   0.40000,
,,,0.000003180000,   0.40000,
,,,0.000003184000,   0.40000,
,,,0.000003188000,   0.32000,
,,,0.000003192000,   0.48000,
,,,0.000003196000,   0.32000,
,,,0.000003200000,   0.40000,
,,,0.000003204000,   0.40000,
,,,0.000003208000,   0.40000,
,,,0.000003212000,   0.32000,
,,,0.000003216000,   0.40000,
,,,0.000003220000,   0.32000,
,,,0.000003224000,   0.40000,
,,,0.000003228000,   0.40000,
,,,0.000003232000,   0.40000,
,,,0.000003236000,   0.40000,
,,,0.000003240000,   0.40000,
,,,0.000003244000,   0.32000,
,,,0.000003248000,   0.40000,
,,,0.000003252000,   0.32000,
,,,0.000003256000,   0.40000,
,,,0.000003260000,   0.32000,
,,,0.000003264000,   0.40000,
,,,0.000003268000,   0.40000,
,,,0.000003272000,   0.40000,
,,,0.000003276000,   0.40000,
,,,0.000003280000,   0.40000,
,,,0.000003284000,   0.40000,
,,,0.000003288000,   0.40000,
,,,0.000003292000,   0.40000,
,,,0.000003296000,   0.40000,
,,,0.000003300000,   0.40000,
,,,0.000003304000,   0.32000,
,,,0.000003308000,   0.40000,
,,,0.000003312000,   0.32000,
,,,0.000003316000,   0.40000,
,,,0.000003320000,   0.40000,
,,,0.000003324000,   0.40000,
,,,0.000003328000,   0.40000,
,,,0.000003332000,   0.40000,
,,,0.000003336000,   0.32000,
,,,0.000003340000,   0.40000,
,,,0.000003344000,   0.40000,
,,,0.000003348000,   0.40000,
,,,0.000003352000,   0.40000,
,,,0.000003356000,   0.48000,
,,,0.000003360000,   0.32000,
,,,0.000003364000,   0.40000,
,,,0.000003368000,   0.40000,
,,,0.000003372000,   0.40000,
,,,0.000003376000,   0.40000,
,,,0.000003380000,   0.40000,
,,,0.000003384000,   0.32000,
,,,0.000003388000,   0.40000,
,,,0.000003392000,   0.40000,
,,,0.000003396000,   0.32000,
,,,0.000003400000,   0.40000,
,,,0.000003404000,   0.32000,
,,,0.000003408000,   0.32000,
,,,0.000003412000,   0.40000,
,,,0.000003416000,   0.32000,
,,,0.000003420000,   0.40000,
,,,0.000003424000,   0.40000,
,,,0.000003428000,   0.32000,
,,,0.000003432000,   0.40000,
,,,0.000003436000,   0.40000,
,,,0.000003440000,   0.40000,
,,,0.000003444000,   0.40000,
,,,0.000003448000,   0.40000,
,,,0.000003452000,   0.32000,
,,,0.000003456000,   0.32000,
,,,0.000003460000,   0.32000,
,,,0.000003464000,   0.40000,
,,,0.000003468000,   0.40000,
,,,0.000003472000,   0.40000,
,,,0.000003476000,   0.40000,
,,,0.000003480000,   0.32000,
,,,0.000003484000,   0.32000,
,,,0.000003488000,   0.40000,
,,,0.000003492000,   0.40000,
,,,0.000003496000,   0.32000,
,,,0.000003500000,   0.40000,
,,,0.000003504000,   0.32000,
,,,0.000003508000,   0.40000,
,,,0.000003512000,   0.40000,
,,,0.000003516000,   0.40000,
,,,0.000003520000,   0.40000,
,,,0.000003524000,   0.40000,
,,,0.000003528000,   0.40000,
,,,0.000003532000,   0.32000,
,,,0.000003536000,   0.40000,
,,,0.000003540000,   0.40000,
,,,0.000003544000,   0.40000,
,,,0.000003548000,   0.40000,
,,,0.000003552000,   0.40000,
,,,0.000003556000,   0.40000,
,,,0.000003560000,   0.32000,
,,,0.000003564000,   0.40000,
,,,0.000003568000,   0.32000,
,,,0.000003572000,   0.32000,
,,,0.000003576000,   0.32000,
,,,0.000003580000,   0.40000,
,,,0.000003584000,   0.40000,
,,,0.000003588000,   0.40000,
,,,0.000003592000,   0.40000,
,,,0.000003596000,   0.40000,
,,,0.000003600000,   0.32000,
,,,0.000003604000,   0.40000,
,,,0.000003608000,   0.32000,
,,,0.000003612000,   0.40000,
,,,0.000003616000,   0.40000,
,,,0.000003620000,   0.40000,
,,,0.000003624000,   0.32000,
,,,0.000003628000,   0.32000,
,,,0.000003632000,   0.32000,
,,,0.000003636000,   0.40000,
,,,0.000003640000,   0.40000,
,,,0.000003644000,   0.32000,
,,,0.000003648000,   0.40000,
,,,0.000003652000,   0.40000,
,,,0.000003656000,   0.40000,
,,,0.000003660000,   0.40000,
,,,0.000003664000,   0.32000,
,,,0.000003668000,   0.32000,
,,,0.000003672000,   0.32000,
,,,0.000003676000,   0.32000,
,,,0.000003680000,   0.32000,
,,,0.000003684000,   0.32000,
,,,0.000003688000,   0.40000,
,,,0.000003692000,   0.32000,
,,,0.000003696000,   0.40000,
,,,0.000003700000,   0.32000,
,,,0.000003704000,   0.32000,
,,,0.000003708000,   0.32000,
,,,0.000003712000,   0.40000,
,,,0.000003716000,   0.32000,
,,,0.000003720000,   0.32000,
,,,0.000003724000,   0.32000,
,,,0.000003728000,   0.32000,
,,,0.000003732000,   0.32000,
,,,0.000003736000,   0.40000,
,,,0.000003740000,   0.32000,
,,,0.000003744000,   0.32000,
,,,0.000003748000,   0.40000,
,,,0.000003752000,   0.32000,
,,,0.000003756000,   0.32000,
,,,0.000003760000,   0.40000,
,,,0.000003764000,   0.32000,
,,,0.000003768000,   0.32000,
,,,0.000003772000,   0.32000,
,,,0.000003776000,   0.32000,
,,,0.000003780000,   0.32000,
,,,0.000003784000,   0.40000,
,,,0.000003788000,   0.32000,
,,,0.000003792000,   0.32000,
,,,0.000003796000,   0.24000,
,,,0.000003800000,   0.32000,
,,,0.000003804000,   0.32000,
,,,0.000003808000,   0.32000,
,,,0.000003812000,   0.32000,
,,,0.000003816000,   0.32000,
,,,0.000003820000,   0.40000,
,,,0.000003824000,   0.32000,
,,,0.000003828000,   0.32000,
,,,0.000003832000,   0.32000,
,,,0.000003836000,   0.32000,
,,,0.000003840000,   0.24000,
,,,0.000003844000,   0.40000,
,,,0.000003848000,   0.32000,
,,,0.000003852000,   0.32000,
,,,0.000003856000,   0.32000,
,,,0.000003860000,   0.32000,
,,,0.000003864000,   0.32000,
,,,0.000003868000,   0.40000,
,,,0.000003872000,   0.24000,
,,,0.000003876000,   0.32000,
,,,0.000003880000,   0.32000,
,,,0.000003884000,   0.32000,
,,,0.000003888000,   0.32000,
,,,0.000003892000,   0.24000,
,,,0.000003896000,   0.32000,
,,,0.000003900000,   0.32000,
,,,0.000003904000,   0.24000,
,,,0.000003908000,   0.32000,
,,,0.000003912000,   0.32000,
,,,0.000003916000,   0.40000,
,,,0.000003920000,   0.32000,
,,,0.000003924000,   0.32000,
,,,0.000003928000,   0.24000,
,,,0.000003932000,   0.32000,
,,,0.000003936000,   0.32000,
,,,0.000003940000,   0.32000,
,,,0.000003944000,   0.32000,
,,,0.000003948000,   0.24000,
,,,0.000003952000,   0.32000,
,,,0.000003956000,   0.32000,
,,,0.000003960000,   0.32000,
,,,0.000003964000,   0.24000,
,,,0.000003968000,   0.32000,
,,,0.000003972000,   0.24000,
,,,0.000003976000,   0.32000,
,,,0.000003980000,   0.24000,
,,,0.000003984000,   0.32000,
,,,0.000003988000,   0.24000,
,,,0.000003992000,   0.32000,
,,,0.000003996000,   0.32000,
,,,0.000004000000,   0.32000,
,,,0.000004004000,   0.24000,
,,,0.000004008000,   0.24000,
,,,0.000004012000,   0.24000,
,,,0.000004016000,   0.32000,
,,,0.000004020000,   0.32000,
,,,0.000004024000,   0.32000,
,,,0.000004028000,   0.32000,
,,,0.000004032000,   0.24000,
,,,0.000004036000,   0.24000,
,,,0.000004040000,   0.32000,
,,,0.000004044000,   0.24000,
,,,0.000004048000,   0.32000,
,,,0.000004052000,   0.24000,
,,,0.000004056000,   0.24000,
,,,0.000004060000,   0.32000,
,,,0.000004064000,   0.32000,
,,,0.000004068000,   0.24000,
,,,0.000004072000,   0.16000,
,,,0.000004076000,   0.24000,
,,,0.000004080000,   0.24000,
,,,0.000004084000,   0.32000,
,,,0.000004088000,   0.24000,
,,,0.000004092000,   0.24000,
,,,0.000004096000,   0.24000,
,,,0.000004100000,   0.32000,
,,,0.000004104000,   0.16000,
,,,0.000004108000,   0.24000,
,,,0.000004112000,   0.24000,
,,,0.000004116000,   0.24000,
,,,0.000004120000,   0.24000,
,,,0.000004124000,   0.24000,
,,,0.000004128000,   0.24000,
,,,0.000004132000,   0.24000,
,,,0.000004136000,   0.16000,
,,,0.000004140000,   0.24000,
,,,0.000004144000,   0.24000,
,,,0.000004148000,   0.24000,
,,,0.000004152000,   0.24000,
,,,0.000004156000,   0.24000,
,,,0.000004160000,   0.24000,
,,,0.000004164000,   0.32000,
,,,0.000004168000,   0.16000,
,,,0.000004172000,   0.24000,
,,,0.000004176000,   0.24000,
,,,0.000004180000,   0.24000,
,,,0.000004184000,   0.24000,
,,,0.000004188000,   0.16000,
,,,0.000004192000,   0.24000,
,,,0.000004196000,   0.16000,
,,,0.000004200000,   0.16000,
,,,0.000004204000,   0.24000,
,,,0.000004208000,   0.16000,
,,,0.000004212000,   0.24000,
,,,0.000004216000,   0.24000,
,,,0.000004220000,   0.24000,
,,,0.000004224000,   0.24000,
,,,0.000004228000,   0.24000,
,,,0.000004232000,   0.24000,
,,,0.000004236000,   0.16000,
,,,0.000004240000,   0.24000,
,,,0.000004244000,   0.24000,
,,,0.000004248000,   0.24000,
,,,0.000004252000,   0.24000,
,,,0.000004256000,   0.16000,
,,,0.000004260000,   0.16000,
,,,0.000004264000,   0.24000,
,,,0.000004268000,   0.16000,
,,,0.000004272000,   0.24000,
,,,0.000004276000,   0.24000,
,,,0.000004280000,   0.24000,
,,,0.000004284000,   0.24000,
,,,0.000004288000,   0.16000,
,,,0.000004292000,   0.24000,
,,,0.000004296000,   0.16000,
,,,0.000004300000,   0.16000,
,,,0.000004304000,   0.24000,
,,,0.000004308000,   0.16000,
,,,0.000004312000,   0.24000,
,,,0.000004316000,   0.24000,
,,,0.000004320000,   0.24000,
,,,0.000004324000,   0.24000,
,,,0.000004328000,   0.16000,
,,,0.000004332000,   0.16000,
,,,0.000004336000,   0.16000,
,,,0.000004340000,   0.16000,
,,,0.000004344000,   0.08000,
,,,0.000004348000,   0.24000,
,,,0.000004352000,   0.16000,
,,,0.000004356000,   0.24000,
,,,0.000004360000,   0.16000,
,,,0.000004364000,   0.24000,
,,,0.000004368000,   0.16000,
,,,0.000004372000,   0.16000,
,,,0.000004376000,   0.16000,
,,,0.000004380000,   0.16000,
,,,0.000004384000,   0.16000,
,,,0.000004388000,   0.24000,
,,,0.000004392000,   0.16000,
,,,0.000004396000,   0.24000,
,,,0.000004400000,   0.08000,
,,,0.000004404000,   0.16000,
,,,0.000004408000,   0.16000,
,,,0.000004412000,   0.16000,
,,,0.000004416000,   0.16000,
,,,0.000004420000,   0.16000,
,,,0.000004424000,   0.16000,
,,,0.000004428000,   0.24000,
,,,0.000004432000,   0.16000,
,,,0.000004436000,   0.16000,
,,,0.000004440000,   0.08000,
,,,0.000004444000,   0.16000,
,,,0.000004448000,   0.16000,
,,,0.000004452000,   0.16000,
,,,0.000004456000,   0.16000,
,,,0.000004460000,   0.08000,
,,,0.000004464000,   0.16000,
,,,0.000004468000,   0.08000,
,,,0.000004472000,   0.08000,
,,,0.000004476000,   0.16000,
,,,0.000004480000,   0.16000,
,,,0.000004484000,   0.16000,
,,,0.000004488000,   0.16000,
,,,0.000004492000,   0.16000,
,,,0.000004496000,   0.16000,
,,,0.000004500000,   0.08000,
,,,0.000004504000,   0.08000,
,,,0.000004508000,   0.08000,
,,,0.000004512000,   0.24000,
,,,0.000004516000,   0.08000,
,,,0.000004520000,   0.16000,
,,,0.000004524000,   0.16000,
,,,0.000004528000,   0.16000,
,,,0.000004532000,   0.08000,
,,,0.000004536000,   0.16000,
,,,0.000004540000,   0.16000,
,,,0.000004544000,   0.16000,
,,,0.000004548000,   0.16000,
,,,0.000004552000,   0.16000,
,,,0.000004556000,   0.16000,
,,,0.000004560000,   0.16000,
,,,0.000004564000,   0.08000,
,,,0.000004568000,   0.16000,
,,,0.000004572000,   0.08000,
,,,0.000004576000,   0.16000,
,,,0.000004580000,   0.16000,
,,,0.000004584000,   0.16000,
,,,0.000004588000,   0.16000,
,,,0.000004592000,   0.08000,
,,,0.000004596000,   0.16000,
,,,0.000004600000,   0.08000,
,,,0.000004604000,   0.16000,
,,,0.000004608000,   0.08000,
,,,0.000004612000,   0.08000,
,,,0.000004616000,   0.08000,
,,,0.000004620000,   0.08000,
,,,0.000004624000,   0.08000,
,,,0.000004628000,   0.16000,
,,,0.000004632000,   0.08000,
,,,0.000004636000,   0.16000,
,,,0.000004640000,   0.08000,
,,,0.000004644000,   0.16000,
,,,0.000004648000,   0.16000,
,,,0.000004652000,   0.08000,
,,,0.000004656000,   0.08000,
,,,0.000004660000,   0.16000,
,,,0.000004664000,   0.08000,
,,,0.000004668000,   0.08000,
,,,0.000004672000,   0.08000,
,,,0.000004676000,   0.08000,
,,,0.000004680000,   0.08000,
,,,0.000004684000,   0.16000,
,,,0.000004688000,   0.08000,
,,,0.000004692000,   0.08000,
,,,0.000004696000,   0.08000,
,,,0.000004700000,   0.08000,
,,,0.000004704000,   0.08000,
,,,0.000004708000,   0.08000,
,,,0.000004712000,   0.08000,
,,,0.000004716000,   0.08000,
,,,0.000004720000,   0.08000,
,,,0.000004724000,   0.08000,
,,,0.000004728000,   0.08000,
,,,0.000004732000,   0.08000,
,,,0.000004736000,   0.08000,
,,,0.000004740000,   0.00000,
,,,0.000004744000,   0.08000,
,,,0.000004748000,   0.08000,
,,,0.000004752000,   0.08000,
,,,0.000004756000,   0.00000,
,,,0.000004760000,   0.08000,
,,,0.000004764000,   0.00000,
,,,0.000004768000,   0.08000,
,,,0.000004772000,   0.08000,
,,,0.000004776000,   0.16000,
,,,0.000004780000,   0.00000,
,,,0.000004784000,   0.08000,
,,,0.000004788000,   0.08000,
,,,0.000004792000,   0.08000,
,,,0.000004796000,   0.08000,
,,,0.000004800000,   0.08000,
,,,0.000004804000,   0.08000,
,,,0.000004808000,   0.08000,
,,,0.000004812000,   0.08000,
,,,0.000004816000,   0.08000,
,,,0.000004820000,   0.08000,
,,,0.000004824000,   0.08000,
,,,0.000004828000,   0.00000,
,,,0.000004832000,   0.00000,
,,,0.000004836000,   0.08000,
,,,0.000004840000,   0.08000,
,,,0.000004844000,   0.00000,
,,,0.000004848000,   0.00000,
,,,0.000004852000,   0.00000,
,,,0.000004856000,   0.08000,
,,,0.000004860000,   0.08000,
,,,0.000004864000,   0.08000,
,,,0.000004868000,   0.08000,
,,,0.000004872000,   0.00000,
,,,0.000004876000,   0.08000,
,,,0.000004880000,   0.08000,
,,,0.000004884000,   0.08000,
,,,0.000004888000,   0.00000,
,,,0.000004892000,   0.08000,
,,,0.000004896000,   0.00000,
,,,0.000004900000,   0.08000,
,,,0.000004904000,   0.00000,
,,,0.000004908000,   0.08000,
,,,0.000004912000,   0.08000,
,,,0.000004916000,   0.00000,
,,,0.000004920000,   0.00000,
,,,0.000004924000,   0.08000,
,,,0.000004928000,   0.00000,
,,,0.000004932000,   0.00000,
,,,0.000004936000,   0.00000,
,,,0.000004940000,   0.00000,
,,,0.000004944000,   0.00000,
,,,0.000004948000,   0.00000,
,,,0.000004952000,   0.00000,
,,,0.000004956000,   0.00000,
,,,0.000004960000,   0.00000,
,,,0.000004964000,   0.00000,
,,,0.000004968000,   0.00000,
,,,0.000004972000,   0.00000,
,,,0.000004976000,   0.00000,
,,,0.000004980000,   0.00000,
,,,0.000004984000,   0.00000,
,,,0.000004988000,  -0.08000,
,,,0.000004992000,   0.00000,
,,,0.000004996000,   0.00000,
,,,0.000005000000,   0.00000,
,,,0.000005004000,   0.00000,
,,,0.000005008000,   0.08000,
,,,0.000005012000,   0.00000,
,,,0.000005016000,  -0.08000,
,,,0.000005020000,   0.00000,
,,,0.000005024000,   0.08000,
,,,0.000005028000,  -0.08000,
,,,0.000005032000,  -0.08000,
,,,0.000005036000,   0.00000,
,,,0.000005040000,   0.08000,
,,,0.000005044000,  -0.08000,
,,,0.000005048000,  -0.08000,
,,,0.000005052000,  -0.08000,
,,,0.000005056000,   0.08000,
,,,0.000005060000,  -0.08000,
,,,0.000005064000,   0.00000,
,,,0.000005068000,  -0.08000,
,,,0.000005072000,   0.08000,
,,,0.000005076000,  -0.08000,
,,,0.000005080000,   0.00000,
,,,0.000005084000,  -0.08000,
,,,0.000005088000,   0.00000,
,,,0.000005092000,   0.00000,
,,,0.000005096000,   0.00000,
,,,0.000005100000,  -0.08000,
,,,0.000005104000,   0.00000,
,,,0.000005108000,  -0.08000,
,,,0.000005112000,   0.00000,
,,,0.000005116000,   0.00000,
,,,0.000005120000,   0.00000,
,,,0.000005124000,   0.00000,
,,,0.000005128000,   0.00000,
,,,0.000005132000,  -0.08000,
,,,0.000005136000,  -0.08000,
,,,0.000005140000,   0.00000,
,,,0.000005144000,  -0.08000,
,,,0.000005148000,  -0.08000,
,,,0.000005152000,   0.00000,
,,,0.000005156000,   0.00000,
,,,0.000005160000,  -0.08000,
,,,0.000005164000,   0.00000,
,,,0.000005168000,   0.00000,
,,,0.000005172000,   0.00000,
,,,0.000005176000,  -0.08000,
,,,0.000005180000,   0.00000,
,,,0.000005184000,  -0.08000,
,,,0.000005188000,  -0.08000,
,,,0.000005192000,  -0.08000,
,,,0.000005196000,   0.00000,
,,,0.000005200000,  -0.08000,
,,,0.000005204000,   0.00000,
,,,0.000005208000,  -0.08000,
,,,0.000005212000,   0.00000,
,,,0.000005216000,  -0.08000,
,,,0.000005220000,  -0.08000,
,,,0.000005224000,  -0.08000,
,,,0.000005228000,  -0.08000,
,,,0.000005232000,  -0.08000,
,,,0.000005236000,  -0.08000,
,,,0.000005240000,  -0.08000,
,,,0.000005244000,  -0.08000,
,,,0.000005248000,  -0.08000,
,,,0.000005252000,   0.00000,
,,,0.000005256000,  -0.08000,
,,,0.000005260000,  -0.08000,
,,,0.000005264000,  -0.08000,
,,,0.000005268000,  -0.16000,
,,,0.000005272000,  -0.08000,
,,,0.000005276000,  -0.08000,
,,,0.000005280000,  -0.08000,
,,,0.000005284000,  -0.08000,
,,,0.000005288000,  -0.08000,
,,,0.000005292000,  -0.08000,
,,,0.000005296000,  -0.08000,
,,,0.000005300000,  -0.08000,
,,,0.000005304000,  -0.08000,
,,,0.000005308000,  -0.16000,
,,,0.000005312000,  -0.08000,
,,,0.000005316000,  -0.08000,
,,,0.000005320000,  -0.08000,
,,,0.000005324000,  -0.16000,
,,,0.000005328000,  -0.08000,
,,,0.000005332000,  -0.16000,
,,,0.000005336000,  -0.08000,
,,,0.000005340000,  -0.16000,
,,,0.000005344000,  -0.16000,
,,,0.000005348000,  -0.16000,
,,,0.000005352000,  -0.08000,
,,,0.000005356000,  -0.16000,
,,,0.000005360000,  -0.16000,
,,,0.000005364000,  -0.16000,
,,,0.000005368000,  -0.16000,
,,,0.000005372000,  -0.16000,
