Circuiti_3/data.leo/RC/140000/F0027CH1.CSV

Record Length,2.500000e+03,,   0.000002760000,   1.76000,
Sample Interval,4.000000e-09,,   0.000002764000,   1.84000,
Trigger Point,-6.900000000000e+02,,   0.000002768000,   1.76000,
,,,   0.000002772000,   1.76000,
,,,   0.000002776000,   1.76000,
,,,   0.000002780000,   1.76000,
Source,CH1,,   0.000002784000,   1.76000,
Vertical Units,V,,   0.000002788000,   1.76000,
Vertical Scale,2.000000e+00,,   0.000002792000,   1.68000,
Vertical Offset,-2.400000e-01,,   0.000002796000,   1.68000,
Horizontal Units,s,,   0.000002800000,   1.68000,
Horizontal Scale,1.000000e-06,,   0.000002804000,   1.68000,
Pt Fmt,Y,,   0.000002808000,   1.68000,
Yzero,0.000000e+00,,   0.000002812000,   1.68000,
Probe Atten,1.000000e+01,,   0.000002816000,   1.68000,
Model Number,TDS2012C,,   0.000002820000,   1.60000,
Serial Number,C050125,,   0.000002824000,   1.60000,
Firmware Version,FV:v24.26,,   0.000002828000,   1.60000,
,,,0.000002832000,   1.60000,
,,,0.000002836000,   1.60000,
,,,0.000002840000,   1.60000,
,,,0.000002844000,   1.52000,
,,,0.000002848000,   1.52000,
,,,0.000002852000,   1.52000,
,,,0.000002856000,   1.52000,
,,,0.000002860000,   1.52000,
,,,0.000002864000,   1.52000,
,,,0.000002868000,   1.44000,
,,,0.000002872000,   1.52000,
,,,0.000002876000,   1.44000,
,,,0.000002880000,   1.44000,
,,,0.000002884000,   1.44000,
,,,0.000002888000,   1.44000,
,,,0.000002892000,   1.36000,
,,,0.000002896000,   1.36000,
,,,0.000002900000,   1.36000,
,,,0.000002904000,   1.36000,
,,,0.000002908000,   1.36000,
,,,0.000002912000,   1.36000,
,,,0.000002916000,   1.36000,
,,,0.000002920000,   1.36000,
,,,0.000002924000,   1.28000,
,,,0.000002928000,   1.28000,
,,,0.000002932000,   1.28000,
,,,0.000002936000,   1.28000,
,,,0.000002940000,   1.28000,
,,,0.000002944000,   1.28000,
,,,0.000002948000,   1.28000,
,,,0.000002952000,   1.20000,
,,,0.000002956000,   1.20000,
,,,0.000002960000,   1.20000,
,,,0.000002964000,   1.20000,
,,,0.000002968000,   1.20000,
,,,0.000002972000,   1.20000,
,,,0.000002976000,   1.12000,
,,,0.000002980000,   1.12000,
,,,0.000002984000,   1.12000,
,,,0.000002988000,   1.12000,
,,,0.000002992000,   1.04000,
,,,0.000002996000,   1.12000,
,,,0.000003000000,   1.04000,
,,,0.000003004000,   1.04000,
,,,0.000003008000,   1.04000,
,,,0.000003012000,   1.04000,
,,,0.000003016000,   1.04000,
,,,0.000003020000,   1.04000,
,,,0.000003024000,   0.96000,
,,,0.000003028000,   0.96000,
,,,0.000003032000,   0.96000,
,,,0.000003036000,   0.96000,
,,,0.000003040000,   0.96000,
,,,0.000003044000,   0.96000,
,,,0.000003048000,   0.96000,
,,,0.000003052000,   0.88000,
,,,0.000003056000,   0.88000,
,,,0.000003060000,   0.88000,
,,,0.000003064000,   0.88000,
,,,0.000003068000,   0.88000,
,,,0.000003072000,   0.80000,
,,,0.000003076000,   0.80000,
,,,0.000003080000,   0.88000,
,,,0.000003084000,   0.80000,
,,,0.000003088000,   0.80000,
,,,0.000003092000,   0.72000,
,,,0.000003096000,   0.80000,
,,,0.000003100000,   0.72000,
,,,0.000003104000,   0.72000,
,,,0.000003108000,   0.72000,
,,,0.000003112000,   0.72000,
,,,0.000003116000,   0.64000,
,,,0.000003120000,   0.72000,
,,,0.000003124000,   0.64000,
,,,0.000003128000,   0.72000,
,,,0.000003132000,   0.64000,
,,,0.000003136000,   0.64000,
,,,0.000003140000,   0.56000,
,,,0.000003144000,   0.64000,
,,,0.000003148000,   0.56000,
,,,0.000003152000,   0.56000,
,,,0.000003156000,   0.56000,
,,,0.000003160000,   0.56000,
,,,0.000003164000,   0.56000,
,,,0.000003168000,   0.56000,
,,,0.000003172000,   0.48000,
,,,0.000003176000,   0.48000,
,,,0.000003180000,   0.48000,
,,,0.000003184000,   0.48000,
,,,0.000003188000,   0.48000,
,,,0.000003192000,   0.40000,
,,,0.000003196000,   0.48000,
,,,0.000003200000,   0.40000,
,,,0.000003204000,   0.40000,
,,,0.000003208000,   0.40000,
,,,0.000003212000,   0.40000,
,,,0.000003216000,   0.32000,
,,,0.000003220000,   0.40000,
,,,0.000003224000,   0.32000,
,,,0.000003228000,   0.32000,
,,,0.000003232000,   0.32000,
,,,0.000003236000,   0.32000,
,,,0.000003240000,   0.24000,
,,,0.000003244000,   0.32000,
,,,0.000003248000,   0.24000,
,,,0.000003252000,   0.32000,
,,,0.000003256000,   0.24000,
,,,0.000003260000,   0.24000,
,,,0.000003264000,   0.16000,
,,,0.000003268000,   0.24000,
,,,0.000003272000,   0.16000,
,,,0.000003276000,   0.16000,
,,,0.000003280000,   0.16000,
,,,0.000003284000,   0.16000,
,,,0.000003288000,   0.08000,
,,,0.000003292000,   0.08000,
,,,0.000003296000,   0.08000,
,,,0.000003300000,   0.08000,
,,,0.000003304000,   0.08000,
,,,0.000003308000,   0.08000,
,,,0.000003312000,   0.08000,
,,,0.000003316000,   0.00000,
,,,0.000003320000,   0.00000,
,,,0.000003324000,   0.00000,
,,,0.000003328000,   0.00000,
,,,0.000003332000,  -0.08000,
,,,0.000003336000,   0.00000,
,,,0.000003340000,  -0.08000,
,,,0.000003344000,  -0.08000,
,,,0.000003348000,  -0.08000,
,,,0.000003352000,  -0.08000,
,,,0.000003356000,  -0.16000,
,,,0.000003360000,  -0.08000,
,,,0.000003364000,  -0.16000,
,,,0.000003368000,  -0.16000,
,,,0.000003372000,  -0.16000,
,,,0.000003376000,  -0.16000,
,,,0.000003380000,  -0.24000,
,,,0.000003384000,  -0.16000,
,,,0.000003388000,  -0.24000,
,,,0.000003392000,  -0.24000,
,,,0.000003396000,  -0.24000,
,,,0.000003400000,  -0.24000,
,,,0.000003404000,  -0.24000,
,,,0.000003408000,  -0.24000,
,,,0.000003412000,  -0.32000,
,,,0.000003416000,  -0.24000,
,,,0.000003420000,  -0.32000,
,,,0.000003424000,  -0.32000,
,,,0.000003428000,  -0.32000,
,,,0.000003432000,  -0.40000,
,,,0.000003436000,  -0.40000,
,,,0.000003440000,  -0.40000,
,,,0.000003444000,  -0.40000,
,,,0.000003448000,  -0.40000,
,,,0.000003452000,  -0.40000,
,,,0.000003456000,  -0.40000,
,,,0.000003460000,  -0.40000,
,,,0.000003464000,  -0.48000,
,,,0.000003468000,  -0.48000,
,,,0.000003472000,  -0.48000,
,,,0.000003476000,  -0.48000,
,,,0.000003480000,  -0.48000,
,,,0.000003484000,  -0.48000,
,,,0.000003488000,  -0.56000,
,,,0.000003492000,  -0.56000,
,,,0.000003496000,  -0.56000,
,,,0.000003500000,  -0.56000,
,,,0.000003504000,  -0.56000,
,,,0.000003508000,  -0.64000,
,,,0.000003512000,  -0.64000,
,,,0.000003516000,  -0.64000,
,,,0.000003520000,  -0.64000,
,,,0.000003524000,  -0.64000,
,,,0.000003528000,  -0.72000,
,,,0.000003532000,  -0.64000,
,,,0.000003536000,  -0.72000,
,,,0.000003540000,  -0.72000,
,,,0.000003544000,  -0.72000,
,,,0.000003548000,  -0.72000,
,,,0.000003552000,  -0.80000,
,,,0.000003556000,  -0.80000,
,,,0.000003560000,  -0.72000,
,,,0.000003564000,  -0.80000,
,,,0.000003568000,  -0.80000,
,,,0.000003572000,  -0.80000,
,,,0.000003576000,  -0.80000,
,,,0.000003580000,  -0.88000,
,,,0.000003584000,  -0.88000,
,,,0.000003588000,  -0.88000,
,,,0.000003592000,  -0.88000,
,,,0.000003596000,  -0.88000,
,,,0.000003600000,  -0.88000,
,,,0.000003604000,  -0.96000,
,,,0.000003608000,  -0.88000,
,,,0.000003612000,  -0.96000,
,,,0.000003616000,  -0.96000,
,,,0.000003620000,  -0.96000,
,,,0.000003624000,  -0.96000,
,,,0.000003628000,  -0.96000,
,,,0.000003632000,  -0.96000,
,,,0.000003636000,  -1.04000,
,,,0.000003640000,  -1.04000,
,,,0.000003644000,  -1.04000,
,,,0.000003648000,  -1.04000,
,,,0.000003652000,  -1.12000,
,,,0.000003656000,  -1.12000,
,,,0.000003660000,  -1.12000,
,,,0.000003664000,  -1.04000,
,,,0.000003668000,  -1.12000,
,,,0.000003672000,  -1.12000,
,,,0.000003676000,  -1.12000,
,,,0.000003680000,  -1.12000,
,,,0.000003684000,  -1.20000,
,,,0.000003688000,  -1.20000,
,,,0.000003692000,  -1.20000,
,,,0.000003696000,  -1.20000,
,,,0.000003700000,  -1.20000,
,,,0.000003704000,  -1.20000,
,,,0.000003708000,  -1.20000,
,,,0.000003712000,  -1.28000,
,,,0.000003716000,  -1.28000,
,,,0.000003720000,  -1.28000,
,,,0.000003724000,  -1.28000,
,,,0.000003728000,  -1.28000,
,,,0.000003732000,  -1.28000,
,,,0.000003736000,  -1.36000,
,,,0.000003740000,  -1.36000,
,,,0.000003744000,  -1.36000,
,,,0.000003748000,  -1.36000,
,,,0.000003752000,  -1.36000,
,,,0.000003756000,  -1.36000,
,,,0.000003760000,  -1.44000,
,,,0.000003764000,  -1.36000,
,,,0.000003768000,  -1.44000,
,,,0.000003772000,  -1.44000,
,,,0.000003776000,  -1.44000,
,,,0.000003780000,  -1.44000,
,,,0.000003784000,  -1.52000,
,,,0.000003788000,  -1.44000,
,,,0.000003792000,  -1.52000,
,,,0.000003796000,  -1.44000,
,,,0.000003800000,  -1.52000,
,,,0.000003804000,  -1.52000,
,,,0.000003808000,  -1.52000,
,,,0.000003812000,  -1.52000,
,,,0.000003816000,  -1.60000,
,,,0.000003820000,  -1.60000,
,,,0.000003824000,  -1.60000,
,,,0.000003828000,  -1.60000,
,,,0.000003832000,  -1.60000,
,,,0.000003836000,  -1.60000,
,,,0.000003840000,  -1.60000,
,,,0.000003844000,  -1.68000,
,,,0.000003848000,  -1.68000,
,,,0.000003852000,  -1.68000,
,,,0.000003856000,  -1.68000,
,,,0.000003860000,  -1.68000,
,,,0.000003864000,  -1.68000,
,,,0.000003868000,  -1.76000,
,,,0.000003872000,  -1.68000,
,,,0.000003876000,  -1.76000,
,,,0.000003880000,  -1.76000,
,,,0.000003884000,  -1.76000,
,,,0.000003888000,  -1.76000,
,,,0.000003892000,  -1.76000,
,,,0.000003896000,  -1.76000,
,,,0.000003900000,  -1.84000,
,,,0.000003904000,  -1.76000,
,,,0.000003908000,  -1.84000,
,,,0.000003912000,  -1.84000,
,,,0.000003916000,  -1.92000,
,,,0.000003920000,  -1.84000,
,,,0.000003924000,  -1.92000,
,,,0.000003928000,  -1.84000,
,,,0.000003932000,  -1.92000,
,,,0.000003936000,  -1.92000,
,,,0.000003940000,  -1.92000,
,,,0.000003944000,  -1.92000,
,,,0.000003948000,  -1.92000,
,,,0.000003952000,  -2.00000,
,,,0.000003956000,  -2.00000,
,,,0.000003960000,  -2.00000,
,,,0.000003964000,  -2.00000,
,,,0.000003968000,  -2.00000,
,,,0.000003972000,  -2.00000,
,,,0.000003976000,  -2.00000,
,,,0.000003980000,  -2.00000,
,,,0.000003984000,  -2.08000,
,,,0.000003988000,  -2.00000,
,,,0.000003992000,  -2.08000,
,,,0.000003996000,  -2.08000,
,,,0.000004000000,  -2.08000,
,,,0.000004004000,  -2.08000,
,,,0.000004008000,  -2.08000,
,,,0.000004012000,  -2.08000,
,,,0.000004016000,  -2.16000,
,,,0.000004020000,  -2.16000,
,,,0.000004024000,  -2.16000,
,,,0.000004028000,  -2.16000,
,,,0.000004032000,  -2.16000,
,,,0.000004036000,  -2.16000,
,,,0.000004040000,  -2.24000,
,,,0.000004044000,  -2.16000,
,,,0.000004048000,  -2.24000,
,,,0.000004052000,  -2.24000,
,,,0.000004056000,  -2.24000,
,,,0.000004060000,  -2.24000,
,,,0.000004064000,  -2.32000,
,,,0.000004068000,  -2.24000,
,,,0.000004072000,  -2.24000,
,,,0.000004076000,  -2.24000,
,,,0.000004080000,  -2.32000,
,,,0.000004084000,  -2.32000,
,,,0.000004088000,  -2.32000,
,,,0.000004092000,  -2.32000,
,,,0.000004096000,  -2.32000,
,,,0.000004100000,  -2.40000,
,,,0.000004104000,  -2.32000,
,,,0.000004108000,  -2.40000,
,,,0.000004112000,  -2.40000,
,,,0.000004116000,  -2.40000,
,,,0.000004120000,  -2.40000,
,,,0.000004124000,  -2.40000,
,,,0.000004128000,  -2.40000,
,,,0.000004132000,  -2.40000,
,,,0.000004136000,  -2.40000,
,,,0.000004140000,  -2.48000,
,,,0.000004144000,  -2.48000,
,,,0.000004148000,  -2.48000,
,,,0.000004152000,  -2.48000,
,,,0.000004156000,  -2.48000,
,,,0.000004160000,  -2.48000,
,,,0.000004164000,  -2.56000,
,,,0.000004168000,  -2.48000,
,,,0.000004172000,  -2.56000,
,,,0.000004176000,  -2.56000,
,,,0.000004180000,  -2.56000,
,,,0.000004184000,  -2.56000,
,,,0.000004188000,  -2.56000,
,,,0.000004192000,  -2.56000,
,,,0.000004196000,  -2.56000,
,,,0.000004200000,  -2.56000,
,,,0.000004204000,  -2.64000,
,,,0.000004208000,  -2.56000,
,,,0.000004212000,  -2.64000,
,,,0.000004216000,  -2.64000,
,,,0.000004220000,  -2.64000,
,,,0.000004224000,  -2.64000,
,,,0.000004228000,  -2.72000,
,,,0.000004232000,  -2.64000,
,,,0.000004236000,  -2.64000,
,,,0.000004240000,  -2.72000,
,,,0.000004244000,  -2.72000,
,,,0.000004248000,  -2.72000,
,,,0.000004252000,  -2.72000,
,,,0.000004256000,  -2.72000,
,,,0.000004260000,  -2.72000,
,,,0.000004264000,  -2.72000,
,,,0.000004268000,  -2.72000,
,,,0.000004272000,  -2.80000,
,,,0.000004276000,  -2.80000,
,,,0.000004280000,  -2.80000,
,,,0.000004284000,  -2.80000,
,,,0.000004288000,  -2.80000,
,,,0.000004292000,  -2.80000,
,,,0.000004296000,  -2.80000,
,,,0.000004300000,  -2.80000,
,,,0.000004304000,  -2.88000,
,,,0.000004308000,  -2.80000,
,,,0.000004312000,  -2.88000,
,,,0.000004316000,  -2.88000,
,,,0.000004320000,  -2.88000,
,,,0.000004324000,  -2.88000,
,,,0.000004328000,  -2.88000,
,,,0.000004332000,  -2.88000,
,,,0.000004336000,  -2.88000,
,,,0.000004340000,  -2.88000,
,,,0.000004344000,  -2.88000,
,,,0.000004348000,  -2.96000,
,,,0.000004352000,  -2.88000,
,,,0.000004356000,  -2.96000,
,,,0.000004360000,  -2.96000,
,,,0.000004364000,  -2.96000,
,,,0.000004368000,  -2.96000,
,,,0.000004372000,  -2.96000,
,,,0.000004376000,  -2.96000,
,,,0.000004380000,  -2.96000,
,,,0.000004384000,  -2.96000,
,,,0.000004388000,  -3.04000,
,,,0.000004392000,  -3.04000,
,,,0.000004396000,  -3.04000,
,,,0.000004400000,  -2.96000,
,,,0.000004404000,  -3.04000,
,,,0.000004408000,  -3.04000,
,,,0.000004412000,  -3.04000,
,,,0.000004416000,  -3.04000,
,,,0.000004420000,  -3.04000,
,,,0.000004424000,  -3.04000,
,,,0.000004428000,  -3.12000,
,,,0.000004432000,  -3.04000,
,,,0.000004436000,  -3.12000,
,,,0.000004440000,  -3.04000,
,,,0.000004444000,  -3.12000,
,,,0.000004448000,  -3.12000,
,,,0.000004452000,  -3.12000,
,,,0.000004456000,  -3.12000,
,,,0.000004460000,  -3.12000,
,,,0.000004464000,  -3.12000,
,,,0.000004468000,  -3.12000,
,,,0.000004472000,  -3.12000,
,,,0.000004476000,  -3.20000,
,,,0.000004480000,  -3.20000,
,,,0.000004484000,  -3.20000,
,,,0.000004488000,  -3.20000,
,,,0.000004492000,  -3.20000,
,,,0.000004496000,  -3.20000,
,,,0.000004500000,  -3.20000,
,,,0.000004504000,  -3.20000,
,,,0.000004508000,  -3.20000,
,,,0.000004512000,  -3.28000,
,,,0.000004516000,  -3.20000,
,,,0.000004520000,  -3.28000,
,,,0.000004524000,  -3.28000,
,,,0.000004528000,  -3.28000,
,,,0.000004532000,  -3.20000,
,,,0.000004536000,  -3.28000,
,,,0.000004540000,  -3.28000,
,,,0.000004544000,  -3.28000,
,,,0.000004548000,  -3.28000,
,,,0.000004552000,  -3.28000,
,,,0.000004556000,  -3.28000,
,,,0.000004560000,  -3.36000,
,,,0.000004564000,  -3.28000,
,,,0.000004568000,  -3.36000,
,,,0.000004572000,  -3.28000,
,,,0.000004576000,  -3.36000,
,,,0.000004580000,  -3.36000,
,,,0.000004584000,  -3.36000,
,,,0.000004588000,  -3.36000,
,,,0.000004592000,  -3.36000,
,,,0.000004596000,  -3.36000,
,,,0.000004600000,  -3.36000,
,,,0.000004604000,  -3.36000,
,,,0.000004608000,  -3.36000,
,,,0.000004612000,  -3.36000,
,,,0.000004616000,  -3.36000,
,,,0.000004620000,  -3.36000,
,,,0.000004624000,  -3.44000,
,,,0.000004628000,  -3.44000,
,,,0.000004632000,  -3.36000,
,,,0.000004636000,  -3.44000,
,,,0.000004640000,  -3.44000,
,,,0.000004644000,  -3.44000,
,,,0.000004648000,  -3.44000,
,,,0.000004652000,  -3.44000,
,,,0.000004656000,  -3.44000,
,,,0.000004660000,  -3.44000,
,,,0.000004664000,  -3.44000,
,,,0.000004668000,  -3.44000,
,,,0.000004672000,  -3.44000,
,,,0.000004676000,  -3.44000,
,,,0.000004680000,  -3.44000,
,,,0.000004684000,  -3.52000,
,,,0.000004688000,  -3.44000,
,,,0.000004692000,  -3.44000,
,,,0.000004696000,  -3.44000,
,,,0.000004700000,  -3.52000,
,,,0.000004704000,  -3.44000,
,,,0.000004708000,  -3.52000,
,,,0.000004712000,  -3.52000,
,,,0.000004716000,  -3.52000,
,,,0.000004720000,  -3.52000,
,,,0.000004724000,  -3.52000,
,,,0.000004728000,  -3.52000,
,,,0.000004732000,  -3.52000,
,,,0.000004736000,  -3.52000,
,,,0.000004740000,  -3.52000,
,,,0.000004744000,  -3.52000,
,,,0.000004748000,  -3.52000,
,,,0.000004752000,  -3.52000,
,,,0.000004756000,  -3.52000,
,,,0.000004760000,  -3.60000,
,,,0.000004764000,  -3.52000,
,,,0.000004768000,  -3.60000,
,,,0.000004772000,  -3.60000,
,,,0.000004776000,  -3.60000,
,,,0.000004780000,  -3.52000,
,,,0.000004784000,  -3.60000,
,,,0.000004788000,  -3.60000,
,,,0.000004792000,  -3.60000,
,,,0.000004796000,  -3.60000,
,,,0.000004800000,  -3.60000,
,,,0.000004804000,  -3.60000,
,,,0.000004808000,  -3.60000,
,,,0.000004812000,  -3.60000,
,,,0.000004816000,  -3.60000,
,,,0.000004820000,  -3.60000,
,,,0.000004824000,  -3.60000,
,,,0.000004828000,  -3.60000,
,,,0.000004832000,  -3.60000,
,,,0.000004836000,  -3.60000,
,,,0.000004840000,  -3.68000,
,,,0.000004844000,  -3.60000,
,,,0.000004848000,  -3.60000,
,,,0.000004852000,  -3.60000,
,,,0.000004856000,  -3.68000,
,,,0.000004860000,  -3.68000,
,,,0.000004864000,  -3.68000,
,,,0.000004868000,  -3.68000,
,,,0.000004872000,  -3.68000,
,,,0.000004876000,  -3.68000,
,,,0.000004880000,  -3.68000,
,,,0.000004884000,  -3.68000,
,,,0.000004888000,  -3.68000,
,,,0.000004892000,  -3.68000,
,,,0.000004896000,  -3.60000,
,,,0.000004900000,  -3.68000,
,,,0.000004904000,  -3.68000,
,,,0.000004908000,  -3.68000,
,,,0.000004912000,  -3.68000,
,,,0.000004916000,  -3.68000,
,,,0.000004920000,  -3.68000,
,,,0.000004924000,  -3.68000,
,,,0.000004928000,  -3.68000,
,,,0.000004932000,  -3.68000,
,,,0.000004936000,  -3.68000,
,,,0.000004940000,  -3.68000,
,,,0.000004944000,  -3.68000,
,,,0.000004948000,  -3.68000,
,,,0.000004952000,  -3.68000,
,,,0.000004956000,  -3.68000,
,,,0.000004960000,  -3.68000,
,,,0.000004964000,  -3.68000,
,,,0.000004968000,  -3.68000,
,,,0.000004972000,  -3.68000,
,,,0.000004976000,  -3.68000,
,,,0.000004980000,  -3.68000,
,,,0.000004984000,  -3.68000,
,,,0.000004988000,  -3.68000,
,,,0.000004992000,  -3.68000,
,,,0.000004996000,  -3.68000,
,,,0.000005000000,  -3.68000,
,,,0.000005004000,  -3.76000,
,,,0.000005008000,  -3.76000,
,,,0.000005012000,  -3.68000,
,,,0.000005016000,  -3.68000,
,,,0.000005020000,  -3.76000,
,,,0.000005024000,  -3.76000,
,,,0.000005028000,  -3.68000,
,,,0.000005032000,  -3.68000,
,,,0.000005036000,  -3.76000,
,,,0.000005040000,  -3.76000,
,,,0.000005044000,  -3.68000,
,,,0.000005048000,  -3.68000,
,,,0.000005052000,  -3.68000,
,,,0.000005056000,  -3.76000,
,,,0.000005060000,  -3.68000,
,,,0.000005064000,  -3.76000,
,,,0.000005068000,  -3.68000,
,,,0.000005072000,  -3.76000,
,,,0.000005076000,  -3.68000,
,,,0.000005080000,  -3.76000,
,,,0.000005084000,  -3.68000,
,,,0.000005088000,  -3.76000,
,,,0.000005092000,  -3.76000,
,,,0.000005096000,  -3.76000,
,,,0.000005100000,  -3.68000,
,,,0.000005104000,  -3.76000,
,,,0.000005108000,  -3.68000,
,,,0.000005112000,  -3.76000,
,,,0.000005116000,  -3.76000,
,,,0.000005120000,  -3.76000,
,,,0.000005124000,  -3.76000,
,,,0.000005128000,  -3.76000,
,,,0.000005132000,  -3.68000,
,,,0.000005136000,  -3.76000,
,,,0.000005140000,  -3.76000,
,,,0.000005144000,  -3.68000,
,,,0.000005148000,  -3.68000,
,,,0.000005152000,  -3.76000,
,,,0.000005156000,  -3.76000,
,,,0.000005160000,  -3.68000,
,,,0.000005164000,  -3.76000,
,,,0.000005168000,  -3.76000,
,,,0.000005172000,  -3.76000,
,,,0.000005176000,  -3.68000,
,,,0.000005180000,  -3.76000,
,,,0.000005184000,  -3.68000,
,,,0.000005188000,  -3.68000,
,,,0.000005192000,  -3.68000,
,,,0.000005196000,  -3.76000,
,,,0.000005200000,  -3.68000,
,,,0.000005204000,  -3.76000,
,,,0.000005208000,  -3.68000,
,,,0.000005212000,  -3.76000,
,,,0.000005216000,  -3.68000,
,,,0.000005220000,  -3.68000,
,,,0.000005224000,  -3.68000,
,,,0.000005228000,  -3.68000,
,,,0.000005232000,  -3.68000,
,,,0.000005236000,  -3.68000,
,,,0.000005240000,  -3.68000,
,,,0.000005244000,  -3.68000,
,,,0.000005248000,  -3.68000,
,,,0.000005252000,  -3.76000,
,,,0.000005256000,  -3.68000,
,,,0.000005260000,  -3.68000,
,,,0.000005264000,  -3.68000,
,,,0.000005268000,  -3.68000,
,,,0.000005272000,  -3.68000,
,,,0.000005276000,  -3.68000,
,,,0.000005280000,  -3.68000,
,,,0.000005284000,  -3.68000,
,,,0.000005288000,  -3.68000,
,,,0.000005292000,  -3.68000,
,,,0.000005296000,  -3.68000,
,,,0.000005300000,  -3.68000,
,,,0.000005304000,  -3.68000,
,,,0.000005308000,  -3.60000,
,,,0.000005312000,  -3.68000,
,,,0.000005316000,  -3.68000,
,,,0.000005320000,  -3.68000,
,,,0.000005324000,  -3.60000,
,,,0.000005328000,  -3.68000,
,,,0.000005332000,  -3.60000,
,,,0.000005336000,  -3.68000,
,,,0.000005340000,  -3.60000,
,,,0.000005344000,  -3.60000,
,,,0.000005348000,  -3.60000,
,,,0.000005352000,  -3.68000,
,,,0.000005356000,  -3.60000,
,,,0.000005360000,  -3.60000,
,,,0.000005364000,  -3.60000,
,,,0.000005368000,  -3.60000,
,,,0.000005372000,  -3.60000,
