Circuiti_2/data/ALL0026/F0026CH2.CSV

Record Length,2.500000e+03,,  -0.000012000000,   0.06320,
Sample Interval,2.000000e-07,,  -0.000011800000,   0.06320,
Trigger Point,6.000000000000e+01,,  -0.000011600000,   0.06320,
,,,  -0.000011400000,   0.06320,
,,,  -0.000011200000,   0.06320,
,,,  -0.000011000000,   0.06320,
Source,CH2,,  -0.000010800000,   0.06320,
Vertical Units,V,,  -0.000010600000,   0.06320,
Vertical Scale,1.580000e+00,,  -0.000010400000,   0.06320,
Vertical Offset,-5.688000e+00,,  -0.000010200000,   0.06320,
Horizontal Units,s,,  -0.000010000000,   0.06320,
Horizontal Scale,5.000000e-05,,  -0.000009800000,   0.06320,
Pt Fmt,Y,,  -0.000009600000,   0.06320,
Yzero,0.000000e+00,,  -0.000009400000,   0.06320,
Probe Atten,1.000000e+01,,  -0.000009200000,   0.06320,
Model Number,TDS1001C-EDU,,  -0.000009000000,   0.06320,
Serial Number,C013086,,  -0.000008800000,   0.12640,
Firmware Version,FV:v25.07,,  -0.000008600000,   0.06320,
,,,-00.000008400000,   0.06320,
,,,-00.000008200000,   0.06320,
,,,-00.000008000000,   0.06320,
,,,-00.000007800000,   0.06320,
,,,-00.000007600000,   0.12640,
,,,-00.000007400000,   0.06320,
,,,-00.000007200000,   0.00000,
,,,-00.000007000000,   0.06320,
,,,-00.000006800000,   0.06320,
,,,-00.000006600000,   0.06320,
,,,-00.000006400000,   0.12640,
,,,-00.000006200000,   0.06320,
,,,-00.000006000000,   0.06320,
,,,-00.000005800000,   0.00000,
,,,-00.000005600000,   0.06320,
,,,-00.000005400000,   0.06320,
,,,-00.000005200000,   0.06320,
,,,-00.000005000000,   0.06320,
,,,-00.000004800000,   0.06320,
,,,-00.000004600000,   0.06320,
,,,-00.000004400000,   0.06320,
,,,-00.000004200000,   0.06320,
,,,-00.000004000000,   0.06320,
,,,-00.000003800000,   0.06320,
,,,-00.000003600000,   0.12640,
,,,-00.000003400000,   0.06320,
,,,-00.000003200000,   0.06320,
,,,-00.000003000000,   0.12640,
,,,-00.000002800000,   0.06320,
,,,-00.000002600000,   0.06320,
,,,-00.000002400000,   0.06320,
,,,-00.000002200000,   0.06320,
,,,-00.000002000000,   0.06320,
,,,-00.000001800000,   0.06320,
,,,-00.000001600000,   0.06320,
,,,-00.000001400000,   0.06320,
,,,-00.000001200000,   0.06320,
,,,-00.000001000000,   0.06320,
,,,-00.000000800000,   0.06320,
,,,-00.000000600000,   0.06320,
,,,-00.000000400000,   0.06320,
,,,-00.000000200000,   0.06320,
,,,-00.000000000000,   0.06320,
,,,00.000000200000,   0.06320,
,,,00.000000400000,   0.06320,
,,,00.000000600000,   0.06320,
,,,00.000000800000,   0.06320,
,,,00.000001000000,   0.06320,
,,,00.000001200000,   0.31600,
,,,00.000001400000,   0.94800,
,,,00.000001600000,   0.37920,
,,,00.000001800000,   0.31600,
,,,00.000002000000,   0.50560,
,,,00.000002200000,   0.56880,
,,,00.000002400000,   0.69520,
,,,00.000002600000,   0.82160,
,,,00.000002800000,   0.94800,
,,,00.000003000000,   1.01120,
,,,00.000003200000,   1.13760,
,,,00.000003400000,   1.32720,
,,,00.000003600000,   1.39040,
,,,00.000003800000,   1.51680,
,,,00.000004000000,   1.58000,
,,,00.000004200000,   1.70640,
,,,00.000004400000,   1.89600,
,,,00.000004600000,   1.95920,
,,,00.000004800000,   2.02240,
,,,00.000005000000,   2.14880,
,,,00.000005200000,   2.27520,
,,,00.000005400000,   2.40160,
,,,00.000005600000,   2.46480,
,,,00.000005800000,   2.59120,
,,,00.000006000000,   2.71760,
,,,00.000006200000,   2.78080,
,,,00.000006400000,   2.90720,
,,,00.000006600000,   3.03360,
,,,00.000006800000,   3.09680,
,,,00.000007000000,   3.22320,
,,,00.000007200000,   3.28640,
,,,00.000007400000,   3.41280,
,,,00.000007600000,   3.47600,
,,,00.000007800000,   3.60240,
,,,00.000008000000,   3.66560,
,,,00.000008200000,   3.79200,
,,,00.000008400000,   3.91840,
,,,00.000008600000,   3.91840,
,,,00.000008800000,   4.04480,
,,,00.000009000000,   4.17120,
,,,00.000009200000,   4.23440,
,,,00.000009400000,   4.29760,
,,,00.000009600000,   4.42400,
,,,00.000009800000,   4.48720,
,,,00.000010000000,   4.55040,
,,,00.000010200000,   4.67680,
,,,00.000010400000,   4.80320,
,,,00.000010600000,   4.86640,
,,,00.000010800000,   4.92960,
,,,00.000011000000,   5.05600,
,,,00.000011200000,   5.05600,
,,,00.000011400000,   5.11920,
,,,00.000011600000,   5.24560,
,,,00.000011800000,   5.30880,
,,,00.000012000000,   5.37200,
,,,00.000012200000,   5.49840,
,,,00.000012400000,   5.56160,
,,,00.000012600000,   5.62480,
,,,00.000012800000,   5.68800,
,,,00.000013000000,   5.75120,
,,,00.000013200000,   5.81440,
,,,00.000013400000,   5.94080,
,,,00.000013600000,   6.00400,
,,,00.000013800000,   6.13040,
,,,00.000014000000,   6.13040,
,,,00.000014200000,   6.19360,
,,,00.000014400000,   6.32000,
,,,00.000014600000,   6.38320,
,,,00.000014800000,   6.44640,
,,,00.000015000000,   6.50960,
,,,00.000015200000,   6.50960,
,,,00.000015400000,   6.63600,
,,,00.000015600000,   6.69920,
,,,00.000015800000,   6.76240,
,,,00.000016000000,   6.82560,
,,,00.000016200000,   6.88880,
,,,00.000016400000,   7.01520,
,,,00.000016600000,   7.01520,
,,,00.000016800000,   7.07840,
,,,00.000017000000,   7.14160,
,,,00.000017200000,   7.20480,
,,,00.000017400000,   7.26800,
,,,00.000017600000,   7.33120,
,,,00.000017800000,   7.39440,
,,,00.000018000000,   7.45760,
,,,00.000018200000,   7.52080,
,,,00.000018400000,   7.58400,
,,,00.000018600000,   7.58400,
,,,00.000018800000,   7.71040,
,,,00.000019000000,   7.71040,
,,,00.000019200000,   7.77360,
,,,00.000019400000,   7.83680,
,,,00.000019600000,   7.90000,
,,,00.000019800000,   7.96320,
,,,00.000020000000,   7.96320,
,,,00.000020200000,   8.02640,
,,,00.000020400000,   8.15280,
,,,00.000020600000,   8.15280,
,,,00.000020800000,   8.21600,
,,,00.000021000000,   8.27920,
,,,00.000021200000,   8.34240,
,,,00.000021400000,   8.34240,
,,,00.000021600000,   8.40560,
,,,00.000021800000,   8.46880,
,,,00.000022000000,   8.46880,
,,,00.000022200000,   8.53200,
,,,00.000022400000,   8.59520,
,,,00.000022600000,   8.65840,
,,,00.000022800000,   8.72160,
,,,00.000023000000,   8.78480,
,,,00.000023200000,   8.78480,
,,,00.000023400000,   8.84800,
,,,00.000023600000,   8.84800,
,,,00.000023800000,   8.91120,
,,,00.000024000000,   8.91120,
,,,00.000024200000,   9.03760,
,,,00.000024400000,   9.03760,
,,,00.000024600000,   9.10080,
,,,00.000024800000,   9.10080,
,,,00.000025000000,   9.16400,
,,,00.000025200000,   9.22720,
,,,00.000025400000,   9.22720,
,,,00.000025600000,   9.29040,
,,,00.000025800000,   9.35360,
,,,00.000026000000,   9.35360,
,,,00.000026200000,   9.35360,
,,,00.000026400000,   9.41680,
,,,00.000026600000,   9.48000,
,,,00.000026800000,   9.48000,
,,,00.000027000000,   9.54320,
,,,00.000027200000,   9.54320,
,,,00.000027400000,   9.60640,
,,,00.000027600000,   9.60640,
,,,00.000027800000,   9.66960,
,,,00.000028000000,   9.66960,
,,,00.000028200000,   9.73280,
,,,00.000028400000,   9.79600,
,,,00.000028600000,   9.79600,
,,,00.000028800000,   9.79600,
,,,00.000029000000,   9.85920,
,,,00.000029200000,   9.92240,
,,,00.000029400000,   9.92240,
,,,00.000029600000,   9.92240,
,,,00.000029800000,   9.98560,
,,,00.000030000000,   9.98560,
,,,00.000030200000,  10.04880,
,,,00.000030400000,  10.04880,
,,,00.000030600000,  10.11200,
,,,00.000030800000,  10.11200,
,,,00.000031000000,  10.17520,
,,,00.000031200000,  10.17520,
,,,00.000031400000,  10.17520,
,,,00.000031600000,  10.23840,
,,,00.000031800000,  10.23840,
,,,00.000032000000,  10.23840,
,,,00.000032200000,  10.36480,
,,,00.000032400000,  10.30160,
,,,00.000032600000,  10.36480,
,,,00.000032800000,  10.36480,
,,,00.000033000000,  10.36480,
,,,00.000033200000,  10.42800,
,,,00.000033400000,  10.49120,
,,,00.000033600000,  10.49120,
,,,00.000033800000,  10.49120,
,,,00.000034000000,  10.49120,
,,,00.000034200000,  10.55440,
,,,00.000034400000,  10.55440,
,,,00.000034600000,  10.61760,
,,,00.000034800000,  10.68080,
,,,00.000035000000,  10.61760,
,,,00.000035200000,  10.61760,
,,,00.000035400000,  10.68080,
,,,00.000035600000,  10.68080,
,,,00.000035800000,  10.68080,
,,,00.000036000000,  10.74400,
,,,00.000036200000,  10.80720,
,,,00.000036400000,  10.74400,
,,,00.000036600000,  10.80720,
,,,00.000036800000,  10.80720,
,,,00.000037000000,  10.80720,
,,,00.000037200000,  10.80720,
,,,00.000037400000,  10.80720,
,,,00.000037600000,  10.87040,
,,,00.000037800000,  10.87040,
,,,00.000038000000,  10.87040,
,,,00.000038200000,  10.87040,
,,,00.000038400000,  10.93360,
,,,00.000038600000,  10.93360,
,,,00.000038800000,  10.99680,
,,,00.000039000000,  10.99680,
,,,00.000039200000,  10.99680,
,,,00.000039400000,  11.06000,
,,,00.000039600000,  10.99680,
,,,00.000039800000,  11.06000,
,,,00.000040000000,  10.99680,
,,,00.000040200000,  11.06000,
,,,00.000040400000,  11.06000,
,,,00.000040600000,  11.06000,
,,,00.000040800000,  11.12320,
,,,00.000041000000,  11.06000,
,,,00.000041200000,  11.06000,
,,,00.000041400000,  11.06000,
,,,00.000041600000,  11.12320,
,,,00.000041800000,  11.18640,
,,,00.000042000000,  11.18640,
,,,00.000042200000,  11.18640,
,,,00.000042400000,  11.18640,
,,,00.000042600000,  11.18640,
,,,00.000042800000,  11.18640,
,,,00.000043000000,  11.18640,
,,,00.000043200000,  11.18640,
,,,00.000043400000,  11.18640,
,,,00.000043600000,  11.24960,
,,,00.000043800000,  11.18640,
,,,00.000044000000,  11.24960,
,,,00.000044200000,  11.31280,
,,,00.000044400000,  11.24960,
,,,00.000044600000,  11.24960,
,,,00.000044800000,  11.31280,
,,,00.000045000000,  11.24960,
,,,00.000045200000,  11.31280,
,,,00.000045400000,  11.24960,
,,,00.000045600000,  11.31280,
,,,00.000045800000,  11.31280,
,,,00.000046000000,  11.24960,
,,,00.000046200000,  11.31280,
,,,00.000046400000,  11.31280,
,,,00.000046600000,  11.37600,
,,,00.000046800000,  11.31280,
,,,00.000047000000,  11.31280,
,,,00.000047200000,  11.31280,
,,,00.000047400000,  11.31280,
,,,00.000047600000,  11.31280,
,,,00.000047800000,  11.31280,
,,,00.000048000000,  11.31280,
,,,00.000048200000,  11.31280,
,,,00.000048400000,  11.31280,
,,,00.000048600000,  11.31280,
,,,00.000048800000,  11.31280,
,,,00.000049000000,  11.37600,
,,,00.000049200000,  11.37600,
,,,00.000049400000,  11.31280,
,,,00.000049600000,  11.37600,
,,,00.000049800000,  11.37600,
,,,00.000050000000,  11.37600,
,,,00.000050200000,  11.37600,
,,,00.000050400000,  11.37600,
,,,00.000050600000,  11.37600,
,,,00.000050800000,  11.31280,
,,,00.000051000000,  11.31280,
,,,00.000051200000,  11.37600,
,,,00.000051400000,  11.37600,
,,,00.000051600000,  11.37600,
,,,00.000051800000,  11.37600,
,,,00.000052000000,  11.37600,
,,,00.000052200000,  11.37600,
,,,00.000052400000,  11.37600,
,,,00.000052600000,  11.31280,
,,,00.000052800000,  11.31280,
,,,00.000053000000,  11.37600,
,,,00.000053200000,  11.37600,
,,,00.000053400000,  11.31280,
,,,00.000053600000,  11.31280,
,,,00.000053800000,  11.31280,
,,,00.000054000000,  11.31280,
,,,00.000054200000,  11.37600,
,,,00.000054400000,  11.31280,
,,,00.000054600000,  11.31280,
,,,00.000054800000,  11.31280,
,,,00.000055000000,  11.31280,
,,,00.000055200000,  11.31280,
,,,00.000055400000,  11.31280,
,,,00.000055600000,  11.31280,
,,,00.000055800000,  11.31280,
,,,00.000056000000,  11.24960,
,,,00.000056200000,  11.31280,
,,,00.000056400000,  11.31280,
,,,00.000056600000,  11.31280,
,,,00.000056800000,  11.24960,
,,,00.000057000000,  11.24960,
,,,00.000057200000,  11.31280,
,,,00.000057400000,  11.24960,
,,,00.000057600000,  11.24960,
,,,00.000057800000,  11.24960,
,,,00.000058000000,  11.24960,
,,,00.000058200000,  11.24960,
,,,00.000058400000,  11.24960,
,,,00.000058600000,  11.18640,
,,,00.000058800000,  11.24960,
,,,00.000059000000,  11.18640,
,,,00.000059200000,  11.24960,
,,,00.000059400000,  11.18640,
,,,00.000059600000,  11.18640,
,,,00.000059800000,  11.18640,
,,,00.000060000000,  11.18640,
,,,00.000060200000,  11.18640,
,,,00.000060400000,  11.12320,
,,,00.000060600000,  11.18640,
,,,00.000060800000,  11.12320,
,,,00.000061000000,  11.12320,
,,,00.000061200000,  11.12320,
,,,00.000061400000,  11.12320,
,,,00.000061600000,  11.12320,
,,,00.000061800000,  11.12320,
,,,00.000062000000,  11.12320,
,,,00.000062200000,  11.12320,
,,,00.000062400000,  11.06000,
,,,00.000062600000,  11.06000,
,,,00.000062800000,  11.06000,
,,,00.000063000000,  11.06000,
,,,00.000063200000,  11.06000,
,,,00.000063400000,  11.06000,
,,,00.000063600000,  10.99680,
,,,00.000063800000,  11.06000,
,,,00.000064000000,  10.99680,
,,,00.000064200000,  10.99680,
,,,00.000064400000,  10.99680,
,,,00.000064600000,  10.99680,
,,,00.000064800000,  10.99680,
,,,00.000065000000,  10.93360,
,,,00.000065200000,  10.93360,
,,,00.000065400000,  10.93360,
,,,00.000065600000,  10.93360,
,,,00.000065800000,  10.93360,
,,,00.000066000000,  10.87040,
,,,00.000066200000,  10.93360,
,,,00.000066400000,  10.87040,
,,,00.000066600000,  10.87040,
,,,00.000066800000,  10.87040,
,,,00.000067000000,  10.87040,
,,,00.000067200000,  10.80720,
,,,00.000067400000,  10.80720,
,,,00.000067600000,  10.80720,
,,,00.000067800000,  10.80720,
,,,00.000068000000,  10.80720,
,,,00.000068200000,  10.80720,
,,,00.000068400000,  10.74400,
,,,00.000068600000,  10.74400,
,,,00.000068800000,  10.74400,
,,,00.000069000000,  10.74400,
,,,00.000069200000,  10.74400,
,,,00.000069400000,  10.68080,
,,,00.000069600000,  10.74400,
,,,00.000069800000,  10.68080,
,,,00.000070000000,  10.68080,
,,,00.000070200000,  10.68080,
,,,00.000070400000,  10.68080,
,,,00.000070600000,  10.61760,
,,,00.000070800000,  10.61760,
,,,00.000071000000,  10.61760,
,,,00.000071200000,  10.61760,
,,,00.000071400000,  10.61760,
,,,00.000071600000,  10.61760,
,,,00.000071800000,  10.55440,
,,,00.000072000000,  10.55440,
,,,00.000072200000,  10.55440,
,,,00.000072400000,  10.49120,
,,,00.000072600000,  10.49120,
,,,00.000072800000,  10.49120,
,,,00.000073000000,  10.49120,
,,,00.000073200000,  10.49120,
,,,00.000073400000,  10.42800,
,,,00.000073600000,  10.42800,
,,,00.000073800000,  10.42800,
,,,00.000074000000,  10.42800,
,,,00.000074200000,  10.42800,
,,,00.000074400000,  10.42800,
,,,00.000074600000,  10.36480,
,,,00.000074800000,  10.36480,
,,,00.000075000000,  10.36480,
,,,00.000075200000,  10.30160,
,,,00.000075400000,  10.30160,
,,,00.000075600000,  10.36480,
,,,00.000075800000,  10.30160,
,,,00.000076000000,  10.30160,
,,,00.000076200000,  10.30160,
,,,00.000076400000,  10.30160,
,,,00.000076600000,  10.30160,
,,,00.000076800000,  10.23840,
,,,00.000077000000,  10.23840,
,,,00.000077200000,  10.17520,
,,,00.000077400000,  10.17520,
,,,00.000077600000,  10.17520,
,,,00.000077800000,  10.17520,
,,,00.000078000000,  10.17520,
,,,00.000078200000,  10.17520,
,,,00.000078400000,  10.11200,
,,,00.000078600000,  10.11200,
,,,00.000078800000,  10.11200,
,,,00.000079000000,  10.04880,
,,,00.000079200000,  10.04880,
,,,00.000079400000,  10.04880,
,,,00.000079600000,  10.04880,
,,,00.000079800000,  10.04880,
,,,00.000080000000,   9.98560,
,,,00.000080200000,   9.98560,
,,,00.000080400000,   9.98560,
,,,00.000080600000,   9.92240,
,,,00.000080800000,   9.92240,
,,,00.000081000000,   9.85920,
,,,00.000081200000,   9.92240,
,,,00.000081400000,   9.92240,
,,,00.000081600000,   9.85920,
,,,00.000081800000,   9.85920,
,,,00.000082000000,   9.85920,
,,,00.000082200000,   9.85920,
,,,00.000082400000,   9.79600,
,,,00.000082600000,   9.79600,
,,,00.000082800000,   9.79600,
,,,00.000083000000,   9.79600,
,,,00.000083200000,   9.79600,
,,,00.000083400000,   9.73280,
,,,00.000083600000,   9.73280,
,,,00.000083800000,   9.73280,
,,,00.000084000000,   9.73280,
,,,00.000084200000,   9.66960,
,,,00.000084400000,   9.66960,
,,,00.000084600000,   9.66960,
,,,00.000084800000,   9.66960,
,,,00.000085000000,   9.60640,
,,,00.000085200000,   9.60640,
,,,00.000085400000,   9.60640,
,,,00.000085600000,   9.54320,
,,,00.000085800000,   9.54320,
,,,00.000086000000,   9.54320,
,,,00.000086200000,   9.48000,
,,,00.000086400000,   9.48000,
,,,00.000086600000,   9.48000,
,,,00.000086800000,   9.48000,
,,,00.000087000000,   9.48000,
,,,00.000087200000,   9.41680,
,,,00.000087400000,   9.41680,
,,,00.000087600000,   9.35360,
,,,00.000087800000,   9.35360,
,,,00.000088000000,   9.35360,
,,,00.000088200000,   9.35360,
,,,00.000088400000,   9.35360,
,,,00.000088600000,   9.29040,
,,,00.000088800000,   9.35360,
,,,00.000089000000,   9.29040,
,,,00.000089200000,   9.29040,
,,,00.000089400000,   9.29040,
,,,00.000089600000,   9.29040,
,,,00.000089800000,   9.22720,
,,,00.000090000000,   9.22720,
,,,00.000090200000,   9.16400,
,,,00.000090400000,   9.22720,
,,,00.000090600000,   9.16400,
,,,00.000090800000,   9.16400,
,,,00.000091000000,   9.16400,
,,,00.000091200000,   9.16400,
,,,00.000091400000,   9.10080,
,,,00.000091600000,   9.10080,
,,,00.000091800000,   9.10080,
,,,00.000092000000,   9.10080,
,,,00.000092200000,   9.10080,
,,,00.000092400000,   9.03760,
,,,00.000092600000,   9.03760,
,,,00.000092800000,   8.97440,
,,,00.000093000000,   8.97440,
,,,00.000093200000,   8.97440,
,,,00.000093400000,   8.91120,
,,,00.000093600000,   8.91120,
,,,00.000093800000,   8.91120,
,,,00.000094000000,   8.91120,
,,,00.000094200000,   8.91120,
,,,00.000094400000,   8.91120,
,,,00.000094600000,   8.84800,
,,,00.000094800000,   8.84800,
,,,00.000095000000,   8.84800,
,,,00.000095200000,   8.78480,
,,,00.000095400000,   8.78480,
,,,00.000095600000,   8.78480,
,,,00.000095800000,   8.72160,
,,,00.000096000000,   8.72160,
,,,00.000096200000,   8.72160,
,,,00.000096400000,   8.65840,
,,,00.000096600000,   8.65840,
,,,00.000096800000,   8.65840,
,,,00.000097000000,   8.65840,
,,,00.000097200000,   8.65840,
,,,00.000097400000,   8.65840,
,,,00.000097600000,   8.59520,
,,,00.000097800000,   8.59520,
,,,00.000098000000,   8.59520,
,,,00.000098200000,   8.59520,
,,,00.000098400000,   8.59520,
,,,00.000098600000,   8.53200,
,,,00.000098800000,   8.53200,
,,,00.000099000000,   8.46880,
,,,00.000099200000,   8.46880,
,,,00.000099400000,   8.46880,
,,,00.000099600000,   8.46880,
,,,00.000099800000,   8.46880,
,,,00.000100000000,   8.40560,
,,,00.000100200000,   8.40560,
,,,00.000100400000,   8.40560,
,,,00.000100600000,   8.34240,
,,,00.000100800000,   8.34240,
,,,00.000101000000,   8.34240,
,,,00.000101200000,   8.34240,
,,,00.000101400000,   8.27920,
,,,00.000101600000,   8.27920,
,,,00.000101800000,   8.21600,
,,,00.000102000000,   8.21600,
,,,00.000102200000,   8.27920,
,,,00.000102400000,   8.21600,
,,,00.000102600000,   8.21600,
,,,00.000102800000,   8.21600,
,,,00.000103000000,   8.15280,
,,,00.000103200000,   8.15280,
,,,00.000103400000,   8.15280,
,,,00.000103600000,   8.08960,
,,,00.000103800000,   8.08960,
,,,00.000104000000,   8.08960,
,,,00.000104200000,   8.08960,
,,,00.000104400000,   8.02640,
,,,00.000104600000,   8.02640,
,,,00.000104800000,   8.02640,
,,,00.000105000000,   8.02640,
,,,00.000105200000,   8.02640,
,,,00.000105400000,   8.02640,
,,,00.000105600000,   8.02640,
,,,00.000105800000,   7.96320,
,,,00.000106000000,   7.96320,
,,,00.000106200000,   7.90000,
,,,00.000106400000,   7.90000,
,,,00.000106600000,   7.90000,
,,,00.000106800000,   7.90000,
,,,00.000107000000,   7.83680,
,,,00.000107200000,   7.83680,
,,,00.000107400000,   7.83680,
,,,00.000107600000,   7.83680,
,,,00.000107800000,   7.77360,
,,,00.000108000000,   7.77360,
,,,00.000108200000,   7.77360,
,,,00.000108400000,   7.77360,
,,,00.000108600000,   7.71040,
,,,00.000108800000,   7.64720,
,,,00.000109000000,   7.64720,
,,,00.000109200000,   7.64720,
,,,00.000109400000,   7.71040,
,,,00.000109600000,   7.64720,
,,,00.000109800000,   7.64720,
,,,00.000110000000,   7.64720,
,,,00.000110200000,   7.58400,
,,,00.000110400000,   7.58400,
,,,00.000110600000,   7.52080,
,,,00.000110800000,   7.52080,
,,,00.000111000000,   7.52080,
,,,00.000111200000,   7.52080,
,,,00.000111400000,   7.52080,
,,,00.000111600000,   7.45760,
,,,00.000111800000,   7.52080,
,,,00.000112000000,   7.45760,
,,,00.000112200000,   7.45760,
,,,00.000112400000,   7.45760,
,,,00.000112600000,   7.39440,
,,,00.000112800000,   7.39440,
,,,00.000113000000,   7.33120,
,,,00.000113200000,   7.33120,
,,,00.000113400000,   7.33120,
,,,00.000113600000,   7.33120,
,,,00.000113800000,   7.26800,
,,,00.000114000000,   7.26800,
,,,00.000114200000,   7.33120,
