Circuiti_2/data/ALL0006/F0006CH2.CSV

Record Length,2.500000e+03,,  -0.000044000000,  -0.11360,
Sample Interval,4.000000e-07,,  -0.000043600000,  -0.34080,
Trigger Point,1.100000000000e+02,,  -0.000043200000,  -0.45440,
,,,  -0.000042800000,  -0.45440,
,,,  -0.000042400000,  -0.22720,
,,,  -0.000042000000,  -0.34080,
Source,CH2,,  -0.000041600000,  -0.11360,
Vertical Units,V,,  -0.000041200000,  -0.22720,
Vertical Scale,2.840000e+00,,  -0.000040800000,  -0.34080,
Vertical Offset,-7.952000e+00,,  -0.000040400000,  -0.34080,
Horizontal Units,s,,  -0.000040000000,  -0.45440,
Horizontal Scale,1.000000e-04,,  -0.000039600000,  -0.22720,
Pt Fmt,Y,,  -0.000039200000,  -0.45440,
Yzero,0.000000e+00,,  -0.000038800000,  -0.56800,
Probe Atten,1.000000e+01,,  -0.000038400000,  -0.22720,
Model Number,TDS1001C-EDU,,  -0.000038000000,  -0.34080,
Serial Number,C013086,,  -0.000037600000,  -0.34080,
Firmware Version,FV:v25.07,,  -0.000037200000,  -0.45440,
,,,-00.000036800000,  -0.22720,
,,,-00.000036400000,  -0.22720,
,,,-00.000036000000,  -0.11360,
,,,-00.000035600000,  -0.45440,
,,,-00.000035200000,  -0.34080,
,,,-00.000034800000,  -0.34080,
,,,-00.000034400000,  -0.22720,
,,,-00.000034000000,  -0.34080,
,,,-00.000033600000,  -0.22720,
,,,-00.000033200000,  -0.34080,
,,,-00.000032800000,  -0.34080,
,,,-00.000032400000,  -0.34080,
,,,-00.000032000000,  -0.11360,
,,,-00.000031600000,  -0.34080,
,,,-00.000031200000,  -0.34080,
,,,-00.000030800000,  -0.22720,
,,,-00.000030400000,  -0.34080,
,,,-00.000030000000,  -0.11360,
,,,-00.000029600000,  -0.45440,
,,,-00.000029200000,  -0.11360,
,,,-00.000028800000,  -0.45440,
,,,-00.000028400000,  -0.34080,
,,,-00.000028000000,  -0.45440,
,,,-00.000027600000,  -0.34080,
,,,-00.000027200000,  -0.56800,
,,,-00.000026800000,  -0.22720,
,,,-00.000026400000,  -0.34080,
,,,-00.000026000000,  -0.22720,
,,,-00.000025600000,  -0.45440,
,,,-00.000025200000,  -0.11360,
,,,-00.000024800000,  -0.45440,
,,,-00.000024400000,  -0.34080,
,,,-00.000024000000,  -0.34080,
,,,-00.000023600000,  -0.45440,
,,,-00.000023200000,  -0.45440,
,,,-00.000022800000,  -0.45440,
,,,-00.000022400000,  -0.34080,
,,,-00.000022000000,  -0.34080,
,,,-00.000021600000,  -0.45440,
,,,-00.000021200000,  -0.68160,
,,,-00.000020800000,  -0.68160,
,,,-00.000020400000,  -0.11360,
,,,-00.000020000000,  -0.11360,
,,,-00.000019600000,  -0.34080,
,,,-00.000019200000,  -0.11360,
,,,-00.000018800000,  -0.34080,
,,,-00.000018400000,  -0.22720,
,,,-00.000018000000,  -0.34080,
,,,-00.000017600000,  -0.45440,
,,,-00.000017200000,  -0.22720,
,,,-00.000016800000,  -0.22720,
,,,-00.000016400000,  -0.22720,
,,,-00.000016000000,  -0.34080,
,,,-00.000015600000,  -0.34080,
,,,-00.000015200000,  -0.45440,
,,,-00.000014800000,  -0.45440,
,,,-00.000014400000,  -0.34080,
,,,-00.000014000000,  -0.56800,
,,,-00.000013600000,  -0.34080,
,,,-00.000013200000,  -0.34080,
,,,-00.000012800000,  -0.22720,
,,,-00.000012400000,  -0.45440,
,,,-00.000012000000,  -0.34080,
,,,-00.000011600000,  -0.22720,
,,,-00.000011200000,  -0.22720,
,,,-00.000010800000,  -0.22720,
,,,-00.000010400000,  -0.11360,
,,,-00.000010000000,  -0.22720,
,,,-00.000009600000,   0.00000,
,,,-00.000009200000,  -0.56800,
,,,-00.000008800000,  -0.11360,
,,,-00.000008400000,  -0.45440,
,,,-00.000008000000,  -0.11360,
,,,-00.000007600000,  -0.34080,
,,,-00.000007200000,  -0.11360,
,,,-00.000006800000,  -0.22720,
,,,-00.000006400000,  -0.34080,
,,,-00.000006000000,  -0.34080,
,,,-00.000005600000,  -0.45440,
,,,-00.000005200000,  -0.34080,
,,,-00.000004800000,  -0.22720,
,,,-00.000004400000,  -0.34080,
,,,-00.000004000000,  -0.34080,
,,,-00.000003600000,  -0.45440,
,,,-00.000003200000,  -0.22720,
,,,-00.000002800000,  -0.11360,
,,,-00.000002400000,  -0.22720,
,,,-00.000002000000,  -0.34080,
,,,-00.000001600000,  -0.22720,
,,,-00.000001200000,  -0.11360,
,,,-00.000000800000,  -0.45440,
,,,-00.000000400000,  -0.34080,
,,,-00.000000000000,  -0.45440,
,,,00.000000400000,  -0.34080,
,,,00.000000800000,  -0.22720,
,,,00.000001200000,  -0.11360,
,,,00.000001600000,  -0.22720,
,,,00.000002000000,  -0.45440,
,,,00.000002400000,  -0.22720,
,,,00.000002800000,  15.67680,
,,,00.000003200000,  15.33600,
,,,00.000003600000,  15.44960,
,,,00.000004000000,  15.22240,
,,,00.000004400000,  15.22240,
,,,00.000004800000,  15.10880,
,,,00.000005200000,  15.10880,
,,,00.000005600000,  15.22240,
,,,00.000006000000,  15.22240,
,,,00.000006400000,  14.99520,
,,,00.000006800000,  15.10880,
,,,00.000007200000,  15.10880,
,,,00.000007600000,  14.99520,
,,,00.000008000000,  14.99520,
,,,00.000008400000,  14.76800,
,,,00.000008800000,  14.76800,
,,,00.000009200000,  14.99520,
,,,00.000009600000,  14.88160,
,,,00.000010000000,  14.88160,
,,,00.000010400000,  14.65440,
,,,00.000010800000,  14.65440,
,,,00.000011200000,  14.54080,
,,,00.000011600000,  14.65440,
,,,00.000012000000,  14.76800,
,,,00.000012400000,  14.65440,
,,,00.000012800000,  14.65440,
,,,00.000013200000,  14.65440,
,,,00.000013600000,  14.76800,
,,,00.000014000000,  14.54080,
,,,00.000014400000,  14.65440,
,,,00.000014800000,  14.54080,
,,,00.000015200000,  14.54080,
,,,00.000015600000,  14.54080,
,,,00.000016000000,  14.20000,
,,,00.000016400000,  14.31360,
,,,00.000016800000,  14.31360,
,,,00.000017200000,  14.20000,
,,,00.000017600000,  14.20000,
,,,00.000018000000,  14.08640,
,,,00.000018400000,  14.08640,
,,,00.000018800000,  14.42720,
,,,00.000019200000,  13.97280,
,,,00.000019600000,  14.08640,
,,,00.000020000000,  14.08640,
,,,00.000020400000,  14.08640,
,,,00.000020800000,  13.85920,
,,,00.000021200000,  14.08640,
,,,00.000021600000,  14.20000,
,,,00.000022000000,  13.97280,
,,,00.000022400000,  14.08640,
,,,00.000022800000,  13.74560,
,,,00.000023200000,  13.74560,
,,,00.000023600000,  13.85920,
,,,00.000024000000,  13.74560,
,,,00.000024400000,  13.97280,
,,,00.000024800000,  13.74560,
,,,00.000025200000,  13.63200,
,,,00.000025600000,  13.97280,
,,,00.000026000000,  14.08640,
,,,00.000026400000,  13.63200,
,,,00.000026800000,  13.40480,
,,,00.000027200000,  13.51840,
,,,00.000027600000,  13.63200,
,,,00.000028000000,  13.51840,
,,,00.000028400000,  13.74560,
,,,00.000028800000,  13.63200,
,,,00.000029200000,  13.29120,
,,,00.000029600000,  13.51840,
,,,00.000030000000,  13.40480,
,,,00.000030400000,  13.51840,
,,,00.000030800000,  13.40480,
,,,00.000031200000,  13.40480,
,,,00.000031600000,  13.29120,
,,,00.000032000000,  13.40480,
,,,00.000032400000,  13.29120,
,,,00.000032800000,  13.17760,
,,,00.000033200000,  12.95040,
,,,00.000033600000,  13.17760,
,,,00.000034000000,  13.17760,
,,,00.000034400000,  13.17760,
,,,00.000034800000,  13.17760,
,,,00.000035200000,  13.06400,
,,,00.000035600000,  12.95040,
,,,00.000036000000,  13.06400,
,,,00.000036400000,  12.95040,
,,,00.000036800000,  13.06400,
,,,00.000037200000,  12.95040,
,,,00.000037600000,  12.95040,
,,,00.000038000000,  12.83680,
,,,00.000038400000,  12.95040,
,,,00.000038800000,  12.95040,
,,,00.000039200000,  12.95040,
,,,00.000039600000,  12.72320,
,,,00.000040000000,  12.95040,
,,,00.000040400000,  12.83680,
,,,00.000040800000,  12.60960,
,,,00.000041200000,  12.83680,
,,,00.000041600000,  12.60960,
,,,00.000042000000,  12.60960,
,,,00.000042400000,  12.49600,
,,,00.000042800000,  12.49600,
,,,00.000043200000,  12.60960,
,,,00.000043600000,  12.60960,
,,,00.000044000000,  12.60960,
,,,00.000044400000,  12.38240,
,,,00.000044800000,  12.49600,
,,,00.000045200000,  12.38240,
,,,00.000045600000,  12.26880,
,,,00.000046000000,  12.15520,
,,,00.000046400000,  12.38240,
,,,00.000046800000,  12.26880,
,,,00.000047200000,  12.26880,
,,,00.000047600000,  12.15520,
,,,00.000048000000,  12.38240,
,,,00.000048400000,  12.26880,
,,,00.000048800000,  12.38240,
,,,00.000049200000,  12.15520,
,,,00.000049600000,  12.15520,
,,,00.000050000000,  12.04160,
,,,00.000050400000,  12.15520,
,,,00.000050800000,  11.81440,
,,,00.000051200000,  11.92800,
,,,00.000051600000,  12.04160,
,,,00.000052000000,  12.04160,
,,,00.000052400000,  11.81440,
,,,00.000052800000,  11.92800,
,,,00.000053200000,  12.04160,
,,,00.000053600000,  11.81440,
,,,00.000054000000,  12.15520,
,,,00.000054400000,  11.70080,
,,,00.000054800000,  11.58720,
,,,00.000055200000,  11.92800,
,,,00.000055600000,  11.70080,
,,,00.000056000000,  11.70080,
,,,00.000056400000,  11.81440,
,,,00.000056800000,  11.70080,
,,,00.000057200000,  11.81440,
,,,00.000057600000,  11.70080,
,,,00.000058000000,  11.47360,
,,,00.000058400000,  11.70080,
,,,00.000058800000,  11.81440,
,,,00.000059200000,  11.70080,
,,,00.000059600000,  11.58720,
,,,00.000060000000,  11.47360,
,,,00.000060400000,  11.70080,
,,,00.000060800000,  11.47360,
,,,00.000061200000,  11.47360,
,,,00.000061600000,  11.36000,
,,,00.000062000000,  11.58720,
,,,00.000062400000,  11.47360,
,,,00.000062800000,  11.58720,
,,,00.000063200000,  11.24640,
,,,00.000063600000,  11.24640,
,,,00.000064000000,  11.47360,
,,,00.000064400000,  11.24640,
,,,00.000064800000,  11.24640,
,,,00.000065200000,  11.13280,
,,,00.000065600000,  11.13280,
,,,00.000066000000,  11.13280,
,,,00.000066400000,  11.36000,
,,,00.000066800000,  11.36000,
,,,00.000067200000,  11.01920,
,,,00.000067600000,  11.24640,
,,,00.000068000000,  11.13280,
,,,00.000068400000,  11.01920,
,,,00.000068800000,  11.13280,
,,,00.000069200000,  11.01920,
,,,00.000069600000,  11.13280,
,,,00.000070000000,  10.79200,
,,,00.000070400000,  10.79200,
,,,00.000070800000,  10.79200,
,,,00.000071200000,  10.90560,
,,,00.000071600000,  11.01920,
,,,00.000072000000,  10.79200,
,,,00.000072400000,  10.79200,
,,,00.000072800000,  10.67840,
,,,00.000073200000,  10.79200,
,,,00.000073600000,  10.67840,
,,,00.000074000000,  10.79200,
,,,00.000074400000,  10.90560,
,,,00.000074800000,  10.79200,
,,,00.000075200000,  10.56480,
,,,00.000075600000,  10.67840,
,,,00.000076000000,  10.67840,
,,,00.000076400000,  10.67840,
,,,00.000076800000,  10.56480,
,,,00.000077200000,  10.79200,
,,,00.000077600000,  10.67840,
,,,00.000078000000,  10.56480,
,,,00.000078400000,  10.33760,
,,,00.000078800000,  10.45120,
,,,00.000079200000,  10.56480,
,,,00.000079600000,  10.33760,
,,,00.000080000000,  10.56480,
,,,00.000080400000,  10.33760,
,,,00.000080800000,  10.11040,
,,,00.000081200000,  10.33760,
,,,00.000081600000,  10.22400,
,,,00.000082000000,  10.11040,
,,,00.000082400000,  10.11040,
,,,00.000082800000,  10.56480,
,,,00.000083200000,  10.11040,
,,,00.000083600000,  10.33760,
,,,00.000084000000,  10.11040,
,,,00.000084400000,  10.22400,
,,,00.000084800000,  10.22400,
,,,00.000085200000,  10.22400,
,,,00.000085600000,  10.22400,
,,,00.000086000000,  10.22400,
,,,00.000086400000,  10.11040,
,,,00.000086800000,  10.22400,
,,,00.000087200000,   9.99680,
,,,00.000087600000,   9.88320,
,,,00.000088000000,   9.88320,
,,,00.000088400000,  10.11040,
,,,00.000088800000,   9.88320,
,,,00.000089200000,   9.76960,
,,,00.000089600000,   9.88320,
,,,00.000090000000,   9.99680,
,,,00.000090400000,   9.88320,
,,,00.000090800000,   9.65600,
,,,00.000091200000,   9.65600,
,,,00.000091600000,   9.76960,
,,,00.000092000000,   9.65600,
,,,00.000092400000,   9.76960,
,,,00.000092800000,   9.65600,
,,,00.000093200000,   9.76960,
,,,00.000093600000,   9.88320,
,,,00.000094000000,   9.65600,
,,,00.000094400000,   9.65600,
,,,00.000094800000,   9.54240,
,,,00.000095200000,   9.42880,
,,,00.000095600000,   9.65600,
,,,00.000096000000,   9.42880,
,,,00.000096400000,   9.42880,
,,,00.000096800000,   9.76960,
,,,00.000097200000,   9.54240,
,,,00.000097600000,   9.31520,
,,,00.000098000000,   9.54240,
,,,00.000098400000,   9.54240,
,,,00.000098800000,   9.42880,
,,,00.000099200000,   9.42880,
,,,00.000099600000,   9.54240,
,,,00.000100000000,   9.20160,
,,,00.000100400000,   9.20160,
,,,00.000100800000,   9.08800,
,,,00.000101200000,   9.20160,
,,,00.000101600000,   9.31520,
,,,00.000102000000,   9.31520,
,,,00.000102400000,   9.20160,
,,,00.000102800000,   9.20160,
,,,00.000103200000,   9.20160,
,,,00.000103600000,   9.42880,
,,,00.000104000000,   9.31520,
,,,00.000104400000,   9.20160,
,,,00.000104800000,   9.08800,
,,,00.000105200000,   9.08800,
,,,00.000105600000,   9.08800,
,,,00.000106000000,   9.08800,
,,,00.000106400000,   8.97440,
,,,00.000106800000,   9.08800,
,,,00.000107200000,   9.42880,
,,,00.000107600000,   8.86080,
,,,00.000108000000,   9.08800,
,,,00.000108400000,   9.08800,
,,,00.000108800000,   9.08800,
,,,00.000109200000,   8.86080,
,,,00.000109600000,   8.86080,
,,,00.000110000000,   8.97440,
,,,00.000110400000,   8.86080,
,,,00.000110800000,   8.86080,
,,,00.000111200000,   8.97440,
,,,00.000111600000,   8.86080,
,,,00.000112000000,   8.86080,
,,,00.000112400000,   8.74720,
,,,00.000112800000,   8.63360,
,,,00.000113200000,   8.63360,
,,,00.000113600000,   8.86080,
,,,00.000114000000,   8.86080,
,,,00.000114400000,   8.74720,
,,,00.000114800000,   8.74720,
,,,00.000115200000,   8.63360,
,,,00.000115600000,   8.63360,
,,,00.000116000000,   8.63360,
,,,00.000116400000,   8.63360,
,,,00.000116800000,   8.63360,
,,,00.000117200000,   8.40640,
,,,00.000117600000,   8.52000,
,,,00.000118000000,   8.86080,
,,,00.000118400000,   8.52000,
,,,00.000118800000,   8.52000,
,,,00.000119200000,   8.29280,
,,,00.000119600000,   8.52000,
,,,00.000120000000,   8.40640,
,,,00.000120400000,   8.52000,
,,,00.000120800000,   8.29280,
,,,00.000121200000,   8.40640,
,,,00.000121600000,   8.29280,
,,,00.000122000000,   8.17920,
,,,00.000122400000,   8.52000,
,,,00.000122800000,   8.29280,
,,,00.000123200000,   8.17920,
,,,00.000123600000,   8.29280,
,,,00.000124000000,   8.17920,
,,,00.000124400000,   8.29280,
,,,00.000124800000,   8.29280,
,,,00.000125200000,   8.06560,
,,,00.000125600000,   8.17920,
,,,00.000126000000,   8.17920,
,,,00.000126400000,   8.29280,
,,,00.000126800000,   8.17920,
,,,00.000127200000,   8.06560,
,,,00.000127600000,   7.95200,
,,,00.000128000000,   8.17920,
,,,00.000128400000,   8.29280,
,,,00.000128800000,   8.06560,
,,,00.000129200000,   8.17920,
,,,00.000129600000,   8.06560,
,,,00.000130000000,   8.06560,
,,,00.000130400000,   7.83840,
,,,00.000130800000,   7.95200,
,,,00.000131200000,   7.95200,
,,,00.000131600000,   7.95200,
,,,00.000132000000,   7.95200,
,,,00.000132400000,   7.95200,
,,,00.000132800000,   7.83840,
,,,00.000133200000,   7.83840,
,,,00.000133600000,   7.61120,
,,,00.000134000000,   8.06560,
,,,00.000134400000,   8.06560,
,,,00.000134800000,   7.72480,
,,,00.000135200000,   7.61120,
,,,00.000135600000,   7.61120,
,,,00.000136000000,   7.83840,
,,,00.000136400000,   7.95200,
,,,00.000136800000,   7.72480,
,,,00.000137200000,   7.72480,
,,,00.000137600000,   7.72480,
,,,00.000138000000,   7.83840,
,,,00.000138400000,   7.61120,
,,,00.000138800000,   7.95200,
,,,00.000139200000,   7.61120,
,,,00.000139600000,   7.49760,
,,,00.000140000000,   7.95200,
,,,00.000140400000,   7.61120,
,,,00.000140800000,   7.49760,
,,,00.000141200000,   7.61120,
,,,00.000141600000,   7.49760,
,,,00.000142000000,   7.49760,
,,,00.000142400000,   7.61120,
,,,00.000142800000,   7.72480,
,,,00.000143200000,   7.61120,
,,,00.000143600000,   7.61120,
,,,00.000144000000,   7.38400,
,,,00.000144400000,   7.61120,
,,,00.000144800000,   7.38400,
,,,00.000145200000,   7.49760,
,,,00.000145600000,   7.27040,
,,,00.000146000000,   7.49760,
,,,00.000146400000,   7.38400,
,,,00.000146800000,   7.61120,
,,,00.000147200000,   7.38400,
,,,00.000147600000,   7.49760,
,,,00.000148000000,   7.72480,
,,,00.000148400000,   7.38400,
,,,00.000148800000,   7.27040,
,,,00.000149200000,   7.38400,
,,,00.000149600000,   7.27040,
,,,00.000150000000,   7.38400,
,,,00.000150400000,   7.27040,
,,,00.000150800000,   7.27040,
,,,00.000151200000,   7.15680,
,,,00.000151600000,   6.92960,
,,,00.000152000000,   7.04320,
,,,00.000152400000,   7.04320,
,,,00.000152800000,   7.27040,
,,,00.000153200000,   7.04320,
,,,00.000153600000,   7.27040,
,,,00.000154000000,   7.04320,
,,,00.000154400000,   6.81600,
,,,00.000154800000,   7.04320,
,,,00.000155200000,   7.15680,
,,,00.000155600000,   7.27040,
,,,00.000156000000,   7.04320,
,,,00.000156400000,   6.92960,
,,,00.000156800000,   7.15680,
,,,00.000157200000,   6.92960,
,,,00.000157600000,   6.92960,
,,,00.000158000000,   6.92960,
,,,00.000158400000,   6.81600,
,,,00.000158800000,   7.04320,
,,,00.000159200000,   6.92960,
,,,00.000159600000,   6.92960,
,,,00.000160000000,   6.81600,
,,,00.000160400000,   6.92960,
,,,00.000160800000,   6.92960,
,,,00.000161200000,   6.81600,
,,,00.000161600000,   6.70240,
,,,00.000162000000,   6.92960,
,,,00.000162400000,   6.70240,
,,,00.000162800000,   6.81600,
,,,00.000163200000,   6.70240,
,,,00.000163600000,   6.58880,
,,,00.000164000000,   6.81600,
,,,00.000164400000,   6.58880,
,,,00.000164800000,   6.70240,
,,,00.000165200000,   6.58880,
,,,00.000165600000,   6.81600,
,,,00.000166000000,   6.58880,
,,,00.000166400000,   6.70240,
,,,00.000166800000,   6.47520,
,,,00.000167200000,   6.36160,
,,,00.000167600000,   6.58880,
,,,00.000168000000,   6.47520,
,,,00.000168400000,   6.58880,
,,,00.000168800000,   6.47520,
,,,00.000169200000,   6.70240,
,,,00.000169600000,   6.58880,
,,,00.000170000000,   6.58880,
,,,00.000170400000,   6.47520,
,,,00.000170800000,   6.47520,
,,,00.000171200000,   6.47520,
,,,00.000171600000,   6.24800,
,,,00.000172000000,   6.58880,
,,,00.000172400000,   6.58880,
,,,00.000172800000,   6.47520,
,,,00.000173200000,   6.36160,
,,,00.000173600000,   6.24800,
,,,00.000174000000,   6.36160,
,,,00.000174400000,   6.36160,
,,,00.000174800000,   6.02080,
,,,00.000175200000,   6.36160,
,,,00.000175600000,   6.24800,
,,,00.000176000000,   6.24800,
,,,00.000176400000,   6.24800,
,,,00.000176800000,   6.24800,
,,,00.000177200000,   6.24800,
,,,00.000177600000,   6.24800,
,,,00.000178000000,   6.24800,
,,,00.000178400000,   6.36160,
,,,00.000178800000,   6.24800,
,,,00.000179200000,   6.13440,
,,,00.000179600000,   6.13440,
,,,00.000180000000,   6.24800,
,,,00.000180400000,   5.90720,
,,,00.000180800000,   6.02080,
,,,00.000181200000,   6.13440,
,,,00.000181600000,   6.24800,
,,,00.000182000000,   5.90720,
,,,00.000182400000,   6.13440,
,,,00.000182800000,   6.02080,
,,,00.000183200000,   5.90720,
,,,00.000183600000,   6.13440,
,,,00.000184000000,   6.13440,
,,,00.000184400000,   6.24800,
,,,00.000184800000,   6.02080,
,,,00.000185200000,   6.13440,
,,,00.000185600000,   5.90720,
,,,00.000186000000,   6.13440,
,,,00.000186400000,   6.13440,
,,,00.000186800000,   5.90720,
,,,00.000187200000,   6.13440,
,,,00.000187600000,   6.02080,
,,,00.000188000000,   5.90720,
,,,00.000188400000,   6.24800,
,,,00.000188800000,   6.02080,
,,,00.000189200000,   6.02080,
,,,00.000189600000,   6.02080,
,,,00.000190000000,   5.79360,
,,,00.000190400000,   5.90720,
,,,00.000190800000,   5.68000,
,,,00.000191200000,   6.02080,
,,,00.000191600000,   5.90720,
,,,00.000192000000,   5.79360,
,,,00.000192400000,   5.79360,
,,,00.000192800000,   5.56640,
,,,00.000193200000,   5.79360,
,,,00.000193600000,   5.79360,
,,,00.000194000000,   5.45280,
,,,00.000194400000,   5.68000,
,,,00.000194800000,   5.68000,
,,,00.000195200000,   5.79360,
,,,00.000195600000,   5.68000,
,,,00.000196000000,   5.56640,
,,,00.000196400000,   5.68000,
,,,00.000196800000,   5.79360,
,,,00.000197200000,   5.68000,
,,,00.000197600000,   5.45280,
,,,00.000198000000,   5.33920,
,,,00.000198400000,   5.79360,
,,,00.000198800000,   5.68000,
,,,00.000199200000,   5.56640,
,,,00.000199600000,   5.45280,
,,,00.000200000000,   5.56640,
,,,00.000200400000,   5.33920,
,,,00.000200800000,   5.45280,
,,,00.000201200000,   5.56640,
,,,00.000201600000,   5.56640,
,,,00.000202000000,   5.56640,
,,,00.000202400000,   5.45280,
,,,00.000202800000,   5.45280,
,,,00.000203200000,   5.56640,
,,,00.000203600000,   5.22560,
,,,00.000204000000,   5.22560,
,,,00.000204400000,   5.33920,
,,,00.000204800000,   5.45280,
,,,00.000205200000,   5.33920,
,,,00.000205600000,   5.22560,
,,,00.000206000000,   5.45280,
,,,00.000206400000,   5.33920,
,,,00.000206800000,   5.56640,
,,,00.000207200000,   5.33920,
,,,00.000207600000,   5.45280,
