Circuiti_2/data/ALL0002/F0002CH2.CSV

Record Length,2.500000e+03,,  -0.000020000000,  -0.22720,
Sample Interval,2.000000e-07,,  -0.000019800000,  -0.11360,
Trigger Point,1.000000000000e+02,,  -0.000019600000,  -0.22720,
,,,  -0.000019400000,  -0.22720,
,,,  -0.000019200000,  -0.22720,
,,,  -0.000019000000,  -0.45440,
Source,CH2,,  -0.000018800000,  -0.34080,
Vertical Units,V,,  -0.000018600000,  -0.45440,
Vertical Scale,2.840000e+00,,  -0.000018400000,  -0.22720,
Vertical Offset,-7.952000e+00,,  -0.000018200000,  -0.11360,
Horizontal Units,s,,  -0.000018000000,  -0.45440,
Horizontal Scale,5.000000e-05,,  -0.000017800000,   0.00000,
Pt Fmt,Y,,  -0.000017600000,  -0.56800,
Yzero,0.000000e+00,,  -0.000017400000,  -0.11360,
Probe Atten,1.000000e+01,,  -0.000017200000,  -0.34080,
Model Number,TDS1001C-EDU,,  -0.000017000000,  -0.34080,
Serial Number,C013086,,  -0.000016800000,  -0.34080,
Firmware Version,FV:v25.07,,  -0.000016600000,  -0.22720,
,,,-00.000016400000,  -0.34080,
,,,-00.000016200000,  -0.34080,
,,,-00.000016000000,  -0.22720,
,,,-00.000015800000,  -0.34080,
,,,-00.000015600000,   0.11360,
,,,-00.000015400000,  -0.34080,
,,,-00.000015200000,  -0.22720,
,,,-00.000015000000,  -0.34080,
,,,-00.000014800000,  -0.22720,
,,,-00.000014600000,  -0.56800,
,,,-00.000014400000,  -0.45440,
,,,-00.000014200000,  -0.45440,
,,,-00.000014000000,   0.00000,
,,,-00.000013800000,  -0.45440,
,,,-00.000013600000,  -0.22720,
,,,-00.000013400000,  -0.34080,
,,,-00.000013200000,  -0.11360,
,,,-00.000013000000,  -0.11360,
,,,-00.000012800000,  -0.11360,
,,,-00.000012600000,  -0.11360,
,,,-00.000012400000,  -0.22720,
,,,-00.000012200000,  -0.45440,
,,,-00.000012000000,  -0.45440,
,,,-00.000011800000,  -0.34080,
,,,-00.000011600000,  -0.22720,
,,,-00.000011400000,  -0.22720,
,,,-00.000011200000,  -0.22720,
,,,-00.000011000000,  -0.34080,
,,,-00.000010800000,  -0.34080,
,,,-00.000010600000,   0.00000,
,,,-00.000010400000,  -0.34080,
,,,-00.000010200000,  -0.11360,
,,,-00.000010000000,  -0.34080,
,,,-00.000009800000,  -0.22720,
,,,-00.000009600000,  -0.34080,
,,,-00.000009400000,  -0.45440,
,,,-00.000009200000,   0.11360,
,,,-00.000009000000,   0.00000,
,,,-00.000008800000,  -0.22720,
,,,-00.000008600000,  -0.22720,
,,,-00.000008400000,  -0.11360,
,,,-00.000008200000,  -0.34080,
,,,-00.000008000000,  -0.11360,
,,,-00.000007800000,  -0.22720,
,,,-00.000007600000,  -0.11360,
,,,-00.000007400000,  -0.11360,
,,,-00.000007200000,   0.00000,
,,,-00.000007000000,   0.11360,
,,,-00.000006800000,  -0.22720,
,,,-00.000006600000,  -0.34080,
,,,-00.000006400000,  -0.22720,
,,,-00.000006200000,  -0.22720,
,,,-00.000006000000,  -0.34080,
,,,-00.000005800000,  -0.11360,
,,,-00.000005600000,  -0.34080,
,,,-00.000005400000,  -0.11360,
,,,-00.000005200000,  -0.11360,
,,,-00.000005000000,  -0.34080,
,,,-00.000004800000,  -0.34080,
,,,-00.000004600000,  -0.68160,
,,,-00.000004400000,  -0.56800,
,,,-00.000004200000,  -0.34080,
,,,-00.000004000000,  -0.34080,
,,,-00.000003800000,  -0.45440,
,,,-00.000003600000,  -0.45440,
,,,-00.000003400000,  -0.22720,
,,,-00.000003200000,  -0.22720,
,,,-00.000003000000,  -0.11360,
,,,-00.000002800000,  -0.45440,
,,,-00.000002600000,   0.00000,
,,,-00.000002400000,  -0.22720,
,,,-00.000002200000,  -0.34080,
,,,-00.000002000000,  -0.22720,
,,,-00.000001800000,  -0.34080,
,,,-00.000001600000,  -0.22720,
,,,-00.000001400000,  -0.11360,
,,,-00.000001200000,  -0.22720,
,,,-00.000001000000,  -0.11360,
,,,-00.000000800000,   0.00000,
,,,-00.000000600000,  -0.11360,
,,,-00.000000400000,  -0.34080,
,,,-00.000000200000,  -0.22720,
,,,-00.000000000000,  -0.11360,
,,,00.000000200000,  -0.22720,
,,,00.000000400000,  -0.22720,
,,,00.000000600000,  -0.34080,
,,,00.000000800000,  -0.22720,
,,,00.000001000000,  -0.34080,
,,,00.000001200000,  -0.56800,
,,,00.000001400000,  15.10880,
,,,00.000001600000,  15.33600,
,,,00.000001800000,  14.99520,
,,,00.000002000000,  15.10880,
,,,00.000002200000,  14.88160,
,,,00.000002400000,  14.99520,
,,,00.000002600000,  15.10880,
,,,00.000002800000,  14.65440,
,,,00.000003000000,  14.65440,
,,,00.000003200000,  14.76800,
,,,00.000003400000,  14.42720,
,,,00.000003600000,  14.76800,
,,,00.000003800000,  14.54080,
,,,00.000004000000,  14.31360,
,,,00.000004200000,  14.54080,
,,,00.000004400000,  14.65440,
,,,00.000004600000,  14.42720,
,,,00.000004800000,  14.08640,
,,,00.000005000000,  14.31360,
,,,00.000005200000,  14.08640,
,,,00.000005400000,  14.31360,
,,,00.000005600000,  13.97280,
,,,00.000005800000,  14.20000,
,,,00.000006000000,  14.08640,
,,,00.000006200000,  14.08640,
,,,00.000006400000,  13.85920,
,,,00.000006600000,  13.97280,
,,,00.000006800000,  14.20000,
,,,00.000007000000,  13.85920,
,,,00.000007200000,  13.85920,
,,,00.000007400000,  13.63200,
,,,00.000007600000,  13.63200,
,,,00.000007800000,  13.74560,
,,,00.000008000000,  13.74560,
,,,00.000008200000,  13.51840,
,,,00.000008400000,  13.51840,
,,,00.000008600000,  13.40480,
,,,00.000008800000,  13.29120,
,,,00.000009000000,  13.40480,
,,,00.000009200000,  13.63200,
,,,00.000009400000,  13.40480,
,,,00.000009600000,  13.40480,
,,,00.000009800000,  13.17760,
,,,00.000010000000,  13.29120,
,,,00.000010200000,  13.40480,
,,,00.000010400000,  13.29120,
,,,00.000010600000,  13.51840,
,,,00.000010800000,  13.40480,
,,,00.000011000000,  13.17760,
,,,00.000011200000,  12.95040,
,,,00.000011400000,  13.17760,
,,,00.000011600000,  12.95040,
,,,00.000011800000,  13.06400,
,,,00.000012000000,  12.95040,
,,,00.000012200000,  12.95040,
,,,00.000012400000,  13.17760,
,,,00.000012600000,  12.95040,
,,,00.000012800000,  12.95040,
,,,00.000013000000,  12.72320,
,,,00.000013200000,  12.49600,
,,,00.000013400000,  12.83680,
,,,00.000013600000,  12.49600,
,,,00.000013800000,  12.72320,
,,,00.000014000000,  12.60960,
,,,00.000014200000,  12.49600,
,,,00.000014400000,  12.38240,
,,,00.000014600000,  12.38240,
,,,00.000014800000,  12.38240,
,,,00.000015000000,  12.38240,
,,,00.000015200000,  12.38240,
,,,00.000015400000,  12.38240,
,,,00.000015600000,  12.15520,
,,,00.000015800000,  12.26880,
,,,00.000016000000,  12.15520,
,,,00.000016200000,  12.26880,
,,,00.000016400000,  12.04160,
,,,00.000016600000,  12.26880,
,,,00.000016800000,  12.15520,
,,,00.000017000000,  11.92800,
,,,00.000017200000,  11.81440,
,,,00.000017400000,  11.92800,
,,,00.000017600000,  11.81440,
,,,00.000017800000,  11.81440,
,,,00.000018000000,  11.70080,
,,,00.000018200000,  11.58720,
,,,00.000018400000,  11.92800,
,,,00.000018600000,  11.81440,
,,,00.000018800000,  11.81440,
,,,00.000019000000,  11.70080,
,,,00.000019200000,  11.81440,
,,,00.000019400000,  11.58720,
,,,00.000019600000,  11.70080,
,,,00.000019800000,  11.70080,
,,,00.000020000000,  11.58720,
,,,00.000020200000,  11.47360,
,,,00.000020400000,  11.47360,
,,,00.000020600000,  11.24640,
,,,00.000020800000,  11.36000,
,,,00.000021000000,  11.36000,
,,,00.000021200000,  11.24640,
,,,00.000021400000,  11.24640,
,,,00.000021600000,  11.13280,
,,,00.000021800000,  11.24640,
,,,00.000022000000,  11.24640,
,,,00.000022200000,  11.47360,
,,,00.000022400000,  11.24640,
,,,00.000022600000,  11.24640,
,,,00.000022800000,  11.24640,
,,,00.000023000000,  11.13280,
,,,00.000023200000,  10.90560,
,,,00.000023400000,  11.01920,
,,,00.000023600000,  11.01920,
,,,00.000023800000,  10.79200,
,,,00.000024000000,  10.90560,
,,,00.000024200000,  10.90560,
,,,00.000024400000,  10.79200,
,,,00.000024600000,  10.67840,
,,,00.000024800000,  10.90560,
,,,00.000025000000,  10.56480,
,,,00.000025200000,  10.67840,
,,,00.000025400000,  10.56480,
,,,00.000025600000,  10.90560,
,,,00.000025800000,  10.56480,
,,,00.000026000000,  10.45120,
,,,00.000026200000,  10.45120,
,,,00.000026400000,  10.67840,
,,,00.000026600000,  10.67840,
,,,00.000026800000,  10.45120,
,,,00.000027000000,  10.33760,
,,,00.000027200000,  10.33760,
,,,00.000027400000,  10.22400,
,,,00.000027600000,  10.11040,
,,,00.000027800000,  10.45120,
,,,00.000028000000,  10.22400,
,,,00.000028200000,  10.22400,
,,,00.000028400000,  10.45120,
,,,00.000028600000,  10.11040,
,,,00.000028800000,  10.22400,
,,,00.000029000000,  10.11040,
,,,00.000029200000,   9.88320,
,,,00.000029400000,  10.22400,
,,,00.000029600000,  10.11040,
,,,00.000029800000,   9.99680,
,,,00.000030000000,   9.88320,
,,,00.000030200000,   9.99680,
,,,00.000030400000,   9.99680,
,,,00.000030600000,   9.99680,
,,,00.000030800000,   9.88320,
,,,00.000031000000,   9.99680,
,,,00.000031200000,   9.99680,
,,,00.000031400000,   9.76960,
,,,00.000031600000,   9.99680,
,,,00.000031800000,   9.65600,
,,,00.000032000000,   9.76960,
,,,00.000032200000,   9.99680,
,,,00.000032400000,   9.88320,
,,,00.000032600000,   9.65600,
,,,00.000032800000,   9.54240,
,,,00.000033000000,   9.42880,
,,,00.000033200000,   9.65600,
,,,00.000033400000,   9.42880,
,,,00.000033600000,   9.31520,
,,,00.000033800000,   9.54240,
,,,00.000034000000,   9.54240,
,,,00.000034200000,   9.42880,
,,,00.000034400000,   9.54240,
,,,00.000034600000,   9.42880,
,,,00.000034800000,   9.20160,
,,,00.000035000000,   9.08800,
,,,00.000035200000,   9.20160,
,,,00.000035400000,   8.97440,
,,,00.000035600000,   9.20160,
,,,00.000035800000,   9.20160,
,,,00.000036000000,   9.20160,
,,,00.000036200000,   9.31520,
,,,00.000036400000,   9.08800,
,,,00.000036600000,   9.08800,
,,,00.000036800000,   8.97440,
,,,00.000037000000,   9.08800,
,,,00.000037200000,   9.20160,
,,,00.000037400000,   8.97440,
,,,00.000037600000,   8.86080,
,,,00.000037800000,   8.86080,
,,,00.000038000000,   8.63360,
,,,00.000038200000,   8.63360,
,,,00.000038400000,   8.86080,
,,,00.000038600000,   8.86080,
,,,00.000038800000,   8.86080,
,,,00.000039000000,   8.86080,
,,,00.000039200000,   8.52000,
,,,00.000039400000,   8.74720,
,,,00.000039600000,   8.74720,
,,,00.000039800000,   8.63360,
,,,00.000040000000,   8.40640,
,,,00.000040200000,   8.40640,
,,,00.000040400000,   8.40640,
,,,00.000040600000,   8.17920,
,,,00.000040800000,   8.29280,
,,,00.000041000000,   8.52000,
,,,00.000041200000,   8.52000,
,,,00.000041400000,   8.63360,
,,,00.000041600000,   8.63360,
,,,00.000041800000,   8.40640,
,,,00.000042000000,   8.63360,
,,,00.000042200000,   8.40640,
,,,00.000042400000,   8.29280,
,,,00.000042600000,   8.17920,
,,,00.000042800000,   8.29280,
,,,00.000043000000,   8.06560,
,,,00.000043200000,   8.17920,
,,,00.000043400000,   8.40640,
,,,00.000043600000,   8.17920,
,,,00.000043800000,   8.17920,
,,,00.000044000000,   8.06560,
,,,00.000044200000,   8.17920,
,,,00.000044400000,   8.06560,
,,,00.000044600000,   8.06560,
,,,00.000044800000,   7.95200,
,,,00.000045000000,   8.17920,
,,,00.000045200000,   7.72480,
,,,00.000045400000,   8.06560,
,,,00.000045600000,   7.83840,
,,,00.000045800000,   7.95200,
,,,00.000046000000,   7.83840,
,,,00.000046200000,   7.72480,
,,,00.000046400000,   7.95200,
,,,00.000046600000,   7.72480,
,,,00.000046800000,   7.72480,
,,,00.000047000000,   7.61120,
,,,00.000047200000,   7.72480,
,,,00.000047400000,   7.61120,
,,,00.000047600000,   7.72480,
,,,00.000047800000,   7.49760,
,,,00.000048000000,   7.72480,
,,,00.000048200000,   7.83840,
,,,00.000048400000,   7.72480,
,,,00.000048600000,   7.83840,
,,,00.000048800000,   7.83840,
,,,00.000049000000,   7.49760,
,,,00.000049200000,   7.72480,
,,,00.000049400000,   7.61120,
,,,00.000049600000,   7.15680,
,,,00.000049800000,   7.27040,
,,,00.000050000000,   7.27040,
,,,00.000050200000,   7.49760,
,,,00.000050400000,   7.49760,
,,,00.000050600000,   7.49760,
,,,00.000050800000,   7.15680,
,,,00.000051000000,   7.38400,
,,,00.000051200000,   7.27040,
,,,00.000051400000,   7.27040,
,,,00.000051600000,   7.15680,
,,,00.000051800000,   7.38400,
,,,00.000052000000,   7.27040,
,,,00.000052200000,   7.49760,
,,,00.000052400000,   7.49760,
,,,00.000052600000,   7.15680,
,,,00.000052800000,   7.15680,
,,,00.000053000000,   7.27040,
,,,00.000053200000,   6.92960,
,,,00.000053400000,   7.04320,
,,,00.000053600000,   7.04320,
,,,00.000053800000,   7.27040,
,,,00.000054000000,   7.04320,
,,,00.000054200000,   7.15680,
,,,00.000054400000,   6.92960,
,,,00.000054600000,   6.92960,
,,,00.000054800000,   6.81600,
,,,00.000055000000,   6.70240,
,,,00.000055200000,   6.92960,
,,,00.000055400000,   6.92960,
,,,00.000055600000,   6.81600,
,,,00.000055800000,   6.81600,
,,,00.000056000000,   6.81600,
,,,00.000056200000,   7.27040,
,,,00.000056400000,   6.92960,
,,,00.000056600000,   6.58880,
,,,00.000056800000,   6.58880,
,,,00.000057000000,   6.81600,
,,,00.000057200000,   6.92960,
,,,00.000057400000,   6.70240,
,,,00.000057600000,   6.70240,
,,,00.000057800000,   6.70240,
,,,00.000058000000,   6.81600,
,,,00.000058200000,   6.58880,
,,,00.000058400000,   6.70240,
,,,00.000058600000,   6.70240,
,,,00.000058800000,   6.70240,
,,,00.000059000000,   6.36160,
,,,00.000059200000,   6.81600,
,,,00.000059400000,   6.70240,
,,,00.000059600000,   6.58880,
,,,00.000059800000,   6.47520,
,,,00.000060000000,   6.47520,
,,,00.000060200000,   6.36160,
,,,00.000060400000,   6.36160,
,,,00.000060600000,   6.36160,
,,,00.000060800000,   6.13440,
,,,00.000061000000,   6.70240,
,,,00.000061200000,   6.24800,
,,,00.000061400000,   6.47520,
,,,00.000061600000,   6.36160,
,,,00.000061800000,   6.36160,
,,,00.000062000000,   6.36160,
,,,00.000062200000,   6.13440,
,,,00.000062400000,   6.13440,
,,,00.000062600000,   6.36160,
,,,00.000062800000,   6.13440,
,,,00.000063000000,   6.13440,
,,,00.000063200000,   5.90720,
,,,00.000063400000,   6.13440,
,,,00.000063600000,   6.13440,
,,,00.000063800000,   6.36160,
,,,00.000064000000,   6.13440,
,,,00.000064200000,   6.02080,
,,,00.000064400000,   6.13440,
,,,00.000064600000,   5.90720,
,,,00.000064800000,   6.13440,
,,,00.000065000000,   5.90720,
,,,00.000065200000,   6.13440,
,,,00.000065400000,   6.02080,
,,,00.000065600000,   6.02080,
,,,00.000065800000,   5.68000,
,,,00.000066000000,   6.02080,
,,,00.000066200000,   6.13440,
,,,00.000066400000,   5.79360,
,,,00.000066600000,   5.68000,
,,,00.000066800000,   5.68000,
,,,00.000067000000,   5.68000,
,,,00.000067200000,   5.56640,
,,,00.000067400000,   5.68000,
,,,00.000067600000,   5.79360,
,,,00.000067800000,   5.68000,
,,,00.000068000000,   5.79360,
,,,00.000068200000,   5.68000,
,,,00.000068400000,   5.68000,
,,,00.000068600000,   5.90720,
,,,00.000068800000,   5.56640,
,,,00.000069000000,   5.79360,
,,,00.000069200000,   5.68000,
,,,00.000069400000,   5.56640,
,,,00.000069600000,   5.68000,
,,,00.000069800000,   5.56640,
,,,00.000070000000,   5.68000,
,,,00.000070200000,   5.45280,
,,,00.000070400000,   5.33920,
,,,00.000070600000,   5.45280,
,,,00.000070800000,   5.68000,
,,,00.000071000000,   5.56640,
,,,00.000071200000,   5.45280,
,,,00.000071400000,   5.22560,
,,,00.000071600000,   5.68000,
,,,00.000071800000,   5.45280,
,,,00.000072000000,   5.33920,
,,,00.000072200000,   5.56640,
,,,00.000072400000,   5.45280,
,,,00.000072600000,   5.45280,
,,,00.000072800000,   5.56640,
,,,00.000073000000,   5.22560,
,,,00.000073200000,   5.22560,
,,,00.000073400000,   5.45280,
,,,00.000073600000,   5.33920,
,,,00.000073800000,   5.11200,
,,,00.000074000000,   5.45280,
,,,00.000074200000,   5.33920,
,,,00.000074400000,   5.22560,
,,,00.000074600000,   5.22560,
,,,00.000074800000,   5.33920,
,,,00.000075000000,   5.22560,
,,,00.000075200000,   5.33920,
,,,00.000075400000,   5.11200,
,,,00.000075600000,   4.88480,
,,,00.000075800000,   5.22560,
,,,00.000076000000,   5.45280,
,,,00.000076200000,   5.22560,
,,,00.000076400000,   4.88480,
,,,00.000076600000,   4.99840,
,,,00.000076800000,   5.11200,
,,,00.000077000000,   4.88480,
,,,00.000077200000,   4.88480,
,,,00.000077400000,   4.99840,
,,,00.000077600000,   4.88480,
,,,00.000077800000,   5.11200,
,,,00.000078000000,   4.88480,
,,,00.000078200000,   4.99840,
,,,00.000078400000,   4.77120,
,,,00.000078600000,   5.11200,
,,,00.000078800000,   4.88480,
,,,00.000079000000,   4.88480,
,,,00.000079200000,   4.99840,
,,,00.000079400000,   4.88480,
,,,00.000079600000,   4.77120,
,,,00.000079800000,   4.77120,
,,,00.000080000000,   4.54400,
,,,00.000080200000,   4.77120,
,,,00.000080400000,   4.54400,
,,,00.000080600000,   4.77120,
,,,00.000080800000,   4.88480,
,,,00.000081000000,   4.54400,
,,,00.000081200000,   4.77120,
,,,00.000081400000,   4.43040,
,,,00.000081600000,   4.99840,
,,,00.000081800000,   4.77120,
,,,00.000082000000,   4.77120,
,,,00.000082200000,   4.77120,
,,,00.000082400000,   4.65760,
,,,00.000082600000,   4.43040,
,,,00.000082800000,   4.43040,
,,,00.000083000000,   4.54400,
,,,00.000083200000,   4.54400,
,,,00.000083400000,   4.77120,
,,,00.000083600000,   4.77120,
,,,00.000083800000,   4.77120,
,,,00.000084000000,   4.43040,
,,,00.000084200000,   4.65760,
,,,00.000084400000,   4.43040,
,,,00.000084600000,   4.43040,
,,,00.000084800000,   4.20320,
,,,00.000085000000,   4.54400,
,,,00.000085200000,   4.54400,
,,,00.000085400000,   4.43040,
,,,00.000085600000,   4.31680,
,,,00.000085800000,   4.43040,
,,,00.000086000000,   4.65760,
,,,00.000086200000,   4.31680,
,,,00.000086400000,   4.31680,
,,,00.000086600000,   4.43040,
,,,00.000086800000,   4.31680,
,,,00.000087000000,   4.31680,
,,,00.000087200000,   4.54400,
,,,00.000087400000,   4.31680,
,,,00.000087600000,   4.43040,
,,,00.000087800000,   4.20320,
,,,00.000088000000,   4.08960,
,,,00.000088200000,   4.20320,
,,,00.000088400000,   4.43040,
,,,00.000088600000,   3.97600,
,,,00.000088800000,   4.43040,
,,,00.000089000000,   4.31680,
,,,00.000089200000,   4.08960,
,,,00.000089400000,   4.08960,
,,,00.000089600000,   4.08960,
,,,00.000089800000,   4.20320,
,,,00.000090000000,   4.08960,
,,,00.000090200000,   3.86240,
,,,00.000090400000,   4.20320,
,,,00.000090600000,   4.31680,
,,,00.000090800000,   3.86240,
,,,00.000091000000,   4.31680,
,,,00.000091200000,   3.97600,
,,,00.000091400000,   4.08960,
,,,00.000091600000,   4.31680,
,,,00.000091800000,   3.97600,
,,,00.000092000000,   4.31680,
,,,00.000092200000,   4.20320,
,,,00.000092400000,   3.86240,
,,,00.000092600000,   4.08960,
,,,00.000092800000,   3.97600,
,,,00.000093000000,   3.86240,
,,,00.000093200000,   4.08960,
,,,00.000093400000,   4.08960,
,,,00.000093600000,   3.86240,
,,,00.000093800000,   4.08960,
,,,00.000094000000,   4.08960,
,,,00.000094200000,   3.86240,
,,,00.000094400000,   3.86240,
,,,00.000094600000,   3.86240,
,,,00.000094800000,   3.97600,
,,,00.000095000000,   3.86240,
,,,00.000095200000,   3.86240,
,,,00.000095400000,   3.74880,
,,,00.000095600000,   3.97600,
,,,00.000095800000,   4.20320,
,,,00.000096000000,   3.97600,
,,,00.000096200000,   3.86240,
,,,00.000096400000,   3.86240,
,,,00.000096600000,   3.74880,
,,,00.000096800000,   3.74880,
,,,00.000097000000,   3.63520,
,,,00.000097200000,   3.63520,
,,,00.000097400000,   3.74880,
,,,00.000097600000,   3.74880,
,,,00.000097800000,   3.86240,
,,,00.000098000000,   3.97600,
,,,00.000098200000,   3.63520,
,,,00.000098400000,   3.86240,
,,,00.000098600000,   3.40800,
,,,00.000098800000,   3.63520,
,,,00.000099000000,   3.52160,
,,,00.000099200000,   3.74880,
,,,00.000099400000,   3.29440,
,,,00.000099600000,   3.74880,
,,,00.000099800000,   3.40800,
,,,00.000100000000,   3.74880,
,,,00.000100200000,   3.52160,
,,,00.000100400000,   3.40800,
,,,00.000100600000,   3.74880,
,,,00.000100800000,   3.52160,
,,,00.000101000000,   3.52160,
,,,00.000101200000,   3.40800,
,,,00.000101400000,   3.86240,
,,,00.000101600000,   3.86240,
,,,00.000101800000,   3.29440,
,,,00.000102000000,   3.52160,
,,,00.000102200000,   3.74880,
,,,00.000102400000,   3.52160,
,,,00.000102600000,   3.40800,
,,,00.000102800000,   3.18080,
,,,00.000103000000,   3.52160,
,,,00.000103200000,   3.52160,
,,,00.000103400000,   3.74880,
,,,00.000103600000,   3.52160,
,,,00.000103800000,   3.40800,
,,,00.000104000000,   3.52160,
,,,00.000104200000,   3.29440,
,,,00.000104400000,   3.40800,
,,,00.000104600000,   3.18080,
,,,00.000104800000,   3.29440,
,,,00.000105000000,   3.29440,
,,,00.000105200000,   3.40800,
,,,00.000105400000,   3.06720,
,,,00.000105600000,   3.52160,
,,,00.000105800000,   3.40800,
