Circuiti_3/data.leo/RL/ALL0032/F0032CH2.CSV

Record Length,2.500000e+03,,   0.000014600000,   0.56000,
Sample Interval,4.000000e-09,,   0.000014604000,   0.56000,
Trigger Point,-3.650000000000e+03,,   0.000014608000,   0.48000,
,,,   0.000014612000,   0.56000,
,,,   0.000014616000,   0.48000,
,,,   0.000014620000,   0.48000,
Source,CH2,,   0.000014624000,   0.48000,
Vertical Units,V,,   0.000014628000,   0.48000,
Vertical Scale,2.000000e+00,,   0.000014632000,   0.48000,
Vertical Offset,0.000000e+00,,   0.000014636000,   0.48000,
Horizontal Units,s,,   0.000014640000,   0.48000,
Horizontal Scale,1.000000e-06,,   0.000014644000,   0.48000,
Pt Fmt,Y,,   0.000014648000,   0.48000,
Yzero,0.000000e+00,,   0.000014652000,   0.40000,
Probe Atten,1.000000e+01,,   0.000014656000,   0.40000,
Model Number,TDS2012C,,   0.000014660000,   0.40000,
Serial Number,C050125,,   0.000014664000,   0.40000,
Firmware Version,FV:v24.26,,   0.000014668000,   0.40000,
,,,0.000014672000,   0.32000,
,,,0.000014676000,   0.40000,
,,,0.000014680000,   0.32000,
,,,0.000014684000,   0.32000,
,,,0.000014688000,   0.32000,
,,,0.000014692000,   0.32000,
,,,0.000014696000,   0.32000,
,,,0.000014700000,   0.32000,
,,,0.000014704000,   0.32000,
,,,0.000014708000,   0.24000,
,,,0.000014712000,   0.24000,
,,,0.000014716000,   0.24000,
,,,0.000014720000,   0.24000,
,,,0.000014724000,   0.24000,
,,,0.000014728000,   0.24000,
,,,0.000014732000,   0.24000,
,,,0.000014736000,   0.24000,
,,,0.000014740000,   0.16000,
,,,0.000014744000,   0.16000,
,,,0.000014748000,   0.16000,
,,,0.000014752000,   0.16000,
,,,0.000014756000,   0.16000,
,,,0.000014760000,   0.16000,
,,,0.000014764000,   0.16000,
,,,0.000014768000,   0.16000,
,,,0.000014772000,   0.08000,
,,,0.000014776000,   0.16000,
,,,0.000014780000,   0.08000,
,,,0.000014784000,   0.08000,
,,,0.000014788000,   0.08000,
,,,0.000014792000,   0.08000,
,,,0.000014796000,   0.08000,
,,,0.000014800000,   0.08000,
,,,0.000014804000,   0.00000,
,,,0.000014808000,   0.08000,
,,,0.000014812000,   0.00000,
,,,0.000014816000,   0.00000,
,,,0.000014820000,   0.00000,
,,,0.000014824000,   0.00000,
,,,0.000014828000,   0.00000,
,,,0.000014832000,   0.00000,
,,,0.000014836000,   0.00000,
,,,0.000014840000,   0.00000,
,,,0.000014844000,  -0.08000,
,,,0.000014848000,  -0.08000,
,,,0.000014852000,  -0.08000,
,,,0.000014856000,  -0.08000,
,,,0.000014860000,  -0.08000,
,,,0.000014864000,  -0.08000,
,,,0.000014868000,  -0.08000,
,,,0.000014872000,  -0.16000,
,,,0.000014876000,  -0.16000,
,,,0.000014880000,  -0.16000,
,,,0.000014884000,  -0.16000,
,,,0.000014888000,  -0.16000,
,,,0.000014892000,  -0.16000,
,,,0.000014896000,  -0.16000,
,,,0.000014900000,  -0.16000,
,,,0.000014904000,  -0.24000,
,,,0.000014908000,  -0.24000,
,,,0.000014912000,  -0.24000,
,,,0.000014916000,  -0.24000,
,,,0.000014920000,  -0.24000,
,,,0.000014924000,  -0.24000,
,,,0.000014928000,  -0.24000,
,,,0.000014932000,  -0.24000,
,,,0.000014936000,  -0.24000,
,,,0.000014940000,  -0.32000,
,,,0.000014944000,  -0.32000,
,,,0.000014948000,  -0.32000,
,,,0.000014952000,  -0.32000,
,,,0.000014956000,  -0.32000,
,,,0.000014960000,  -0.40000,
,,,0.000014964000,  -0.32000,
,,,0.000014968000,  -0.32000,
,,,0.000014972000,  -0.32000,
,,,0.000014976000,  -0.40000,
,,,0.000014980000,  -0.40000,
,,,0.000014984000,  -0.40000,
,,,0.000014988000,  -0.40000,
,,,0.000014992000,  -0.40000,
,,,0.000014996000,  -0.48000,
,,,0.000015000000,  -0.48000,
,,,0.000015004000,  -0.48000,
,,,0.000015008000,  -0.48000,
,,,0.000015012000,  -0.48000,
,,,0.000015016000,  -0.48000,
,,,0.000015020000,  -0.48000,
,,,0.000015024000,  -0.48000,
,,,0.000015028000,  -0.56000,
,,,0.000015032000,  -0.56000,
,,,0.000015036000,  -0.56000,
,,,0.000015040000,  -0.48000,
,,,0.000015044000,  -0.56000,
,,,0.000015048000,  -0.56000,
,,,0.000015052000,  -0.56000,
,,,0.000015056000,  -0.56000,
,,,0.000015060000,  -0.64000,
,,,0.000015064000,  -0.64000,
,,,0.000015068000,  -0.64000,
,,,0.000015072000,  -0.64000,
,,,0.000015076000,  -0.64000,
,,,0.000015080000,  -0.64000,
,,,0.000015084000,  -0.64000,
,,,0.000015088000,  -0.64000,
,,,0.000015092000,  -0.72000,
,,,0.000015096000,  -0.72000,
,,,0.000015100000,  -0.64000,
,,,0.000015104000,  -0.72000,
,,,0.000015108000,  -0.72000,
,,,0.000015112000,  -0.72000,
,,,0.000015116000,  -0.72000,
,,,0.000015120000,  -0.72000,
,,,0.000015124000,  -0.72000,
,,,0.000015128000,  -0.80000,
,,,0.000015132000,  -0.80000,
,,,0.000015136000,  -0.80000,
,,,0.000015140000,  -0.80000,
,,,0.000015144000,  -0.80000,
,,,0.000015148000,  -0.80000,
,,,0.000015152000,  -0.80000,
,,,0.000015156000,  -0.80000,
,,,0.000015160000,  -0.80000,
,,,0.000015164000,  -0.88000,
,,,0.000015168000,  -0.88000,
,,,0.000015172000,  -0.88000,
,,,0.000015176000,  -0.88000,
,,,0.000015180000,  -0.88000,
,,,0.000015184000,  -0.88000,
,,,0.000015188000,  -0.88000,
,,,0.000015192000,  -0.88000,
,,,0.000015196000,  -0.96000,
,,,0.000015200000,  -0.96000,
,,,0.000015204000,  -0.96000,
,,,0.000015208000,  -0.96000,
,,,0.000015212000,  -0.96000,
,,,0.000015216000,  -0.96000,
,,,0.000015220000,  -0.96000,
,,,0.000015224000,  -0.96000,
,,,0.000015228000,  -0.96000,
,,,0.000015232000,  -1.04000,
,,,0.000015236000,  -1.04000,
,,,0.000015240000,  -1.04000,
,,,0.000015244000,  -1.04000,
,,,0.000015248000,  -1.04000,
,,,0.000015252000,  -1.04000,
,,,0.000015256000,  -1.04000,
,,,0.000015260000,  -1.12000,
,,,0.000015264000,  -1.04000,
,,,0.000015268000,  -1.12000,
,,,0.000015272000,  -1.12000,
,,,0.000015276000,  -1.12000,
,,,0.000015280000,  -1.12000,
,,,0.000015284000,  -1.12000,
,,,0.000015288000,  -1.12000,
,,,0.000015292000,  -1.20000,
,,,0.000015296000,  -1.20000,
,,,0.000015300000,  -1.20000,
,,,0.000015304000,  -1.20000,
,,,0.000015308000,  -1.20000,
,,,0.000015312000,  -1.20000,
,,,0.000015316000,  -1.20000,
,,,0.000015320000,  -1.20000,
,,,0.000015324000,  -1.28000,
,,,0.000015328000,  -1.28000,
,,,0.000015332000,  -1.28000,
,,,0.000015336000,  -1.28000,
,,,0.000015340000,  -1.28000,
,,,0.000015344000,  -1.28000,
,,,0.000015348000,  -1.28000,
,,,0.000015352000,  -1.28000,
,,,0.000015356000,  -1.28000,
,,,0.000015360000,  -1.36000,
,,,0.000015364000,  -1.28000,
,,,0.000015368000,  -1.36000,
,,,0.000015372000,  -1.36000,
,,,0.000015376000,  -1.36000,
,,,0.000015380000,  -1.36000,
,,,0.000015384000,  -1.36000,
,,,0.000015388000,  -1.36000,
,,,0.000015392000,  -1.36000,
,,,0.000015396000,  -1.36000,
,,,0.000015400000,  -1.44000,
,,,0.000015404000,  -1.44000,
,,,0.000015408000,  -1.44000,
,,,0.000015412000,  -1.44000,
,,,0.000015416000,  -1.44000,
,,,0.000015420000,  -1.44000,
,,,0.000015424000,  -1.52000,
,,,0.000015428000,  -1.52000,
,,,0.000015432000,  -1.52000,
,,,0.000015436000,  -1.52000,
,,,0.000015440000,  -1.52000,
,,,0.000015444000,  -1.52000,
,,,0.000015448000,  -1.52000,
,,,0.000015452000,  -1.52000,
,,,0.000015456000,  -1.52000,
,,,0.000015460000,  -1.60000,
,,,0.000015464000,  -1.60000,
,,,0.000015468000,  -1.52000,
,,,0.000015472000,  -1.60000,
,,,0.000015476000,  -1.60000,
,,,0.000015480000,  -1.60000,
,,,0.000015484000,  -1.60000,
,,,0.000015488000,  -1.68000,
,,,0.000015492000,  -1.68000,
,,,0.000015496000,  -1.60000,
,,,0.000015500000,  -1.60000,
,,,0.000015504000,  -1.68000,
,,,0.000015508000,  -1.68000,
,,,0.000015512000,  -1.68000,
,,,0.000015516000,  -1.68000,
,,,0.000015520000,  -1.68000,
,,,0.000015524000,  -1.68000,
,,,0.000015528000,  -1.68000,
,,,0.000015532000,  -1.76000,
,,,0.000015536000,  -1.76000,
,,,0.000015540000,  -1.76000,
,,,0.000015544000,  -1.76000,
,,,0.000015548000,  -1.76000,
,,,0.000015552000,  -1.76000,
,,,0.000015556000,  -1.76000,
,,,0.000015560000,  -1.76000,
,,,0.000015564000,  -1.76000,
,,,0.000015568000,  -1.84000,
,,,0.000015572000,  -1.84000,
,,,0.000015576000,  -1.76000,
,,,0.000015580000,  -1.84000,
,,,0.000015584000,  -1.84000,
,,,0.000015588000,  -1.84000,
,,,0.000015592000,  -1.84000,
,,,0.000015596000,  -1.92000,
,,,0.000015600000,  -1.84000,
,,,0.000015604000,  -1.92000,
,,,0.000015608000,  -1.92000,
,,,0.000015612000,  -1.92000,
,,,0.000015616000,  -1.92000,
,,,0.000015620000,  -1.92000,
,,,0.000015624000,  -1.92000,
,,,0.000015628000,  -2.00000,
,,,0.000015632000,  -1.92000,
,,,0.000015636000,  -2.00000,
,,,0.000015640000,  -2.00000,
,,,0.000015644000,  -2.00000,
,,,0.000015648000,  -2.00000,
,,,0.000015652000,  -2.00000,
,,,0.000015656000,  -2.00000,
,,,0.000015660000,  -2.00000,
,,,0.000015664000,  -2.00000,
,,,0.000015668000,  -2.00000,
,,,0.000015672000,  -2.00000,
,,,0.000015676000,  -2.08000,
,,,0.000015680000,  -2.08000,
,,,0.000015684000,  -2.08000,
,,,0.000015688000,  -2.08000,
,,,0.000015692000,  -2.08000,
,,,0.000015696000,  -2.08000,
,,,0.000015700000,  -2.08000,
,,,0.000015704000,  -2.08000,
,,,0.000015708000,  -2.08000,
,,,0.000015712000,  -2.16000,
,,,0.000015716000,  -2.08000,
,,,0.000015720000,  -2.16000,
,,,0.000015724000,  -2.16000,
,,,0.000015728000,  -2.16000,
,,,0.000015732000,  -2.16000,
,,,0.000015736000,  -2.16000,
,,,0.000015740000,  -2.16000,
,,,0.000015744000,  -2.16000,
,,,0.000015748000,  -2.16000,
,,,0.000015752000,  -2.16000,
,,,0.000015756000,  -2.24000,
,,,0.000015760000,  -2.24000,
,,,0.000015764000,  -2.24000,
,,,0.000015768000,  -2.24000,
,,,0.000015772000,  -2.24000,
,,,0.000015776000,  -2.24000,
,,,0.000015780000,  -2.32000,
,,,0.000015784000,  -2.24000,
,,,0.000015788000,  -2.32000,
,,,0.000015792000,  -2.24000,
,,,0.000015796000,  -2.32000,
,,,0.000015800000,  -2.32000,
,,,0.000015804000,  -2.32000,
,,,0.000015808000,  -2.32000,
,,,0.000015812000,  -2.32000,
,,,0.000015816000,  -2.32000,
,,,0.000015820000,  -2.40000,
,,,0.000015824000,  -2.40000,
,,,0.000015828000,  -2.40000,
,,,0.000015832000,  -2.32000,
,,,0.000015836000,  -2.40000,
,,,0.000015840000,  -2.40000,
,,,0.000015844000,  -2.40000,
,,,0.000015848000,  -2.40000,
,,,0.000015852000,  -2.40000,
,,,0.000015856000,  -2.40000,
,,,0.000015860000,  -2.40000,
,,,0.000015864000,  -2.40000,
,,,0.000015868000,  -2.40000,
,,,0.000015872000,  -2.48000,
,,,0.000015876000,  -2.48000,
,,,0.000015880000,  -2.48000,
,,,0.000015884000,  -2.48000,
,,,0.000015888000,  -2.48000,
,,,0.000015892000,  -2.48000,
,,,0.000015896000,  -2.48000,
,,,0.000015900000,  -2.48000,
,,,0.000015904000,  -2.48000,
,,,0.000015908000,  -2.48000,
,,,0.000015912000,  -2.56000,
,,,0.000015916000,  -2.56000,
,,,0.000015920000,  -2.56000,
,,,0.000015924000,  -2.56000,
,,,0.000015928000,  -2.56000,
,,,0.000015932000,  -2.56000,
,,,0.000015936000,  -2.56000,
,,,0.000015940000,  -2.56000,
,,,0.000015944000,  -2.64000,
,,,0.000015948000,  -2.56000,
,,,0.000015952000,  -2.64000,
,,,0.000015956000,  -2.56000,
,,,0.000015960000,  -2.64000,
,,,0.000015964000,  -2.64000,
,,,0.000015968000,  -2.64000,
,,,0.000015972000,  -2.64000,
,,,0.000015976000,  -2.72000,
,,,0.000015980000,  -2.64000,
,,,0.000015984000,  -2.64000,
,,,0.000015988000,  -2.64000,
,,,0.000015992000,  -2.72000,
,,,0.000015996000,  -2.64000,
,,,0.000016000000,  -2.72000,
,,,0.000016004000,  -2.72000,
,,,0.000016008000,  -2.72000,
,,,0.000016012000,  -2.72000,
,,,0.000016016000,  -2.72000,
,,,0.000016020000,  -2.72000,
,,,0.000016024000,  -2.72000,
,,,0.000016028000,  -2.72000,
,,,0.000016032000,  -2.80000,
,,,0.000016036000,  -2.72000,
,,,0.000016040000,  -2.72000,
,,,0.000016044000,  -2.80000,
,,,0.000016048000,  -2.80000,
,,,0.000016052000,  -2.80000,
,,,0.000016056000,  -2.80000,
,,,0.000016060000,  -2.80000,
,,,0.000016064000,  -2.80000,
,,,0.000016068000,  -2.80000,
,,,0.000016072000,  -2.80000,
,,,0.000016076000,  -2.88000,
,,,0.000016080000,  -2.80000,
,,,0.000016084000,  -2.88000,
,,,0.000016088000,  -2.80000,
,,,0.000016092000,  -2.88000,
,,,0.000016096000,  -2.88000,
,,,0.000016100000,  -2.88000,
,,,0.000016104000,  -2.88000,
,,,0.000016108000,  -2.88000,
,,,0.000016112000,  -2.88000,
,,,0.000016116000,  -2.88000,
,,,0.000016120000,  -2.88000,
,,,0.000016124000,  -2.96000,
,,,0.000016128000,  -2.88000,
,,,0.000016132000,  -2.96000,
,,,0.000016136000,  -2.96000,
,,,0.000016140000,  -2.96000,
,,,0.000016144000,  -2.96000,
,,,0.000016148000,  -2.96000,
,,,0.000016152000,  -2.96000,
,,,0.000016156000,  -2.96000,
,,,0.000016160000,  -2.96000,
,,,0.000016164000,  -2.96000,
,,,0.000016168000,  -3.04000,
,,,0.000016172000,  -2.96000,
,,,0.000016176000,  -3.04000,
,,,0.000016180000,  -2.96000,
,,,0.000016184000,  -3.04000,
,,,0.000016188000,  -3.04000,
,,,0.000016192000,  -3.04000,
,,,0.000016196000,  -3.04000,
,,,0.000016200000,  -3.04000,
,,,0.000016204000,  -3.04000,
,,,0.000016208000,  -3.04000,
,,,0.000016212000,  -3.04000,
,,,0.000016216000,  -3.04000,
,,,0.000016220000,  -3.04000,
,,,0.000016224000,  -3.12000,
,,,0.000016228000,  -3.04000,
,,,0.000016232000,  -3.12000,
,,,0.000016236000,  -3.12000,
,,,0.000016240000,  -3.12000,
,,,0.000016244000,  -3.12000,
,,,0.000016248000,  -3.12000,
,,,0.000016252000,  -3.12000,
,,,0.000016256000,  -3.12000,
,,,0.000016260000,  -3.12000,
,,,0.000016264000,  -3.12000,
,,,0.000016268000,  -3.12000,
,,,0.000016272000,  -3.12000,
,,,0.000016276000,  -3.12000,
,,,0.000016280000,  -3.12000,
,,,0.000016284000,  -3.20000,
,,,0.000016288000,  -3.20000,
,,,0.000016292000,  -3.20000,
,,,0.000016296000,  -3.20000,
,,,0.000016300000,  -3.20000,
,,,0.000016304000,  -3.20000,
,,,0.000016308000,  -3.20000,
,,,0.000016312000,  -3.20000,
,,,0.000016316000,  -3.20000,
,,,0.000016320000,  -3.20000,
,,,0.000016324000,  -3.20000,
,,,0.000016328000,  -3.20000,
,,,0.000016332000,  -3.20000,
,,,0.000016336000,  -3.20000,
,,,0.000016340000,  -3.28000,
,,,0.000016344000,  -3.28000,
,,,0.000016348000,  -3.28000,
,,,0.000016352000,  -3.28000,
,,,0.000016356000,  -3.28000,
,,,0.000016360000,  -3.28000,
,,,0.000016364000,  -3.28000,
,,,0.000016368000,  -3.28000,
,,,0.000016372000,  -3.28000,
,,,0.000016376000,  -3.28000,
,,,0.000016380000,  -3.28000,
,,,0.000016384000,  -3.28000,
,,,0.000016388000,  -3.28000,
,,,0.000016392000,  -3.28000,
,,,0.000016396000,  -3.36000,
,,,0.000016400000,  -3.36000,
,,,0.000016404000,  -3.36000,
,,,0.000016408000,  -3.36000,
,,,0.000016412000,  -3.36000,
,,,0.000016416000,  -3.36000,
,,,0.000016420000,  -3.36000,
,,,0.000016424000,  -3.36000,
,,,0.000016428000,  -3.36000,
,,,0.000016432000,  -3.36000,
,,,0.000016436000,  -3.36000,
,,,0.000016440000,  -3.36000,
,,,0.000016444000,  -3.36000,
,,,0.000016448000,  -3.36000,
,,,0.000016452000,  -3.36000,
,,,0.000016456000,  -3.36000,
,,,0.000016460000,  -3.36000,
,,,0.000016464000,  -3.44000,
,,,0.000016468000,  -3.44000,
,,,0.000016472000,  -3.44000,
,,,0.000016476000,  -3.44000,
,,,0.000016480000,  -3.44000,
,,,0.000016484000,  -3.44000,
,,,0.000016488000,  -3.44000,
,,,0.000016492000,  -3.44000,
,,,0.000016496000,  -3.44000,
,,,0.000016500000,  -3.44000,
,,,0.000016504000,  -3.44000,
,,,0.000016508000,  -3.44000,
,,,0.000016512000,  -3.44000,
,,,0.000016516000,  -3.44000,
,,,0.000016520000,  -3.44000,
,,,0.000016524000,  -3.52000,
,,,0.000016528000,  -3.52000,
,,,0.000016532000,  -3.52000,
,,,0.000016536000,  -3.52000,
,,,0.000016540000,  -3.52000,
,,,0.000016544000,  -3.52000,
,,,0.000016548000,  -3.52000,
,,,0.000016552000,  -3.52000,
,,,0.000016556000,  -3.52000,
,,,0.000016560000,  -3.52000,
,,,0.000016564000,  -3.52000,
,,,0.000016568000,  -3.52000,
,,,0.000016572000,  -3.52000,
,,,0.000016576000,  -3.52000,
,,,0.000016580000,  -3.52000,
,,,0.000016584000,  -3.52000,
,,,0.000016588000,  -3.60000,
,,,0.000016592000,  -3.52000,
,,,0.000016596000,  -3.60000,
,,,0.000016600000,  -3.60000,
,,,0.000016604000,  -3.60000,
,,,0.000016608000,  -3.52000,
,,,0.000016612000,  -3.60000,
,,,0.000016616000,  -3.60000,
,,,0.000016620000,  -3.60000,
,,,0.000016624000,  -3.60000,
,,,0.000016628000,  -3.60000,
,,,0.000016632000,  -3.60000,
,,,0.000016636000,  -3.60000,
,,,0.000016640000,  -3.60000,
,,,0.000016644000,  -3.60000,
,,,0.000016648000,  -3.60000,
,,,0.000016652000,  -3.60000,
,,,0.000016656000,  -3.60000,
,,,0.000016660000,  -3.60000,
,,,0.000016664000,  -3.60000,
,,,0.000016668000,  -3.60000,
,,,0.000016672000,  -3.60000,
,,,0.000016676000,  -3.68000,
,,,0.000016680000,  -3.68000,
,,,0.000016684000,  -3.68000,
,,,0.000016688000,  -3.68000,
,,,0.000016692000,  -3.68000,
,,,0.000016696000,  -3.68000,
,,,0.000016700000,  -3.68000,
,,,0.000016704000,  -3.68000,
,,,0.000016708000,  -3.68000,
,,,0.000016712000,  -3.68000,
,,,0.000016716000,  -3.68000,
,,,0.000016720000,  -3.68000,
,,,0.000016724000,  -3.68000,
,,,0.000016728000,  -3.68000,
,,,0.000016732000,  -3.68000,
,,,0.000016736000,  -3.76000,
,,,0.000016740000,  -3.68000,
,,,0.000016744000,  -3.68000,
,,,0.000016748000,  -3.68000,
,,,0.000016752000,  -3.76000,
,,,0.000016756000,  -3.68000,
,,,0.000016760000,  -3.76000,
,,,0.000016764000,  -3.68000,
,,,0.000016768000,  -3.76000,
,,,0.000016772000,  -3.76000,
,,,0.000016776000,  -3.76000,
,,,0.000016780000,  -3.76000,
,,,0.000016784000,  -3.76000,
,,,0.000016788000,  -3.76000,
,,,0.000016792000,  -3.76000,
,,,0.000016796000,  -3.76000,
,,,0.000016800000,  -3.76000,
,,,0.000016804000,  -3.76000,
,,,0.000016808000,  -3.76000,
,,,0.000016812000,  -3.76000,
,,,0.000016816000,  -3.76000,
,,,0.000016820000,  -3.76000,
,,,0.000016824000,  -3.76000,
,,,0.000016828000,  -3.76000,
,,,0.000016832000,  -3.76000,
,,,0.000016836000,  -3.76000,
,,,0.000016840000,  -3.76000,
,,,0.000016844000,  -3.76000,
,,,0.000016848000,  -3.76000,
,,,0.000016852000,  -3.84000,
,,,0.000016856000,  -3.76000,
,,,0.000016860000,  -3.76000,
,,,0.000016864000,  -3.76000,
,,,0.000016868000,  -3.84000,
,,,0.000016872000,  -3.76000,
,,,0.000016876000,  -3.84000,
,,,0.000016880000,  -3.76000,
,,,0.000016884000,  -3.84000,
,,,0.000016888000,  -3.84000,
,,,0.000016892000,  -3.84000,
,,,0.000016896000,  -3.84000,
,,,0.000016900000,  -3.84000,
,,,0.000016904000,  -3.76000,
,,,0.000016908000,  -3.84000,
,,,0.000016912000,  -3.84000,
,,,0.000016916000,  -3.84000,
,,,0.000016920000,  -3.84000,
,,,0.000016924000,  -3.84000,
,,,0.000016928000,  -3.84000,
,,,0.000016932000,  -3.84000,
,,,0.000016936000,  -3.84000,
,,,0.000016940000,  -3.84000,
,,,0.000016944000,  -3.84000,
,,,0.000016948000,  -3.84000,
,,,0.000016952000,  -3.84000,
,,,0.000016956000,  -3.84000,
,,,0.000016960000,  -3.84000,
,,,0.000016964000,  -3.84000,
,,,0.000016968000,  -3.84000,
,,,0.000016972000,  -3.84000,
,,,0.000016976000,  -3.84000,
,,,0.000016980000,  -3.84000,
,,,0.000016984000,  -3.92000,
,,,0.000016988000,  -3.84000,
,,,0.000016992000,  -3.84000,
,,,0.000016996000,  -3.84000,
,,,0.000017000000,  -3.84000,
,,,0.000017004000,  -3.84000,
,,,0.000017008000,  -3.92000,
,,,0.000017012000,  -3.84000,
,,,0.000017016000,  -3.92000,
,,,0.000017020000,  -3.84000,
,,,0.000017024000,  -3.92000,
,,,0.000017028000,  -3.92000,
,,,0.000017032000,  -3.92000,
,,,0.000017036000,  -3.92000,
,,,0.000017040000,  -3.92000,
,,,0.000017044000,  -3.92000,
,,,0.000017048000,  -3.92000,
,,,0.000017052000,  -3.92000,
,,,0.000017056000,  -3.92000,
,,,0.000017060000,  -3.92000,
,,,0.000017064000,  -3.92000,
,,,0.000017068000,  -3.92000,
,,,0.000017072000,  -3.92000,
,,,0.000017076000,  -3.92000,
,,,0.000017080000,  -3.92000,
,,,0.000017084000,  -3.92000,
,,,0.000017088000,  -3.92000,
,,,0.000017092000,  -3.92000,
,,,0.000017096000,  -3.92000,
,,,0.000017100000,  -3.92000,
,,,0.000017104000,  -3.92000,
,,,0.000017108000,  -3.92000,
,,,0.000017112000,  -3.92000,
,,,0.000017116000,  -3.92000,
,,,0.000017120000,  -3.92000,
,,,0.000017124000,  -3.92000,
,,,0.000017128000,  -3.92000,
,,,0.000017132000,  -3.92000,
,,,0.000017136000,  -3.92000,
,,,0.000017140000,  -3.92000,
,,,0.000017144000,  -3.92000,
,,,0.000017148000,  -3.92000,
,,,0.000017152000,  -3.92000,
,,,0.000017156000,  -3.92000,
,,,0.000017160000,  -3.92000,
,,,0.000017164000,  -3.92000,
,,,0.000017168000,  -3.92000,
,,,0.000017172000,  -3.92000,
,,,0.000017176000,  -3.92000,
,,,0.000017180000,  -3.92000,
,,,0.000017184000,  -3.92000,
,,,0.000017188000,  -3.92000,
,,,0.000017192000,  -3.92000,
,,,0.000017196000,  -3.92000,
,,,0.000017200000,  -3.92000,
,,,0.000017204000,  -3.92000,
,,,0.000017208000,  -3.92000,
,,,0.000017212000,  -3.92000,
