Circuiti_3/data.leo/RC/9000/F0014MTH.CSV

Record Length,2.500000e+03,,  -0.000078000000,   3.28000,
Sample Interval,1.000000e-07,,  -0.000077900000,   3.28000,
Trigger Point,7.800000000000e+02,,  -0.000077800000,   3.28000,
,,,  -0.000077700000,   3.28000,
,,,  -0.000077600000,   3.20000,
,,,  -0.000077500000,   3.36000,
Source,MATH,,  -0.000077400000,   3.28000,
Vertical Units,V,,  -0.000077300000,   3.28000,
Vertical Scale,2.000000e+00,,  -0.000077200000,   3.28000,
Vertical Offset,0.000000e+00,,  -0.000077100000,   3.28000,
Horizontal Units,s,,  -0.000077000000,   3.28000,
Horizontal Scale,2.500000e-05,,  -0.000076900000,   3.36000,
Pt Fmt,Y,,  -0.000076800000,   3.36000,
Yzero,0.000000e+00,,  -0.000076700000,   3.36000,
Probe Atten,1.000000e+00,,  -0.000076600000,   3.28000,
Model Number,TDS2012C,,  -0.000076500000,   3.28000,
Serial Number,C050125,,  -0.000076400000,   3.28000,
Firmware Version,FV:v24.26,,  -0.000076300000,   3.28000,
,,,-00.000076200000,   3.36000,
,,,-00.000076100000,   3.36000,
,,,-00.000076000000,   3.28000,
,,,-00.000075900000,   3.28000,
,,,-00.000075800000,   3.28000,
,,,-00.000075700000,   3.28000,
,,,-00.000075600000,   3.28000,
,,,-00.000075500000,   3.36000,
,,,-00.000075400000,   3.36000,
,,,-00.000075300000,   3.28000,
,,,-00.000075200000,   3.28000,
,,,-00.000075100000,   3.28000,
,,,-00.000075000000,   3.28000,
,,,-00.000074900000,   3.36000,
,,,-00.000074800000,   3.36000,
,,,-00.000074700000,   3.36000,
,,,-00.000074600000,   3.28000,
,,,-00.000074500000,   3.28000,
,,,-00.000074400000,   3.28000,
,,,-00.000074300000,   3.28000,
,,,-00.000074200000,   3.36000,
,,,-00.000074100000,   3.36000,
,,,-00.000074000000,   3.28000,
,,,-00.000073900000,   3.28000,
,,,-00.000073800000,   3.28000,
,,,-00.000073700000,   3.28000,
,,,-00.000073600000,   3.28000,
,,,-00.000073500000,   3.36000,
,,,-00.000073400000,   3.28000,
,,,-00.000073300000,   3.28000,
,,,-00.000073200000,   3.28000,
,,,-00.000073100000,   3.28000,
,,,-00.000073000000,   3.28000,
,,,-00.000072900000,   3.28000,
,,,-00.000072800000,   3.36000,
,,,-00.000072700000,   3.36000,
,,,-00.000072600000,   3.28000,
,,,-00.000072500000,   3.28000,
,,,-00.000072400000,   3.28000,
,,,-00.000072300000,   3.28000,
,,,-00.000072200000,   3.20000,
,,,-00.000072100000,   3.28000,
,,,-00.000072000000,   3.28000,
,,,-00.000071900000,   3.28000,
,,,-00.000071800000,   3.28000,
,,,-00.000071700000,   3.28000,
,,,-00.000071600000,   3.20000,
,,,-00.000071500000,   3.28000,
,,,-00.000071400000,   3.28000,
,,,-00.000071300000,   3.28000,
,,,-00.000071200000,   3.20000,
,,,-00.000071100000,   3.20000,
,,,-00.000071000000,   3.20000,
,,,-00.000070900000,   3.20000,
,,,-00.000070800000,   3.28000,
,,,-00.000070700000,   3.28000,
,,,-00.000070600000,   3.20000,
,,,-00.000070500000,   3.20000,
,,,-00.000070400000,   3.20000,
,,,-00.000070300000,   3.12000,
,,,-00.000070200000,   3.20000,
,,,-00.000070100000,   3.20000,
,,,-00.000070000000,   3.20000,
,,,-00.000069900000,   3.20000,
,,,-00.000069800000,   3.20000,
,,,-00.000069700000,   3.12000,
,,,-00.000069600000,   3.12000,
,,,-00.000069500000,   3.20000,
,,,-00.000069400000,   3.20000,
,,,-00.000069300000,   3.12000,
,,,-00.000069200000,   3.12000,
,,,-00.000069100000,   3.12000,
,,,-00.000069000000,   3.12000,
,,,-00.000068900000,   3.12000,
,,,-00.000068800000,   3.12000,
,,,-00.000068700000,   3.12000,
,,,-00.000068600000,   3.12000,
,,,-00.000068500000,   3.12000,
,,,-00.000068400000,   3.12000,
,,,-00.000068300000,   3.04000,
,,,-00.000068200000,   3.04000,
,,,-00.000068100000,   3.04000,
,,,-00.000068000000,   2.96000,
,,,-00.000067900000,   3.04000,
,,,-00.000067800000,   3.04000,
,,,-00.000067700000,   3.04000,
,,,-00.000067600000,   3.04000,
,,,-00.000067500000,   3.04000,
,,,-00.000067400000,   2.96000,
,,,-00.000067300000,   3.04000,
,,,-00.000067200000,   3.04000,
,,,-00.000067100000,   2.96000,
,,,-00.000067000000,   2.96000,
,,,-00.000066900000,   2.96000,
,,,-00.000066800000,   2.96000,
,,,-00.000066700000,   2.96000,
,,,-00.000066600000,   2.88000,
,,,-00.000066500000,   2.96000,
,,,-00.000066400000,   2.96000,
,,,-00.000066300000,   2.96000,
,,,-00.000066200000,   2.88000,
,,,-00.000066100000,   2.88000,
,,,-00.000066000000,   2.88000,
,,,-00.000065900000,   2.88000,
,,,-00.000065800000,   2.96000,
,,,-00.000065700000,   2.88000,
,,,-00.000065600000,   2.88000,
,,,-00.000065500000,   2.88000,
,,,-00.000065400000,   2.80000,
,,,-00.000065300000,   2.80000,
,,,-00.000065200000,   2.80000,
,,,-00.000065100000,   2.80000,
,,,-00.000065000000,   2.88000,
,,,-00.000064900000,   2.80000,
,,,-00.000064800000,   2.80000,
,,,-00.000064700000,   2.80000,
,,,-00.000064600000,   2.72000,
,,,-00.000064500000,   2.72000,
,,,-00.000064400000,   2.72000,
,,,-00.000064300000,   2.64000,
,,,-00.000064200000,   2.72000,
,,,-00.000064100000,   2.72000,
,,,-00.000064000000,   2.72000,
,,,-00.000063900000,   2.64000,
,,,-00.000063800000,   2.64000,
,,,-00.000063700000,   2.64000,
,,,-00.000063600000,   2.64000,
,,,-00.000063500000,   2.56000,
,,,-00.000063400000,   2.56000,
,,,-00.000063300000,   2.64000,
,,,-00.000063200000,   2.64000,
,,,-00.000063100000,   2.64000,
,,,-00.000063000000,   2.56000,
,,,-00.000062900000,   2.56000,
,,,-00.000062800000,   2.56000,
,,,-00.000062700000,   2.56000,
,,,-00.000062600000,   2.48000,
,,,-00.000062500000,   2.56000,
,,,-00.000062400000,   2.56000,
,,,-00.000062300000,   2.48000,
,,,-00.000062200000,   2.48000,
,,,-00.000062100000,   2.48000,
,,,-00.000062000000,   2.48000,
,,,-00.000061900000,   2.40000,
,,,-00.000061800000,   2.40000,
,,,-00.000061700000,   2.48000,
,,,-00.000061600000,   2.48000,
,,,-00.000061500000,   2.40000,
,,,-00.000061400000,   2.40000,
,,,-00.000061300000,   2.40000,
,,,-00.000061200000,   2.32000,
,,,-00.000061100000,   2.32000,
,,,-00.000061000000,   2.32000,
,,,-00.000060900000,   2.32000,
,,,-00.000060800000,   2.40000,
,,,-00.000060700000,   2.32000,
,,,-00.000060600000,   2.32000,
,,,-00.000060500000,   2.32000,
,,,-00.000060400000,   2.24000,
,,,-00.000060300000,   2.24000,
,,,-00.000060200000,   2.24000,
,,,-00.000060100000,   2.24000,
,,,-00.000060000000,   2.16000,
,,,-00.000059900000,   2.16000,
,,,-00.000059800000,   2.16000,
,,,-00.000059700000,   2.16000,
,,,-00.000059600000,   2.16000,
,,,-00.000059500000,   2.16000,
,,,-00.000059400000,   2.16000,
,,,-00.000059300000,   2.08000,
,,,-00.000059200000,   2.08000,
,,,-00.000059100000,   2.08000,
,,,-00.000059000000,   2.00000,
,,,-00.000058900000,   2.00000,
,,,-00.000058800000,   2.00000,
,,,-00.000058700000,   2.08000,
,,,-00.000058600000,   2.00000,
,,,-00.000058500000,   2.00000,
,,,-00.000058400000,   2.00000,
,,,-00.000058300000,   2.00000,
,,,-00.000058200000,   1.92000,
,,,-00.000058100000,   1.92000,
,,,-00.000058000000,   1.92000,
,,,-00.000057900000,   1.84000,
,,,-00.000057800000,   1.84000,
,,,-00.000057700000,   1.84000,
,,,-00.000057600000,   1.92000,
,,,-00.000057500000,   1.84000,
,,,-00.000057400000,   1.84000,
,,,-00.000057300000,   1.84000,
,,,-00.000057200000,   1.76000,
,,,-00.000057100000,   1.76000,
,,,-00.000057000000,   1.76000,
,,,-00.000056900000,   1.76000,
,,,-00.000056800000,   1.76000,
,,,-00.000056700000,   1.68000,
,,,-00.000056600000,   1.68000,
,,,-00.000056500000,   1.68000,
,,,-00.000056400000,   1.60000,
,,,-00.000056300000,   1.60000,
,,,-00.000056200000,   1.68000,
,,,-00.000056100000,   1.60000,
,,,-00.000056000000,   1.60000,
,,,-00.000055900000,   1.60000,
,,,-00.000055800000,   1.60000,
,,,-00.000055700000,   1.52000,
,,,-00.000055600000,   1.52000,
,,,-00.000055500000,   1.52000,
,,,-00.000055400000,   1.52000,
,,,-00.000055300000,   1.52000,
,,,-00.000055200000,   1.44000,
,,,-00.000055100000,   1.44000,
,,,-00.000055000000,   1.52000,
,,,-00.000054900000,   1.44000,
,,,-00.000054800000,   1.44000,
,,,-00.000054700000,   1.44000,
,,,-00.000054600000,   1.36000,
,,,-00.000054500000,   1.36000,
,,,-00.000054400000,   1.36000,
,,,-00.000054300000,   1.36000,
,,,-00.000054200000,   1.28000,
,,,-00.000054100000,   1.28000,
,,,-00.000054000000,   1.28000,
,,,-00.000053900000,   1.20000,
,,,-00.000053800000,   1.28000,
,,,-00.000053700000,   1.20000,
,,,-00.000053600000,   1.20000,
,,,-00.000053500000,   1.20000,
,,,-00.000053400000,   1.12000,
,,,-00.000053300000,   1.20000,
,,,-00.000053200000,   1.20000,
,,,-00.000053100000,   1.12000,
,,,-00.000053000000,   1.12000,
,,,-00.000052900000,   1.12000,
,,,-00.000052800000,   1.04000,
,,,-00.000052700000,   1.04000,
,,,-00.000052600000,   1.04000,
,,,-00.000052500000,   1.04000,
,,,-00.000052400000,   0.96000,
,,,-00.000052300000,   0.96000,
,,,-00.000052200000,   0.96000,
,,,-00.000052100000,   0.96000,
,,,-00.000052000000,   0.96000,
,,,-00.000051900000,   0.88000,
,,,-00.000051800000,   0.88000,
,,,-00.000051700000,   0.88000,
,,,-00.000051600000,   0.80000,
,,,-00.000051500000,   0.80000,
,,,-00.000051400000,   0.72000,
,,,-00.000051300000,   0.80000,
,,,-00.000051200000,   0.80000,
,,,-00.000051100000,   0.80000,
,,,-00.000051000000,   0.80000,
,,,-00.000050900000,   0.80000,
,,,-00.000050800000,   0.72000,
,,,-00.000050700000,   0.72000,
,,,-00.000050600000,   0.72000,
,,,-00.000050500000,   0.64000,
,,,-00.000050400000,   0.64000,
,,,-00.000050300000,   0.64000,
,,,-00.000050200000,   0.64000,
,,,-00.000050100000,   0.64000,
,,,-00.000050000000,   0.56000,
,,,-00.000049900000,   0.56000,
,,,-00.000049800000,   0.56000,
,,,-00.000049700000,   0.48000,
,,,-00.000049600000,   0.48000,
,,,-00.000049500000,   0.48000,
,,,-00.000049400000,   0.48000,
,,,-00.000049300000,   0.40000,
,,,-00.000049200000,   0.40000,
,,,-00.000049100000,   0.40000,
,,,-00.000049000000,   0.40000,
,,,-00.000048900000,   0.32000,
,,,-00.000048800000,   0.32000,
,,,-00.000048700000,   0.32000,
,,,-00.000048600000,   0.32000,
,,,-00.000048500000,   0.24000,
,,,-00.000048400000,   0.24000,
,,,-00.000048300000,   0.24000,
,,,-00.000048200000,   0.24000,
,,,-00.000048100000,   0.16000,
,,,-00.000048000000,   0.16000,
,,,-00.000047900000,   0.16000,
,,,-00.000047800000,   0.16000,
,,,-00.000047700000,   0.16000,
,,,-00.000047600000,   0.08000,
,,,-00.000047500000,   0.08000,
,,,-00.000047400000,   0.08000,
,,,-00.000047300000,   0.00000,
,,,-00.000047200000,   0.00000,
,,,-00.000047100000,   0.00000,
,,,-00.000047000000,   0.00000,
,,,-00.000046900000,   0.00000,
,,,-00.000046800000,  -0.08000,
,,,-00.000046700000,  -0.08000,
,,,-00.000046600000,  -0.08000,
,,,-00.000046500000,  -0.08000,
,,,-00.000046400000,  -0.08000,
,,,-00.000046300000,  -0.16000,
,,,-00.000046200000,  -0.16000,
,,,-00.000046100000,  -0.16000,
,,,-00.000046000000,  -0.16000,
,,,-00.000045900000,  -0.24000,
,,,-00.000045800000,  -0.24000,
,,,-00.000045700000,  -0.24000,
,,,-00.000045600000,  -0.32000,
,,,-00.000045500000,  -0.32000,
,,,-00.000045400000,  -0.32000,
,,,-00.000045300000,  -0.32000,
,,,-00.000045200000,  -0.32000,
,,,-00.000045100000,  -0.40000,
,,,-00.000045000000,  -0.40000,
,,,-00.000044900000,  -0.40000,
,,,-00.000044800000,  -0.40000,
,,,-00.000044700000,  -0.40000,
,,,-00.000044600000,  -0.48000,
,,,-00.000044500000,  -0.48000,
,,,-00.000044400000,  -0.48000,
,,,-00.000044300000,  -0.48000,
,,,-00.000044200000,  -0.48000,
,,,-00.000044100000,  -0.56000,
,,,-00.000044000000,  -0.56000,
,,,-00.000043900000,  -0.56000,
,,,-00.000043800000,  -0.56000,
,,,-00.000043700000,  -0.64000,
,,,-00.000043600000,  -0.56000,
,,,-00.000043500000,  -0.64000,
,,,-00.000043400000,  -0.64000,
,,,-00.000043300000,  -0.64000,
,,,-00.000043200000,  -0.64000,
,,,-00.000043100000,  -0.72000,
,,,-00.000043000000,  -0.80000,
,,,-00.000042900000,  -0.72000,
,,,-00.000042800000,  -0.72000,
,,,-00.000042700000,  -0.80000,
,,,-00.000042600000,  -0.80000,
,,,-00.000042500000,  -0.88000,
,,,-00.000042400000,  -0.88000,
,,,-00.000042300000,  -0.88000,
,,,-00.000042200000,  -0.88000,
,,,-00.000042100000,  -0.88000,
,,,-00.000042000000,  -0.96000,
,,,-00.000041900000,  -0.96000,
,,,-00.000041800000,  -0.96000,
,,,-00.000041700000,  -0.96000,
,,,-00.000041600000,  -0.96000,
,,,-00.000041500000,  -1.04000,
,,,-00.000041400000,  -1.04000,
,,,-00.000041300000,  -1.04000,
,,,-00.000041200000,  -1.04000,
,,,-00.000041100000,  -1.04000,
,,,-00.000041000000,  -1.04000,
,,,-00.000040900000,  -1.12000,
,,,-00.000040800000,  -1.12000,
,,,-00.000040700000,  -1.12000,
,,,-00.000040600000,  -1.20000,
,,,-00.000040500000,  -1.20000,
,,,-00.000040400000,  -1.20000,
,,,-00.000040300000,  -1.20000,
,,,-00.000040200000,  -1.28000,
,,,-00.000040100000,  -1.28000,
,,,-00.000040000000,  -1.28000,
,,,-00.000039900000,  -1.28000,
,,,-00.000039800000,  -1.28000,
,,,-00.000039700000,  -1.28000,
,,,-00.000039600000,  -1.36000,
,,,-00.000039500000,  -1.36000,
,,,-00.000039400000,  -1.36000,
,,,-00.000039300000,  -1.36000,
,,,-00.000039200000,  -1.36000,
,,,-00.000039100000,  -1.44000,
,,,-00.000039000000,  -1.36000,
,,,-00.000038900000,  -1.44000,
,,,-00.000038800000,  -1.52000,
,,,-00.000038700000,  -1.44000,
,,,-00.000038600000,  -1.52000,
,,,-00.000038500000,  -1.52000,
,,,-00.000038400000,  -1.52000,
,,,-00.000038300000,  -1.60000,
,,,-00.000038200000,  -1.52000,
,,,-00.000038100000,  -1.60000,
,,,-00.000038000000,  -1.60000,
,,,-00.000037900000,  -1.60000,
,,,-00.000037800000,  -1.60000,
,,,-00.000037700000,  -1.68000,
,,,-00.000037600000,  -1.60000,
,,,-00.000037500000,  -1.68000,
,,,-00.000037400000,  -1.76000,
,,,-00.000037300000,  -1.76000,
,,,-00.000037200000,  -1.76000,
,,,-00.000037100000,  -1.76000,
,,,-00.000037000000,  -1.76000,
,,,-00.000036900000,  -1.76000,
,,,-00.000036800000,  -1.76000,
,,,-00.000036700000,  -1.84000,
,,,-00.000036600000,  -1.76000,
,,,-00.000036500000,  -1.84000,
,,,-00.000036400000,  -1.92000,
,,,-00.000036300000,  -1.92000,
,,,-00.000036200000,  -1.92000,
,,,-00.000036100000,  -1.92000,
,,,-00.000036000000,  -1.92000,
,,,-00.000035900000,  -1.92000,
,,,-00.000035800000,  -1.92000,
,,,-00.000035700000,  -2.00000,
,,,-00.000035600000,  -2.00000,
,,,-00.000035500000,  -2.00000,
,,,-00.000035400000,  -2.00000,
,,,-00.000035300000,  -2.00000,
,,,-00.000035200000,  -2.00000,
,,,-00.000035100000,  -2.08000,
,,,-00.000035000000,  -2.08000,
,,,-00.000034900000,  -2.08000,
,,,-00.000034800000,  -2.08000,
,,,-00.000034700000,  -2.08000,
,,,-00.000034600000,  -2.08000,
,,,-00.000034500000,  -2.16000,
,,,-00.000034400000,  -2.16000,
,,,-00.000034300000,  -2.16000,
,,,-00.000034200000,  -2.16000,
,,,-00.000034100000,  -2.16000,
,,,-00.000034000000,  -2.24000,
,,,-00.000033900000,  -2.24000,
,,,-00.000033800000,  -2.24000,
,,,-00.000033700000,  -2.24000,
,,,-00.000033600000,  -2.24000,
,,,-00.000033500000,  -2.24000,
,,,-00.000033400000,  -2.24000,
,,,-00.000033300000,  -2.24000,
,,,-00.000033200000,  -2.32000,
,,,-00.000033100000,  -2.32000,
,,,-00.000033000000,  -2.32000,
,,,-00.000032900000,  -2.32000,
,,,-00.000032800000,  -2.40000,
,,,-00.000032700000,  -2.40000,
,,,-00.000032600000,  -2.40000,
,,,-00.000032500000,  -2.40000,
,,,-00.000032400000,  -2.40000,
,,,-00.000032300000,  -2.48000,
,,,-00.000032200000,  -2.48000,
,,,-00.000032100000,  -2.48000,
,,,-00.000032000000,  -2.48000,
,,,-00.000031900000,  -2.48000,
,,,-00.000031800000,  -2.48000,
,,,-00.000031700000,  -2.48000,
,,,-00.000031600000,  -2.48000,
,,,-00.000031500000,  -2.48000,
,,,-00.000031400000,  -2.48000,
,,,-00.000031300000,  -2.56000,
,,,-00.000031200000,  -2.56000,
,,,-00.000031100000,  -2.56000,
,,,-00.000031000000,  -2.56000,
,,,-00.000030900000,  -2.56000,
,,,-00.000030800000,  -2.56000,
,,,-00.000030700000,  -2.56000,
,,,-00.000030600000,  -2.56000,
,,,-00.000030500000,  -2.64000,
,,,-00.000030400000,  -2.64000,
,,,-00.000030300000,  -2.64000,
,,,-00.000030200000,  -2.72000,
,,,-00.000030100000,  -2.64000,
,,,-00.000030000000,  -2.64000,
,,,-00.000029900000,  -2.64000,
,,,-00.000029800000,  -2.72000,
,,,-00.000029700000,  -2.72000,
,,,-00.000029600000,  -2.72000,
,,,-00.000029500000,  -2.72000,
,,,-00.000029400000,  -2.72000,
,,,-00.000029300000,  -2.72000,
,,,-00.000029200000,  -2.80000,
,,,-00.000029100000,  -2.72000,
,,,-00.000029000000,  -2.80000,
,,,-00.000028900000,  -2.72000,
,,,-00.000028800000,  -2.80000,
,,,-00.000028700000,  -2.80000,
,,,-00.000028600000,  -2.80000,
,,,-00.000028500000,  -2.88000,
,,,-00.000028400000,  -2.80000,
,,,-00.000028300000,  -2.80000,
,,,-00.000028200000,  -2.80000,
,,,-00.000028100000,  -2.88000,
,,,-00.000028000000,  -2.88000,
,,,-00.000027900000,  -2.88000,
,,,-00.000027800000,  -2.88000,
,,,-00.000027700000,  -2.88000,
,,,-00.000027600000,  -2.88000,
,,,-00.000027500000,  -2.88000,
,,,-00.000027400000,  -2.96000,
,,,-00.000027300000,  -2.96000,
,,,-00.000027200000,  -2.96000,
,,,-00.000027100000,  -2.96000,
,,,-00.000027000000,  -2.96000,
,,,-00.000026900000,  -2.96000,
,,,-00.000026800000,  -2.96000,
,,,-00.000026700000,  -2.96000,
,,,-00.000026600000,  -2.96000,
,,,-00.000026500000,  -3.04000,
,,,-00.000026400000,  -3.04000,
,,,-00.000026300000,  -3.04000,
,,,-00.000026200000,  -3.04000,
,,,-00.000026100000,  -2.96000,
,,,-00.000026000000,  -3.04000,
,,,-00.000025900000,  -3.04000,
,,,-00.000025800000,  -3.12000,
,,,-00.000025700000,  -3.04000,
,,,-00.000025600000,  -3.04000,
,,,-00.000025500000,  -3.04000,
,,,-00.000025400000,  -3.04000,
,,,-00.000025300000,  -3.04000,
,,,-00.000025200000,  -3.12000,
,,,-00.000025100000,  -3.12000,
,,,-00.000025000000,  -3.12000,
,,,-00.000024900000,  -3.12000,
,,,-00.000024800000,  -3.12000,
,,,-00.000024700000,  -3.12000,
,,,-00.000024600000,  -3.12000,
,,,-00.000024500000,  -3.20000,
,,,-00.000024400000,  -3.20000,
,,,-00.000024300000,  -3.20000,
,,,-00.000024200000,  -3.12000,
,,,-00.000024100000,  -3.12000,
,,,-00.000024000000,  -3.12000,
,,,-00.000023900000,  -3.12000,
,,,-00.000023800000,  -3.12000,
,,,-00.000023700000,  -3.20000,
,,,-00.000023600000,  -3.20000,
,,,-00.000023500000,  -3.20000,
,,,-00.000023400000,  -3.20000,
,,,-00.000023300000,  -3.12000,
,,,-00.000023200000,  -3.12000,
,,,-00.000023100000,  -3.20000,
,,,-00.000023000000,  -3.20000,
,,,-00.000022900000,  -3.20000,
,,,-00.000022800000,  -3.20000,
,,,-00.000022700000,  -3.20000,
,,,-00.000022600000,  -3.20000,
,,,-00.000022500000,  -3.20000,
,,,-00.000022400000,  -3.28000,
,,,-00.000022300000,  -3.28000,
,,,-00.000022200000,  -3.20000,
,,,-00.000022100000,  -3.20000,
,,,-00.000022000000,  -3.20000,
,,,-00.000021900000,  -3.20000,
,,,-00.000021800000,  -3.20000,
,,,-00.000021700000,  -3.28000,
,,,-00.000021600000,  -3.28000,
,,,-00.000021500000,  -3.28000,
,,,-00.000021400000,  -3.28000,
,,,-00.000021300000,  -3.28000,
,,,-00.000021200000,  -3.20000,
,,,-00.000021100000,  -3.28000,
,,,-00.000021000000,  -3.28000,
,,,-00.000020900000,  -3.28000,
,,,-00.000020800000,  -3.28000,
,,,-00.000020700000,  -3.28000,
,,,-00.000020600000,  -3.28000,
,,,-00.000020500000,  -3.20000,
,,,-00.000020400000,  -3.28000,
,,,-00.000020300000,  -3.28000,
,,,-00.000020200000,  -3.28000,
,,,-00.000020100000,  -3.28000,
,,,-00.000020000000,  -3.20000,
,,,-00.000019900000,  -3.28000,
,,,-00.000019800000,  -3.28000,
,,,-00.000019700000,  -3.28000,
,,,-00.000019600000,  -3.28000,
,,,-00.000019500000,  -3.28000,
,,,-00.000019400000,  -3.28000,
,,,-00.000019300000,  -3.28000,
,,,-00.000019200000,  -3.20000,
,,,-00.000019100000,  -3.36000,
,,,-00.000019000000,  -3.28000,
,,,-00.000018900000,  -3.28000,
,,,-00.000018800000,  -3.28000,
,,,-00.000018700000,  -3.28000,
,,,-00.000018600000,  -3.28000,
,,,-00.000018500000,  -3.28000,
,,,-00.000018400000,  -3.28000,
,,,-00.000018300000,  -3.28000,
,,,-00.000018200000,  -3.28000,
,,,-00.000018100000,  -3.28000,
,,,-00.000018000000,  -3.20000,
,,,-00.000017900000,  -3.28000,
,,,-00.000017800000,  -3.20000,
,,,-00.000017700000,  -3.20000,
,,,-00.000017600000,  -3.28000,
,,,-00.000017500000,  -3.28000,
,,,-00.000017400000,  -3.28000,
,,,-00.000017300000,  -3.20000,
,,,-00.000017200000,  -3.20000,
,,,-00.000017100000,  -3.28000,
,,,-00.000017000000,  -3.28000,
,,,-00.000016900000,  -3.28000,
,,,-00.000016800000,  -3.28000,
,,,-00.000016700000,  -3.20000,
