Circuiti_2/data/ALL0000/F0000CH1.CSV

Record Length,2.500000e+03,,  -0.000027000000,  -8.05120,
Sample Interval,1.000000e-07,,  -0.000026900000,  -8.26880,
Trigger Point,2.700000000000e+02,,  -0.000026800000,  -8.37760,
,,,  -0.000026700000,  -8.37760,
,,,  -0.000026600000,  -8.16000,
,,,  -0.000026500000,  -8.26880,
Source,CH1,,  -0.000026400000,  -8.05120,
Vertical Units,V,,  -0.000026300000,  -8.05120,
Vertical Scale,2.720000e+00,,  -0.000026200000,  -8.16000,
Vertical Offset,3.264000e-01,,  -0.000026100000,  -8.26880,
Horizontal Units,s,,  -0.000026000000,  -8.37760,
Horizontal Scale,2.500000e-05,,  -0.000025900000,  -8.37760,
Pt Fmt,Y,,  -0.000025800000,  -8.26880,
Yzero,0.000000e+00,,  -0.000025700000,  -8.26880,
Probe Atten,1.000000e+01,,  -0.000025600000,  -8.48640,
Model Number,TDS1001C-EDU,,  -0.000025500000,  -8.16000,
Serial Number,C013086,,  -0.000025400000,  -8.26880,
Firmware Version,FV:v25.07,,  -0.000025300000,  -8.05120,
,,,-00.000025200000,  -8.26880,
,,,-00.000025100000,  -8.26880,
,,,-00.000025000000,  -8.05120,
,,,-00.000024900000,  -8.37760,
,,,-00.000024800000,  -8.26880,
,,,-00.000024700000,  -8.26880,
,,,-00.000024600000,  -8.05120,
,,,-00.000024500000,  -8.26880,
,,,-00.000024400000,  -8.26880,
,,,-00.000024300000,  -8.26880,
,,,-00.000024200000,  -8.05120,
,,,-00.000024100000,  -8.26880,
,,,-00.000024000000,  -8.26880,
,,,-00.000023900000,  -8.26880,
,,,-00.000023800000,  -8.05120,
,,,-00.000023700000,  -8.05120,
,,,-00.000023600000,  -7.83360,
,,,-00.000023500000,  -8.16000,
,,,-00.000023400000,  -8.16000,
,,,-00.000023300000,  -8.48640,
,,,-00.000023200000,  -8.16000,
,,,-00.000023100000,  -8.37760,
,,,-00.000023000000,  -8.26880,
,,,-00.000022900000,  -8.37760,
,,,-00.000022800000,  -8.48640,
,,,-00.000022700000,  -8.26880,
,,,-00.000022600000,  -8.26880,
,,,-00.000022500000,  -8.26880,
,,,-00.000022400000,  -8.05120,
,,,-00.000022300000,  -8.16000,
,,,-00.000022200000,  -8.16000,
,,,-00.000022100000,  -7.94240,
,,,-00.000022000000,  -8.16000,
,,,-00.000021900000,  -8.16000,
,,,-00.000021800000,  -8.16000,
,,,-00.000021700000,  -8.37760,
,,,-00.000021600000,  -8.16000,
,,,-00.000021500000,  -8.37760,
,,,-00.000021400000,  -8.26880,
,,,-00.000021300000,  -8.26880,
,,,-00.000021200000,  -8.26880,
,,,-00.000021100000,  -8.16000,
,,,-00.000021000000,  -8.26880,
,,,-00.000020900000,  -8.26880,
,,,-00.000020800000,  -8.16000,
,,,-00.000020700000,  -8.26880,
,,,-00.000020600000,  -8.37760,
,,,-00.000020500000,  -8.37760,
,,,-00.000020400000,  -8.48640,
,,,-00.000020300000,  -8.05120,
,,,-00.000020200000,  -8.37760,
,,,-00.000020100000,  -8.16000,
,,,-00.000020000000,  -8.26880,
,,,-00.000019900000,  -8.26880,
,,,-00.000019800000,  -8.16000,
,,,-00.000019700000,  -8.16000,
,,,-00.000019600000,  -8.16000,
,,,-00.000019500000,  -8.26880,
,,,-00.000019400000,  -8.26880,
,,,-00.000019300000,  -8.16000,
,,,-00.000019200000,  -8.37760,
,,,-00.000019100000,  -8.26880,
,,,-00.000019000000,  -8.16000,
,,,-00.000018900000,  -8.16000,
,,,-00.000018800000,  -8.05120,
,,,-00.000018700000,  -8.26880,
,,,-00.000018600000,  -8.26880,
,,,-00.000018500000,  -8.26880,
,,,-00.000018400000,  -8.05120,
,,,-00.000018300000,  -8.26880,
,,,-00.000018200000,  -8.05120,
,,,-00.000018100000,  -8.16000,
,,,-00.000018000000,  -8.16000,
,,,-00.000017900000,  -8.26880,
,,,-00.000017800000,  -8.16000,
,,,-00.000017700000,  -8.16000,
,,,-00.000017600000,  -8.37760,
,,,-00.000017500000,  -8.26880,
,,,-00.000017400000,  -8.05120,
,,,-00.000017300000,  -8.16000,
,,,-00.000017200000,  -8.37760,
,,,-00.000017100000,  -8.26880,
,,,-00.000017000000,  -8.26880,
,,,-00.000016900000,  -8.26880,
,,,-00.000016800000,  -8.37760,
,,,-00.000016700000,  -8.37760,
,,,-00.000016600000,  -8.26880,
,,,-00.000016500000,  -8.37760,
,,,-00.000016400000,  -8.37760,
,,,-00.000016300000,  -8.16000,
,,,-00.000016200000,  -8.05120,
,,,-00.000016100000,  -8.37760,
,,,-00.000016000000,  -8.16000,
,,,-00.000015900000,  -8.26880,
,,,-00.000015800000,  -8.26880,
,,,-00.000015700000,  -8.16000,
,,,-00.000015600000,  -8.05120,
,,,-00.000015500000,  -8.26880,
,,,-00.000015400000,  -8.16000,
,,,-00.000015300000,  -8.37760,
,,,-00.000015200000,  -8.16000,
,,,-00.000015100000,  -8.05120,
,,,-00.000015000000,  -8.05120,
,,,-00.000014900000,  -8.37760,
,,,-00.000014800000,  -8.26880,
,,,-00.000014700000,  -8.05120,
,,,-00.000014600000,  -8.16000,
,,,-00.000014500000,  -8.05120,
,,,-00.000014400000,  -8.16000,
,,,-00.000014300000,  -8.26880,
,,,-00.000014200000,  -8.26880,
,,,-00.000014100000,  -8.48640,
,,,-00.000014000000,  -8.26880,
,,,-00.000013900000,  -8.26880,
,,,-00.000013800000,  -8.05120,
,,,-00.000013700000,  -8.05120,
,,,-00.000013600000,  -8.16000,
,,,-00.000013500000,  -8.05120,
,,,-00.000013400000,  -8.16000,
,,,-00.000013300000,  -8.05120,
,,,-00.000013200000,  -8.26880,
,,,-00.000013100000,  -8.16000,
,,,-00.000013000000,  -8.37760,
,,,-00.000012900000,  -8.37760,
,,,-00.000012800000,  -8.26880,
,,,-00.000012700000,  -8.37760,
,,,-00.000012600000,  -8.16000,
,,,-00.000012500000,  -8.16000,
,,,-00.000012400000,  -7.94240,
,,,-00.000012300000,  -8.26880,
,,,-00.000012200000,  -8.05120,
,,,-00.000012100000,  -8.26880,
,,,-00.000012000000,  -8.16000,
,,,-00.000011900000,  -8.26880,
,,,-00.000011800000,  -8.37760,
,,,-00.000011700000,  -8.37760,
,,,-00.000011600000,  -8.26880,
,,,-00.000011500000,  -8.16000,
,,,-00.000011400000,  -8.05120,
,,,-00.000011300000,  -8.05120,
,,,-00.000011200000,  -8.16000,
,,,-00.000011100000,  -7.94240,
,,,-00.000011000000,  -8.05120,
,,,-00.000010900000,  -7.94240,
,,,-00.000010800000,  -8.26880,
,,,-00.000010700000,  -8.05120,
,,,-00.000010600000,  -8.16000,
,,,-00.000010500000,  -8.48640,
,,,-00.000010400000,  -8.37760,
,,,-00.000010300000,  -8.26880,
,,,-00.000010200000,  -8.16000,
,,,-00.000010100000,  -8.05120,
,,,-00.000010000000,  -8.26880,
,,,-00.000009900000,  -8.26880,
,,,-00.000009800000,  -8.05120,
,,,-00.000009700000,  -8.16000,
,,,-00.000009600000,  -8.05120,
,,,-00.000009500000,  -8.37760,
,,,-00.000009400000,  -8.26880,
,,,-00.000009300000,  -8.05120,
,,,-00.000009200000,  -8.26880,
,,,-00.000009100000,  -8.05120,
,,,-00.000009000000,  -8.37760,
,,,-00.000008900000,  -8.05120,
,,,-00.000008800000,  -7.94240,
,,,-00.000008700000,  -8.05120,
,,,-00.000008600000,  -8.26880,
,,,-00.000008500000,  -8.16000,
,,,-00.000008400000,  -8.05120,
,,,-00.000008300000,  -8.05120,
,,,-00.000008200000,  -7.94240,
,,,-00.000008100000,  -8.26880,
,,,-00.000008000000,  -8.16000,
,,,-00.000007900000,  -8.26880,
,,,-00.000007800000,  -8.26880,
,,,-00.000007700000,  -8.37760,
,,,-00.000007600000,  -8.16000,
,,,-00.000007500000,  -8.26880,
,,,-00.000007400000,  -8.16000,
,,,-00.000007300000,  -8.26880,
,,,-00.000007200000,  -8.05120,
,,,-00.000007100000,  -8.26880,
,,,-00.000007000000,  -8.26880,
,,,-00.000006900000,  -8.37760,
,,,-00.000006800000,  -8.37760,
,,,-00.000006700000,  -8.05120,
,,,-00.000006600000,  -8.37760,
,,,-00.000006500000,  -8.16000,
,,,-00.000006400000,  -8.16000,
,,,-00.000006300000,  -8.05120,
,,,-00.000006200000,  -8.16000,
,,,-00.000006100000,  -8.16000,
,,,-00.000006000000,  -8.48640,
,,,-00.000005900000,  -8.26880,
,,,-00.000005800000,  -8.05120,
,,,-00.000005700000,  -7.94240,
,,,-00.000005600000,  -8.05120,
,,,-00.000005500000,  -7.94240,
,,,-00.000005400000,  -8.37760,
,,,-00.000005300000,  -8.16000,
,,,-00.000005200000,  -8.26880,
,,,-00.000005100000,  -8.37760,
,,,-00.000005000000,  -8.26880,
,,,-00.000004900000,  -8.37760,
,,,-00.000004800000,  -8.26880,
,,,-00.000004700000,  -8.16000,
,,,-00.000004600000,  -8.26880,
,,,-00.000004500000,  -8.37760,
,,,-00.000004400000,  -8.26880,
,,,-00.000004300000,  -8.48640,
,,,-00.000004200000,  -8.26880,
,,,-00.000004100000,  -8.16000,
,,,-00.000004000000,  -8.16000,
,,,-00.000003900000,  -8.26880,
,,,-00.000003800000,  -8.05120,
,,,-00.000003700000,  -8.37760,
,,,-00.000003600000,  -8.26880,
,,,-00.000003500000,  -8.59520,
,,,-00.000003400000,  -8.16000,
,,,-00.000003300000,  -8.37760,
,,,-00.000003200000,  -8.37760,
,,,-00.000003100000,  -8.37760,
,,,-00.000003000000,  -8.37760,
,,,-00.000002900000,  -8.26880,
,,,-00.000002800000,  -8.26880,
,,,-00.000002700000,  -8.26880,
,,,-00.000002600000,  -8.16000,
,,,-00.000002500000,  -8.16000,
,,,-00.000002400000,  -7.94240,
,,,-00.000002300000,  -8.16000,
,,,-00.000002200000,  -8.37760,
,,,-00.000002100000,  -8.05120,
,,,-00.000002000000,  -8.16000,
,,,-00.000001900000,  -8.26880,
,,,-00.000001800000,  -8.05120,
,,,-00.000001700000,  -8.05120,
,,,-00.000001600000,  -7.94240,
,,,-00.000001500000,  -8.16000,
,,,-00.000001400000,  -8.05120,
,,,-00.000001300000,  -8.26880,
,,,-00.000001200000,  -8.26880,
,,,-00.000001100000,  -8.26880,
,,,-00.000001000000,  -8.16000,
,,,-00.000000900000,  -8.37760,
,,,-00.000000800000,  -8.48640,
,,,-00.000000700000,  -8.26880,
,,,-00.000000600000,  -8.37760,
,,,-00.000000500000,  -8.05120,
,,,-00.000000400000,  -8.26880,
,,,-00.000000300000,  -8.05120,
,,,-00.000000200000,  -8.26880,
,,,-00.000000100000,  -8.26880,
,,,-00.000000000000,  -8.16000,
,,,00.000000100000,  -8.05120,
,,,00.000000200000,  -7.83360,
,,,00.000000300000,  -8.16000,
,,,00.000000400000,  -8.05120,
,,,00.000000500000,  -8.16000,
,,,00.000000600000,  -8.05120,
,,,00.000000700000,   7.83360,
,,,00.000000800000,   7.39840,
,,,00.000000900000,   7.28960,
,,,00.000001000000,   7.07200,
,,,00.000001100000,   7.18080,
,,,00.000001200000,   6.96320,
,,,00.000001300000,   7.07200,
,,,00.000001400000,   6.96320,
,,,00.000001500000,   7.18080,
,,,00.000001600000,   6.96320,
,,,00.000001700000,   6.85440,
,,,00.000001800000,   6.96320,
,,,00.000001900000,   6.85440,
,,,00.000002000000,   7.07200,
,,,00.000002100000,   6.96320,
,,,00.000002200000,   6.74560,
,,,00.000002300000,   7.07200,
,,,00.000002400000,   6.96320,
,,,00.000002500000,   6.96320,
,,,00.000002600000,   7.07200,
,,,00.000002700000,   6.96320,
,,,00.000002800000,   6.85440,
,,,00.000002900000,   7.07200,
,,,00.000003000000,   6.96320,
,,,00.000003100000,   6.85440,
,,,00.000003200000,   6.85440,
,,,00.000003300000,   6.85440,
,,,00.000003400000,   6.85440,
,,,00.000003500000,   6.85440,
,,,00.000003600000,   6.63680,
,,,00.000003700000,   6.96320,
,,,00.000003800000,   6.74560,
,,,00.000003900000,   7.07200,
,,,00.000004000000,   6.96320,
,,,00.000004100000,   6.96320,
,,,00.000004200000,   7.07200,
,,,00.000004300000,   6.85440,
,,,00.000004400000,   6.74560,
,,,00.000004500000,   6.63680,
,,,00.000004600000,   6.96320,
,,,00.000004700000,   6.96320,
,,,00.000004800000,   6.74560,
,,,00.000004900000,   6.74560,
,,,00.000005000000,   6.85440,
,,,00.000005100000,   6.96320,
,,,00.000005200000,   6.85440,
,,,00.000005300000,   6.96320,
,,,00.000005400000,   7.18080,
,,,00.000005500000,   6.96320,
,,,00.000005600000,   6.96320,
,,,00.000005700000,   7.07200,
,,,00.000005800000,   7.07200,
,,,00.000005900000,   7.07200,
,,,00.000006000000,   7.18080,
,,,00.000006100000,   6.96320,
,,,00.000006200000,   7.07200,
,,,00.000006300000,   6.85440,
,,,00.000006400000,   6.74560,
,,,00.000006500000,   7.07200,
,,,00.000006600000,   6.85440,
,,,00.000006700000,   6.74560,
,,,00.000006800000,   6.96320,
,,,00.000006900000,   6.85440,
,,,00.000007000000,   6.96320,
,,,00.000007100000,   6.85440,
,,,00.000007200000,   6.85440,
,,,00.000007300000,   6.85440,
,,,00.000007400000,   6.96320,
,,,00.000007500000,   6.96320,
,,,00.000007600000,   6.85440,
,,,00.000007700000,   7.07200,
,,,00.000007800000,   6.85440,
,,,00.000007900000,   7.07200,
,,,00.000008000000,   7.07200,
,,,00.000008100000,   7.18080,
,,,00.000008200000,   7.28960,
,,,00.000008300000,   7.07200,
,,,00.000008400000,   7.07200,
,,,00.000008500000,   7.07200,
,,,00.000008600000,   7.07200,
,,,00.000008700000,   7.07200,
,,,00.000008800000,   7.18080,
,,,00.000008900000,   7.07200,
,,,00.000009000000,   7.07200,
,,,00.000009100000,   7.07200,
,,,00.000009200000,   6.96320,
,,,00.000009300000,   6.85440,
,,,00.000009400000,   6.96320,
,,,00.000009500000,   6.96320,
,,,00.000009600000,   7.07200,
,,,00.000009700000,   7.07200,
,,,00.000009800000,   7.07200,
,,,00.000009900000,   7.18080,
,,,00.000010000000,   7.28960,
,,,00.000010100000,   6.96320,
,,,00.000010200000,   7.18080,
,,,00.000010300000,   7.07200,
,,,00.000010400000,   7.07200,
,,,00.000010500000,   7.18080,
,,,00.000010600000,   7.18080,
,,,00.000010700000,   7.28960,
,,,00.000010800000,   7.18080,
,,,00.000010900000,   6.96320,
,,,00.000011000000,   7.07200,
,,,00.000011100000,   7.07200,
,,,00.000011200000,   7.28960,
,,,00.000011300000,   7.07200,
,,,00.000011400000,   7.18080,
,,,00.000011500000,   7.18080,
,,,00.000011600000,   7.18080,
,,,00.000011700000,   7.07200,
,,,00.000011800000,   6.85440,
,,,00.000011900000,   7.28960,
,,,00.000012000000,   7.18080,
,,,00.000012100000,   7.07200,
,,,00.000012200000,   7.18080,
,,,00.000012300000,   7.39840,
,,,00.000012400000,   7.07200,
,,,00.000012500000,   7.39840,
,,,00.000012600000,   7.18080,
,,,00.000012700000,   7.18080,
,,,00.000012800000,   7.07200,
,,,00.000012900000,   7.28960,
,,,00.000013000000,   7.18080,
,,,00.000013100000,   7.39840,
,,,00.000013200000,   7.18080,
,,,00.000013300000,   7.07200,
,,,00.000013400000,   7.39840,
,,,00.000013500000,   7.07200,
,,,00.000013600000,   7.18080,
,,,00.000013700000,   7.39840,
,,,00.000013800000,   7.28960,
,,,00.000013900000,   7.18080,
,,,00.000014000000,   7.18080,
,,,00.000014100000,   7.28960,
,,,00.000014200000,   7.07200,
,,,00.000014300000,   7.18080,
,,,00.000014400000,   7.18080,
,,,00.000014500000,   7.18080,
,,,00.000014600000,   7.18080,
,,,00.000014700000,   7.18080,
,,,00.000014800000,   7.18080,
,,,00.000014900000,   7.28960,
,,,00.000015000000,   7.18080,
,,,00.000015100000,   7.07200,
,,,00.000015200000,   7.18080,
,,,00.000015300000,   7.07200,
,,,00.000015400000,   7.28960,
,,,00.000015500000,   7.28960,
,,,00.000015600000,   7.28960,
,,,00.000015700000,   7.39840,
,,,00.000015800000,   7.07200,
,,,00.000015900000,   7.18080,
,,,00.000016000000,   7.28960,
,,,00.000016100000,   7.39840,
,,,00.000016200000,   7.07200,
,,,00.000016300000,   6.96320,
,,,00.000016400000,   7.61600,
,,,00.000016500000,   7.07200,
,,,00.000016600000,   7.18080,
,,,00.000016700000,   7.07200,
,,,00.000016800000,   7.07200,
,,,00.000016900000,   7.39840,
,,,00.000017000000,   7.28960,
,,,00.000017100000,   7.07200,
,,,00.000017200000,   7.18080,
,,,00.000017300000,   7.50720,
,,,00.000017400000,   7.07200,
,,,00.000017500000,   7.18080,
,,,00.000017600000,   7.18080,
,,,00.000017700000,   7.28960,
,,,00.000017800000,   7.28960,
,,,00.000017900000,   7.28960,
,,,00.000018000000,   7.39840,
,,,00.000018100000,   7.18080,
,,,00.000018200000,   7.07200,
,,,00.000018300000,   7.39840,
,,,00.000018400000,   7.39840,
,,,00.000018500000,   7.28960,
,,,00.000018600000,   7.18080,
,,,00.000018700000,   7.28960,
,,,00.000018800000,   7.39840,
,,,00.000018900000,   7.18080,
,,,00.000019000000,   7.61600,
,,,00.000019100000,   7.07200,
,,,00.000019200000,   6.96320,
,,,00.000019300000,   7.07200,
,,,00.000019400000,   7.39840,
,,,00.000019500000,   6.96320,
,,,00.000019600000,   7.18080,
,,,00.000019700000,   7.50720,
,,,00.000019800000,   7.28960,
,,,00.000019900000,   7.39840,
,,,00.000020000000,   7.50720,
,,,00.000020100000,   7.39840,
,,,00.000020200000,   7.39840,
,,,00.000020300000,   7.39840,
,,,00.000020400000,   7.28960,
,,,00.000020500000,   7.18080,
,,,00.000020600000,   7.61600,
,,,00.000020700000,   7.39840,
,,,00.000020800000,   7.39840,
,,,00.000020900000,   7.18080,
,,,00.000021000000,   7.28960,
,,,00.000021100000,   7.28960,
,,,00.000021200000,   7.18080,
,,,00.000021300000,   7.39840,
,,,00.000021400000,   7.39840,
,,,00.000021500000,   7.39840,
,,,00.000021600000,   7.28960,
,,,00.000021700000,   7.28960,
,,,00.000021800000,   7.39840,
,,,00.000021900000,   7.18080,
,,,00.000022000000,   7.28960,
,,,00.000022100000,   7.39840,
,,,00.000022200000,   7.61600,
,,,00.000022300000,   7.28960,
,,,00.000022400000,   7.28960,
,,,00.000022500000,   7.18080,
,,,00.000022600000,   7.28960,
,,,00.000022700000,   7.28960,
,,,00.000022800000,   7.07200,
,,,00.000022900000,   7.39840,
,,,00.000023000000,   7.28960,
,,,00.000023100000,   7.18080,
,,,00.000023200000,   7.28960,
,,,00.000023300000,   7.28960,
,,,00.000023400000,   7.18080,
,,,00.000023500000,   7.61600,
,,,00.000023600000,   7.50720,
,,,00.000023700000,   7.07200,
,,,00.000023800000,   7.28960,
,,,00.000023900000,   7.39840,
,,,00.000024000000,   7.61600,
,,,00.000024100000,   7.28960,
,,,00.000024200000,   7.39840,
,,,00.000024300000,   7.39840,
,,,00.000024400000,   7.28960,
,,,00.000024500000,   7.50720,
,,,00.000024600000,   7.39840,
,,,00.000024700000,   7.28960,
,,,00.000024800000,   7.50720,
,,,00.000024900000,   7.50720,
,,,00.000025000000,   7.39840,
,,,00.000025100000,   7.50720,
,,,00.000025200000,   7.50720,
,,,00.000025300000,   7.50720,
,,,00.000025400000,   7.50720,
,,,00.000025500000,   7.50720,
,,,00.000025600000,   7.61600,
,,,00.000025700000,   7.39840,
,,,00.000025800000,   7.39840,
,,,00.000025900000,   7.39840,
,,,00.000026000000,   7.39840,
,,,00.000026100000,   7.18080,
,,,00.000026200000,   7.28960,
,,,00.000026300000,   7.61600,
,,,00.000026400000,   7.50720,
,,,00.000026500000,   7.28960,
,,,00.000026600000,   7.61600,
,,,00.000026700000,   7.39840,
,,,00.000026800000,   7.50720,
,,,00.000026900000,   7.39840,
,,,00.000027000000,   7.50720,
,,,00.000027100000,   7.39840,
,,,00.000027200000,   7.61600,
,,,00.000027300000,   7.28960,
,,,00.000027400000,   7.39840,
,,,00.000027500000,   7.50720,
,,,00.000027600000,   7.28960,
,,,00.000027700000,   7.61600,
,,,00.000027800000,   7.39840,
,,,00.000027900000,   7.39840,
,,,00.000028000000,   7.50720,
,,,00.000028100000,   7.50720,
,,,00.000028200000,   7.50720,
,,,00.000028300000,   7.39840,
,,,00.000028400000,   7.61600,
,,,00.000028500000,   7.50720,
,,,00.000028600000,   7.50720,
,,,00.000028700000,   7.50720,
,,,00.000028800000,   7.50720,
,,,00.000028900000,   7.39840,
,,,00.000029000000,   7.39840,
,,,00.000029100000,   7.28960,
,,,00.000029200000,   7.50720,
,,,00.000029300000,   7.39840,
,,,00.000029400000,   7.39840,
,,,00.000029500000,   7.50720,
,,,00.000029600000,   7.61600,
,,,00.000029700000,   7.61600,
,,,00.000029800000,   7.50720,
,,,00.000029900000,   7.39840,
,,,00.000030000000,   7.61600,
,,,00.000030100000,   7.61600,
,,,00.000030200000,   7.50720,
,,,00.000030300000,   7.61600,
,,,00.000030400000,   7.39840,
,,,00.000030500000,   7.50720,
,,,00.000030600000,   7.61600,
,,,00.000030700000,   7.39840,
,,,00.000030800000,   7.61600,
,,,00.000030900000,   7.50720,
,,,00.000031000000,   7.61600,
,,,00.000031100000,   7.61600,
,,,00.000031200000,   7.39840,
,,,00.000031300000,   7.61600,
,,,00.000031400000,   7.61600,
,,,00.000031500000,   7.50720,
,,,00.000031600000,   7.61600,
,,,00.000031700000,   7.39840,
,,,00.000031800000,   7.50720,
,,,00.000031900000,   7.61600,
,,,00.000032000000,   7.50720,
,,,00.000032100000,   7.83360,
,,,00.000032200000,   7.61600,
,,,00.000032300000,   7.61600,
,,,00.000032400000,   7.39840,
,,,00.000032500000,   7.39840,
,,,00.000032600000,   7.28960,
,,,00.000032700000,   7.50720,
,,,00.000032800000,   7.50720,
,,,00.000032900000,   7.83360,
,,,00.000033000000,   7.39840,
,,,00.000033100000,   7.39840,
,,,00.000033200000,   7.50720,
,,,00.000033300000,   7.61600,
,,,00.000033400000,   7.50720,
,,,00.000033500000,   7.50720,
,,,00.000033600000,   7.61600,
,,,00.000033700000,   7.39840,
,,,00.000033800000,   7.50720,
,,,00.000033900000,   7.61600,
,,,00.000034000000,   7.50720,
,,,00.000034100000,   7.50720,
,,,00.000034200000,   7.50720,
,,,00.000034300000,   7.50720,
,,,00.000034400000,   7.61600,
,,,00.000034500000,   7.83360,
,,,00.000034600000,   7.39840,
,,,00.000034700000,   7.50720,
,,,00.000034800000,   7.39840,
,,,00.000034900000,   7.50720,
,,,00.000035000000,   7.50720,
,,,00.000035100000,   7.61600,
,,,00.000035200000,   7.50720,
,,,00.000035300000,   7.83360,
,,,00.000035400000,   7.50720,
