Circuiti_2/data/RLC_1540/F0022CH2.CSV

Record Length,2.500000e+03,,  -0.000046000000,   0.00000,
Sample Interval,2.000000e-07,,  -0.000045800000,   0.00000,
Trigger Point,2.300000000000e+02,,  -0.000045600000,   0.06320,
,,,  -0.000045400000,   0.00000,
,,,  -0.000045200000,   0.06320,
,,,  -0.000045000000,   0.00000,
Source,CH2,,  -0.000044800000,   0.06320,
Vertical Units,V,,  -0.000044600000,   0.00000,
Vertical Scale,1.580000e+00,,  -0.000044400000,   0.00000,
Vertical Offset,-4.740000e+00,,  -0.000044200000,   0.06320,
Horizontal Units,s,,  -0.000044000000,   0.06320,
Horizontal Scale,5.000000e-05,,  -0.000043800000,   0.06320,
Pt Fmt,Y,,  -0.000043600000,   0.00000,
Yzero,0.000000e+00,,  -0.000043400000,   0.00000,
Probe Atten,1.000000e+01,,  -0.000043200000,   0.06320,
Model Number,TDS1001C-EDU,,  -0.000043000000,   0.00000,
Serial Number,C013086,,  -0.000042800000,   0.06320,
Firmware Version,FV:v25.07,,  -0.000042600000,   0.06320,
,,,-00.000042400000,   0.00000,
,,,-00.000042200000,   0.00000,
,,,-00.000042000000,   0.00000,
,,,-00.000041800000,   0.06320,
,,,-00.000041600000,   0.06320,
,,,-00.000041400000,   0.06320,
,,,-00.000041200000,   0.00000,
,,,-00.000041000000,   0.00000,
,,,-00.000040800000,   0.06320,
,,,-00.000040600000,   0.06320,
,,,-00.000040400000,   0.00000,
,,,-00.000040200000,   0.00000,
,,,-00.000040000000,   0.06320,
,,,-00.000039800000,   0.06320,
,,,-00.000039600000,   0.00000,
,,,-00.000039400000,   0.06320,
,,,-00.000039200000,   0.06320,
,,,-00.000039000000,   0.06320,
,,,-00.000038800000,   0.06320,
,,,-00.000038600000,   0.06320,
,,,-00.000038400000,   0.06320,
,,,-00.000038200000,   0.06320,
,,,-00.000038000000,   0.06320,
,,,-00.000037800000,   0.00000,
,,,-00.000037600000,   0.06320,
,,,-00.000037400000,   0.00000,
,,,-00.000037200000,   0.06320,
,,,-00.000037000000,   0.06320,
,,,-00.000036800000,   0.06320,
,,,-00.000036600000,   0.06320,
,,,-00.000036400000,   0.00000,
,,,-00.000036200000,   0.06320,
,,,-00.000036000000,   0.06320,
,,,-00.000035800000,   0.00000,
,,,-00.000035600000,   0.06320,
,,,-00.000035400000,   0.06320,
,,,-00.000035200000,   0.06320,
,,,-00.000035000000,   0.06320,
,,,-00.000034800000,   0.06320,
,,,-00.000034600000,   0.06320,
,,,-00.000034400000,   0.06320,
,,,-00.000034200000,   0.06320,
,,,-00.000034000000,   0.00000,
,,,-00.000033800000,   0.06320,
,,,-00.000033600000,   0.06320,
,,,-00.000033400000,   0.06320,
,,,-00.000033200000,   0.00000,
,,,-00.000033000000,   0.00000,
,,,-00.000032800000,   0.00000,
,,,-00.000032600000,   0.00000,
,,,-00.000032400000,   0.00000,
,,,-00.000032200000,   0.00000,
,,,-00.000032000000,   0.00000,
,,,-00.000031800000,   0.06320,
,,,-00.000031600000,   0.00000,
,,,-00.000031400000,   0.00000,
,,,-00.000031200000,   0.06320,
,,,-00.000031000000,   0.06320,
,,,-00.000030800000,   0.06320,
,,,-00.000030600000,   0.06320,
,,,-00.000030400000,   0.00000,
,,,-00.000030200000,   0.06320,
,,,-00.000030000000,   0.06320,
,,,-00.000029800000,   0.06320,
,,,-00.000029600000,   0.06320,
,,,-00.000029400000,   0.06320,
,,,-00.000029200000,   0.06320,
,,,-00.000029000000,   0.06320,
,,,-00.000028800000,   0.06320,
,,,-00.000028600000,   0.06320,
,,,-00.000028400000,   0.00000,
,,,-00.000028200000,   0.00000,
,,,-00.000028000000,   0.06320,
,,,-00.000027800000,   0.06320,
,,,-00.000027600000,   0.06320,
,,,-00.000027400000,   0.06320,
,,,-00.000027200000,   0.00000,
,,,-00.000027000000,   0.06320,
,,,-00.000026800000,   0.00000,
,,,-00.000026600000,   0.06320,
,,,-00.000026400000,   0.06320,
,,,-00.000026200000,   0.06320,
,,,-00.000026000000,   0.06320,
,,,-00.000025800000,   0.06320,
,,,-00.000025600000,   0.06320,
,,,-00.000025400000,   0.06320,
,,,-00.000025200000,   0.06320,
,,,-00.000025000000,   0.06320,
,,,-00.000024800000,   0.00000,
,,,-00.000024600000,   0.06320,
,,,-00.000024400000,   0.06320,
,,,-00.000024200000,   0.00000,
,,,-00.000024000000,   0.00000,
,,,-00.000023800000,   0.00000,
,,,-00.000023600000,   0.06320,
,,,-00.000023400000,   0.00000,
,,,-00.000023200000,   0.06320,
,,,-00.000023000000,   0.00000,
,,,-00.000022800000,   0.00000,
,,,-00.000022600000,   0.00000,
,,,-00.000022400000,   0.06320,
,,,-00.000022200000,   0.06320,
,,,-00.000022000000,   0.06320,
,,,-00.000021800000,   0.00000,
,,,-00.000021600000,   0.00000,
,,,-00.000021400000,   0.00000,
,,,-00.000021200000,   0.00000,
,,,-00.000021000000,   0.06320,
,,,-00.000020800000,   0.06320,
,,,-00.000020600000,   0.06320,
,,,-00.000020400000,   0.06320,
,,,-00.000020200000,   0.00000,
,,,-00.000020000000,   0.06320,
,,,-00.000019800000,   0.00000,
,,,-00.000019600000,   0.00000,
,,,-00.000019400000,   0.00000,
,,,-00.000019200000,   0.06320,
,,,-00.000019000000,   0.06320,
,,,-00.000018800000,   0.06320,
,,,-00.000018600000,   0.06320,
,,,-00.000018400000,   0.06320,
,,,-00.000018200000,   0.06320,
,,,-00.000018000000,   0.06320,
,,,-00.000017800000,   0.06320,
,,,-00.000017600000,   0.06320,
,,,-00.000017400000,   0.06320,
,,,-00.000017200000,   0.00000,
,,,-00.000017000000,   0.06320,
,,,-00.000016800000,   0.06320,
,,,-00.000016600000,   0.00000,
,,,-00.000016400000,   0.06320,
,,,-00.000016200000,   0.06320,
,,,-00.000016000000,   0.00000,
,,,-00.000015800000,   0.06320,
,,,-00.000015600000,   0.06320,
,,,-00.000015400000,   0.00000,
,,,-00.000015200000,   0.00000,
,,,-00.000015000000,   0.06320,
,,,-00.000014800000,   0.06320,
,,,-00.000014600000,   0.06320,
,,,-00.000014400000,   0.06320,
,,,-00.000014200000,   0.00000,
,,,-00.000014000000,   0.00000,
,,,-00.000013800000,   0.00000,
,,,-00.000013600000,   0.00000,
,,,-00.000013400000,   0.00000,
,,,-00.000013200000,   0.00000,
,,,-00.000013000000,   0.00000,
,,,-00.000012800000,   0.00000,
,,,-00.000012600000,   0.06320,
,,,-00.000012400000,   0.00000,
,,,-00.000012200000,   0.06320,
,,,-00.000012000000,   0.00000,
,,,-00.000011800000,   0.00000,
,,,-00.000011600000,   0.06320,
,,,-00.000011400000,   0.00000,
,,,-00.000011200000,   0.00000,
,,,-00.000011000000,   0.00000,
,,,-00.000010800000,   0.06320,
,,,-00.000010600000,   0.00000,
,,,-00.000010400000,   0.00000,
,,,-00.000010200000,   0.06320,
,,,-00.000010000000,   0.06320,
,,,-00.000009800000,   0.00000,
,,,-00.000009600000,   0.06320,
,,,-00.000009400000,   0.06320,
,,,-00.000009200000,   0.06320,
,,,-00.000009000000,   0.06320,
,,,-00.000008800000,   0.00000,
,,,-00.000008600000,   0.06320,
,,,-00.000008400000,   0.06320,
,,,-00.000008200000,   0.00000,
,,,-00.000008000000,   0.06320,
,,,-00.000007800000,   0.00000,
,,,-00.000007600000,   0.00000,
,,,-00.000007400000,   0.00000,
,,,-00.000007200000,   0.00000,
,,,-00.000007000000,   0.06320,
,,,-00.000006800000,   0.00000,
,,,-00.000006600000,   0.06320,
,,,-00.000006400000,   0.00000,
,,,-00.000006200000,   0.06320,
,,,-00.000006000000,   0.00000,
,,,-00.000005800000,   0.06320,
,,,-00.000005600000,   0.00000,
,,,-00.000005400000,   0.06320,
,,,-00.000005200000,   0.06320,
,,,-00.000005000000,   0.00000,
,,,-00.000004800000,   0.00000,
,,,-00.000004600000,   0.06320,
,,,-00.000004400000,   0.06320,
,,,-00.000004200000,   0.00000,
,,,-00.000004000000,   0.06320,
,,,-00.000003800000,   0.06320,
,,,-00.000003600000,   0.06320,
,,,-00.000003400000,   0.00000,
,,,-00.000003200000,   0.00000,
,,,-00.000003000000,   0.00000,
,,,-00.000002800000,   0.00000,
,,,-00.000002600000,   0.00000,
,,,-00.000002400000,   0.00000,
,,,-00.000002200000,   0.06320,
,,,-00.000002000000,   0.00000,
,,,-00.000001800000,   0.00000,
,,,-00.000001600000,   0.00000,
,,,-00.000001400000,   0.00000,
,,,-00.000001200000,   0.06320,
,,,-00.000001000000,   0.00000,
,,,-00.000000800000,   0.00000,
,,,-00.000000600000,   0.00000,
,,,-00.000000400000,   0.06320,
,,,-00.000000200000,   0.06320,
,,,-00.000000000000,   0.00000,
,,,00.000000200000,   0.00000,
,,,00.000000400000,   0.06320,
,,,00.000000600000,   0.00000,
,,,00.000000800000,   0.06320,
,,,00.000001000000,   0.06320,
,,,00.000001200000,   0.12640,
,,,00.000001400000,   0.94800,
,,,00.000001600000,   0.18960,
,,,00.000001800000,   0.25280,
,,,00.000002000000,   0.31600,
,,,00.000002200000,   0.37920,
,,,00.000002400000,   0.50560,
,,,00.000002600000,   0.63200,
,,,00.000002800000,   0.69520,
,,,00.000003000000,   0.82160,
,,,00.000003200000,   0.88480,
,,,00.000003400000,   1.01120,
,,,00.000003600000,   1.07440,
,,,00.000003800000,   1.20080,
,,,00.000004000000,   1.26400,
,,,00.000004200000,   1.39040,
,,,00.000004400000,   1.45360,
,,,00.000004600000,   1.51680,
,,,00.000004800000,   1.64320,
,,,00.000005000000,   1.76960,
,,,00.000005200000,   1.76960,
,,,00.000005400000,   1.89600,
,,,00.000005600000,   1.95920,
,,,00.000005800000,   2.02240,
,,,00.000006000000,   2.08560,
,,,00.000006200000,   2.21200,
,,,00.000006400000,   2.27520,
,,,00.000006600000,   2.40160,
,,,00.000006800000,   2.46480,
,,,00.000007000000,   2.52800,
,,,00.000007200000,   2.59120,
,,,00.000007400000,   2.71760,
,,,00.000007600000,   2.71760,
,,,00.000007800000,   2.84400,
,,,00.000008000000,   2.90720,
,,,00.000008200000,   3.03360,
,,,00.000008400000,   3.09680,
,,,00.000008600000,   3.16000,
,,,00.000008800000,   3.22320,
,,,00.000009000000,   3.28640,
,,,00.000009200000,   3.34960,
,,,00.000009400000,   3.41280,
,,,00.000009600000,   3.53920,
,,,00.000009800000,   3.60240,
,,,00.000010000000,   3.66560,
,,,00.000010200000,   3.72880,
,,,00.000010400000,   3.79200,
,,,00.000010600000,   3.85520,
,,,00.000010800000,   3.91840,
,,,00.000011000000,   3.98160,
,,,00.000011200000,   4.04480,
,,,00.000011400000,   4.10800,
,,,00.000011600000,   4.23440,
,,,00.000011800000,   4.29760,
,,,00.000012000000,   4.29760,
,,,00.000012200000,   4.42400,
,,,00.000012400000,   4.48720,
,,,00.000012600000,   4.55040,
,,,00.000012800000,   4.61360,
,,,00.000013000000,   4.61360,
,,,00.000013200000,   4.74000,
,,,00.000013400000,   4.80320,
,,,00.000013600000,   4.86640,
,,,00.000013800000,   4.92960,
,,,00.000014000000,   4.99280,
,,,00.000014200000,   5.05600,
,,,00.000014400000,   5.05600,
,,,00.000014600000,   5.11920,
,,,00.000014800000,   5.18240,
,,,00.000015000000,   5.24560,
,,,00.000015200000,   5.37200,
,,,00.000015400000,   5.37200,
,,,00.000015600000,   5.43520,
,,,00.000015800000,   5.49840,
,,,00.000016000000,   5.56160,
,,,00.000016200000,   5.62480,
,,,00.000016400000,   5.68800,
,,,00.000016600000,   5.75120,
,,,00.000016800000,   5.81440,
,,,00.000017000000,   5.87760,
,,,00.000017200000,   5.94080,
,,,00.000017400000,   5.94080,
,,,00.000017600000,   6.00400,
,,,00.000017800000,   6.06720,
,,,00.000018000000,   6.06720,
,,,00.000018200000,   6.19360,
,,,00.000018400000,   6.19360,
,,,00.000018600000,   6.25680,
,,,00.000018800000,   6.32000,
,,,00.000019000000,   6.38320,
,,,00.000019200000,   6.44640,
,,,00.000019400000,   6.50960,
,,,00.000019600000,   6.50960,
,,,00.000019800000,   6.57280,
,,,00.000020000000,   6.63600,
,,,00.000020200000,   6.69920,
,,,00.000020400000,   6.69920,
,,,00.000020600000,   6.76240,
,,,00.000020800000,   6.82560,
,,,00.000021000000,   6.82560,
,,,00.000021200000,   6.95200,
,,,00.000021400000,   6.95200,
,,,00.000021600000,   7.01520,
,,,00.000021800000,   7.01520,
,,,00.000022000000,   7.07840,
,,,00.000022200000,   7.14160,
,,,00.000022400000,   7.14160,
,,,00.000022600000,   7.20480,
,,,00.000022800000,   7.26800,
,,,00.000023000000,   7.26800,
,,,00.000023200000,   7.33120,
,,,00.000023400000,   7.39440,
,,,00.000023600000,   7.39440,
,,,00.000023800000,   7.45760,
,,,00.000024000000,   7.52080,
,,,00.000024200000,   7.52080,
,,,00.000024400000,   7.58400,
,,,00.000024600000,   7.64720,
,,,00.000024800000,   7.64720,
,,,00.000025000000,   7.71040,
,,,00.000025200000,   7.71040,
,,,00.000025400000,   7.77360,
,,,00.000025600000,   7.83680,
,,,00.000025800000,   7.90000,
,,,00.000026000000,   7.90000,
,,,00.000026200000,   7.90000,
,,,00.000026400000,   7.90000,
,,,00.000026600000,   7.96320,
,,,00.000026800000,   8.02640,
,,,00.000027000000,   8.08960,
,,,00.000027200000,   8.15280,
,,,00.000027400000,   8.15280,
,,,00.000027600000,   8.15280,
,,,00.000027800000,   8.21600,
,,,00.000028000000,   8.27920,
,,,00.000028200000,   8.27920,
,,,00.000028400000,   8.27920,
,,,00.000028600000,   8.34240,
,,,00.000028800000,   8.34240,
,,,00.000029000000,   8.40560,
,,,00.000029200000,   8.40560,
,,,00.000029400000,   8.46880,
,,,00.000029600000,   8.46880,
,,,00.000029800000,   8.53200,
,,,00.000030000000,   8.53200,
,,,00.000030200000,   8.59520,
,,,00.000030400000,   8.59520,
,,,00.000030600000,   8.65840,
,,,00.000030800000,   8.65840,
,,,00.000031000000,   8.72160,
,,,00.000031200000,   8.72160,
,,,00.000031400000,   8.72160,
,,,00.000031600000,   8.78480,
,,,00.000031800000,   8.78480,
,,,00.000032000000,   8.84800,
,,,00.000032200000,   8.84800,
,,,00.000032400000,   8.91120,
,,,00.000032600000,   8.91120,
,,,00.000032800000,   8.91120,
,,,00.000033000000,   8.97440,
,,,00.000033200000,   8.97440,
,,,00.000033400000,   8.97440,
,,,00.000033600000,   9.03760,
,,,00.000033800000,   9.10080,
,,,00.000034000000,   9.10080,
,,,00.000034200000,   9.10080,
,,,00.000034400000,   9.10080,
,,,00.000034600000,   9.16400,
,,,00.000034800000,   9.16400,
,,,00.000035000000,   9.22720,
,,,00.000035200000,   9.22720,
,,,00.000035400000,   9.29040,
,,,00.000035600000,   9.22720,
,,,00.000035800000,   9.29040,
,,,00.000036000000,   9.29040,
,,,00.000036200000,   9.35360,
,,,00.000036400000,   9.35360,
,,,00.000036600000,   9.35360,
,,,00.000036800000,   9.35360,
,,,00.000037000000,   9.41680,
,,,00.000037200000,   9.41680,
,,,00.000037400000,   9.48000,
,,,00.000037600000,   9.48000,
,,,00.000037800000,   9.48000,
,,,00.000038000000,   9.48000,
,,,00.000038200000,   9.48000,
,,,00.000038400000,   9.54320,
,,,00.000038600000,   9.60640,
,,,00.000038800000,   9.60640,
,,,00.000039000000,   9.60640,
,,,00.000039200000,   9.60640,
,,,00.000039400000,   9.60640,
,,,00.000039600000,   9.66960,
,,,00.000039800000,   9.66960,
,,,00.000040000000,   9.66960,
,,,00.000040200000,   9.73280,
,,,00.000040400000,   9.73280,
,,,00.000040600000,   9.73280,
,,,00.000040800000,   9.73280,
,,,00.000041000000,   9.73280,
,,,00.000041200000,   9.79600,
,,,00.000041400000,   9.79600,
,,,00.000041600000,   9.79600,
,,,00.000041800000,   9.79600,
,,,00.000042000000,   9.85920,
,,,00.000042200000,   9.85920,
,,,00.000042400000,   9.79600,
,,,00.000042600000,   9.85920,
,,,00.000042800000,   9.92240,
,,,00.000043000000,   9.85920,
,,,00.000043200000,   9.85920,
,,,00.000043400000,   9.92240,
,,,00.000043600000,   9.92240,
,,,00.000043800000,   9.92240,
,,,00.000044000000,   9.92240,
,,,00.000044200000,   9.98560,
,,,00.000044400000,   9.92240,
,,,00.000044600000,   9.98560,
,,,00.000044800000,   9.98560,
,,,00.000045000000,   9.98560,
,,,00.000045200000,   9.98560,
,,,00.000045400000,   9.98560,
,,,00.000045600000,   9.98560,
,,,00.000045800000,  10.04880,
,,,00.000046000000,  10.04880,
,,,00.000046200000,  10.04880,
,,,00.000046400000,  10.04880,
,,,00.000046600000,  10.11200,
,,,00.000046800000,  10.04880,
,,,00.000047000000,  10.04880,
,,,00.000047200000,  10.11200,
,,,00.000047400000,  10.11200,
,,,00.000047600000,  10.11200,
,,,00.000047800000,  10.11200,
,,,00.000048000000,  10.11200,
,,,00.000048200000,  10.11200,
,,,00.000048400000,  10.11200,
,,,00.000048600000,  10.17520,
,,,00.000048800000,  10.17520,
,,,00.000049000000,  10.11200,
,,,00.000049200000,  10.17520,
,,,00.000049400000,  10.17520,
,,,00.000049600000,  10.17520,
,,,00.000049800000,  10.17520,
,,,00.000050000000,  10.17520,
,,,00.000050200000,  10.17520,
,,,00.000050400000,  10.17520,
,,,00.000050600000,  10.17520,
,,,00.000050800000,  10.17520,
,,,00.000051000000,  10.17520,
,,,00.000051200000,  10.17520,
,,,00.000051400000,  10.23840,
,,,00.000051600000,  10.17520,
,,,00.000051800000,  10.23840,
,,,00.000052000000,  10.17520,
,,,00.000052200000,  10.17520,
,,,00.000052400000,  10.17520,
,,,00.000052600000,  10.17520,
,,,00.000052800000,  10.23840,
,,,00.000053000000,  10.17520,
,,,00.000053200000,  10.17520,
,,,00.000053400000,  10.23840,
,,,00.000053600000,  10.23840,
,,,00.000053800000,  10.23840,
,,,00.000054000000,  10.23840,
,,,00.000054200000,  10.23840,
,,,00.000054400000,  10.23840,
,,,00.000054600000,  10.23840,
,,,00.000054800000,  10.23840,
,,,00.000055000000,  10.23840,
,,,00.000055200000,  10.23840,
,,,00.000055400000,  10.23840,
,,,00.000055600000,  10.23840,
,,,00.000055800000,  10.23840,
,,,00.000056000000,  10.17520,
,,,00.000056200000,  10.23840,
,,,00.000056400000,  10.23840,
,,,00.000056600000,  10.23840,
,,,00.000056800000,  10.23840,
,,,00.000057000000,  10.23840,
,,,00.000057200000,  10.23840,
,,,00.000057400000,  10.23840,
,,,00.000057600000,  10.23840,
,,,00.000057800000,  10.23840,
,,,00.000058000000,  10.23840,
,,,00.000058200000,  10.17520,
,,,00.000058400000,  10.23840,
,,,00.000058600000,  10.17520,
,,,00.000058800000,  10.17520,
,,,00.000059000000,  10.17520,
,,,00.000059200000,  10.17520,
,,,00.000059400000,  10.17520,
,,,00.000059600000,  10.17520,
,,,00.000059800000,  10.17520,
,,,00.000060000000,  10.17520,
,,,00.000060200000,  10.17520,
,,,00.000060400000,  10.17520,
,,,00.000060600000,  10.11200,
,,,00.000060800000,  10.17520,
,,,00.000061000000,  10.17520,
,,,00.000061200000,  10.17520,
,,,00.000061400000,  10.17520,
,,,00.000061600000,  10.17520,
,,,00.000061800000,  10.17520,
,,,00.000062000000,  10.11200,
,,,00.000062200000,  10.11200,
,,,00.000062400000,  10.11200,
,,,00.000062600000,  10.11200,
,,,00.000062800000,  10.11200,
,,,00.000063000000,  10.11200,
,,,00.000063200000,  10.11200,
,,,00.000063400000,  10.04880,
,,,00.000063600000,  10.11200,
,,,00.000063800000,  10.04880,
,,,00.000064000000,  10.04880,
,,,00.000064200000,  10.04880,
,,,00.000064400000,  10.04880,
,,,00.000064600000,  10.04880,
,,,00.000064800000,  10.04880,
,,,00.000065000000,  10.04880,
,,,00.000065200000,  10.04880,
,,,00.000065400000,   9.98560,
,,,00.000065600000,   9.98560,
,,,00.000065800000,   9.98560,
,,,00.000066000000,   9.98560,
,,,00.000066200000,   9.98560,
,,,00.000066400000,   9.98560,
,,,00.000066600000,   9.98560,
,,,00.000066800000,   9.98560,
,,,00.000067000000,   9.98560,
,,,00.000067200000,   9.98560,
,,,00.000067400000,   9.92240,
,,,00.000067600000,   9.92240,
,,,00.000067800000,   9.92240,
,,,00.000068000000,   9.85920,
,,,00.000068200000,   9.92240,
,,,00.000068400000,   9.92240,
,,,00.000068600000,   9.92240,
,,,00.000068800000,   9.85920,
,,,00.000069000000,   9.92240,
,,,00.000069200000,   9.85920,
,,,00.000069400000,   9.85920,
,,,00.000069600000,   9.85920,
,,,00.000069800000,   9.79600,
,,,00.000070000000,   9.85920,
,,,00.000070200000,   9.79600,
,,,00.000070400000,   9.79600,
,,,00.000070600000,   9.79600,
,,,00.000070800000,   9.79600,
,,,00.000071000000,   9.73280,
,,,00.000071200000,   9.73280,
,,,00.000071400000,   9.73280,
,,,00.000071600000,   9.73280,
,,,00.000071800000,   9.66960,
,,,00.000072000000,   9.73280,
,,,00.000072200000,   9.66960,
,,,00.000072400000,   9.66960,
,,,00.000072600000,   9.73280,
,,,00.000072800000,   9.66960,
,,,00.000073000000,   9.66960,
,,,00.000073200000,   9.60640,
,,,00.000073400000,   9.60640,
,,,00.000073600000,   9.60640,
,,,00.000073800000,   9.60640,
,,,00.000074000000,   9.60640,
,,,00.000074200000,   9.60640,
,,,00.000074400000,   9.60640,
,,,00.000074600000,   9.54320,
,,,00.000074800000,   9.54320,
,,,00.000075000000,   9.54320,
,,,00.000075200000,   9.54320,
,,,00.000075400000,   9.48000,
,,,00.000075600000,   9.48000,
,,,00.000075800000,   9.48000,
,,,00.000076000000,   9.48000,
,,,00.000076200000,   9.48000,
,,,00.000076400000,   9.41680,
,,,00.000076600000,   9.41680,
,,,00.000076800000,   9.41680,
,,,00.000077000000,   9.41680,
,,,00.000077200000,   9.35360,
,,,00.000077400000,   9.41680,
,,,00.000077600000,   9.35360,
,,,00.000077800000,   9.35360,
,,,00.000078000000,   9.35360,
,,,00.000078200000,   9.35360,
,,,00.000078400000,   9.35360,
,,,00.000078600000,   9.35360,
,,,00.000078800000,   9.29040,
,,,00.000079000000,   9.29040,
