Circuiti_2/data/ALL0013/F0013CH2.CSV

Record Length,2.500000e+03,,  -0.000003200000,  -8.20800,
Sample Interval,4.000000e-08,,  -0.000003160000,  -8.20800,
Trigger Point,8.000000000000e+01,,  -0.000003120000,  -8.20800,
,,,  -0.000003080000,  -8.12160,
,,,  -0.000003040000,  -8.29440,
,,,  -0.000003000000,  -8.12160,
Source,CH2,,  -0.000002960000,  -8.20800,
Vertical Units,V,,  -0.000002920000,  -8.12160,
Vertical Scale,2.160000e+00,,  -0.000002880000,  -8.12160,
Vertical Offset,1.728000e-01,,  -0.000002840000,  -8.12160,
Horizontal Units,s,,  -0.000002800000,  -8.20800,
Horizontal Scale,1.000000e-05,,  -0.000002760000,  -8.29440,
Pt Fmt,Y,,  -0.000002720000,  -8.20800,
Yzero,0.000000e+00,,  -0.000002680000,  -8.03520,
Probe Atten,1.000000e+01,,  -0.000002640000,  -8.20800,
Model Number,TDS1001C-EDU,,  -0.000002600000,  -8.20800,
Serial Number,C013086,,  -0.000002560000,  -8.03520,
Firmware Version,FV:v25.07,,  -0.000002520000,  -8.12160,
,,,-00.000002480000,  -8.20800,
,,,-00.000002440000,  -8.12160,
,,,-00.000002400000,  -8.12160,
,,,-00.000002360000,  -8.12160,
,,,-00.000002320000,  -8.12160,
,,,-00.000002280000,  -8.12160,
,,,-00.000002240000,  -8.20800,
,,,-00.000002200000,  -8.29440,
,,,-00.000002160000,  -8.20800,
,,,-00.000002120000,  -8.03520,
,,,-00.000002080000,  -8.03520,
,,,-00.000002040000,  -8.12160,
,,,-00.000002000000,  -8.12160,
,,,-00.000001960000,  -8.20800,
,,,-00.000001920000,  -8.12160,
,,,-00.000001880000,  -8.20800,
,,,-00.000001840000,  -8.20800,
,,,-00.000001800000,  -8.12160,
,,,-00.000001760000,  -8.12160,
,,,-00.000001720000,  -8.20800,
,,,-00.000001680000,  -8.29440,
,,,-00.000001640000,  -8.20800,
,,,-00.000001600000,  -8.29440,
,,,-00.000001560000,  -8.20800,
,,,-00.000001520000,  -8.12160,
,,,-00.000001480000,  -8.12160,
,,,-00.000001440000,  -8.20800,
,,,-00.000001400000,  -8.20800,
,,,-00.000001360000,  -8.29440,
,,,-00.000001320000,  -8.12160,
,,,-00.000001280000,  -8.20800,
,,,-00.000001240000,  -8.12160,
,,,-00.000001200000,  -8.03520,
,,,-00.000001160000,  -8.20800,
,,,-00.000001120000,  -8.12160,
,,,-00.000001080000,  -8.20800,
,,,-00.000001040000,  -8.12160,
,,,-00.000001000000,  -8.12160,
,,,-00.000000960000,  -8.20800,
,,,-00.000000920000,  -8.12160,
,,,-00.000000880000,  -8.20800,
,,,-00.000000840000,  -8.12160,
,,,-00.000000800000,  -8.12160,
,,,-00.000000760000,  -8.12160,
,,,-00.000000720000,  -8.12160,
,,,-00.000000680000,  -8.20800,
,,,-00.000000640000,  -8.12160,
,,,-00.000000600000,  -8.12160,
,,,-00.000000560000,  -8.03520,
,,,-00.000000520000,  -8.20800,
,,,-00.000000480000,  -8.12160,
,,,-00.000000440000,  -8.20800,
,,,-00.000000400000,  -8.12160,
,,,-00.000000360000,  -8.12160,
,,,-00.000000320000,  -8.20800,
,,,-00.000000280000,  -8.20800,
,,,-00.000000240000,  -8.20800,
,,,-00.000000200000,  -8.12160,
,,,-00.000000160000,  -8.20800,
,,,-00.000000120000,  -8.20800,
,,,-00.000000080000,  -8.12160,
,,,-00.000000040000,  -8.12160,
,,,-00.000000000000,  -8.20800,
,,,00.000000040000,  -8.03520,
,,,00.000000080000,  -8.20800,
,,,00.000000120000,  -8.20800,
,,,00.000000160000,  -8.12160,
,,,00.000000200000,  -8.03520,
,,,00.000000240000,  -6.99840,
,,,00.000000280000,  -6.56640,
,,,00.000000320000,  -6.82560,
,,,00.000000360000,  -7.08480,
,,,00.000000400000,  -7.34400,
,,,00.000000440000,  -7.34400,
,,,00.000000480000,  -7.60320,
,,,00.000000520000,  -7.60320,
,,,00.000000560000,  -7.60320,
,,,00.000000600000,  -7.68960,
,,,00.000000640000,  -7.68960,
,,,00.000000680000,  -7.68960,
,,,00.000000720000,  -7.68960,
,,,00.000000760000,  -7.86240,
,,,00.000000800000,  -7.60320,
,,,00.000000840000,  -7.68960,
,,,00.000000880000,  -7.60320,
,,,00.000000920000,  -7.60320,
,,,00.000000960000,  -7.60320,
,,,00.000001000000,  -7.51680,
,,,00.000001040000,  -7.43040,
,,,00.000001080000,  -7.51680,
,,,00.000001120000,  -7.34400,
,,,00.000001160000,  -7.34400,
,,,00.000001200000,  -7.34400,
,,,00.000001240000,  -7.34400,
,,,00.000001280000,  -7.25760,
,,,00.000001320000,  -7.17120,
,,,00.000001360000,  -7.25760,
,,,00.000001400000,  -7.17120,
,,,00.000001440000,  -7.08480,
,,,00.000001480000,  -7.08480,
,,,00.000001520000,  -7.08480,
,,,00.000001560000,  -6.99840,
,,,00.000001600000,  -6.99840,
,,,00.000001640000,  -6.91200,
,,,00.000001680000,  -6.91200,
,,,00.000001720000,  -6.91200,
,,,00.000001760000,  -6.91200,
,,,00.000001800000,  -6.82560,
,,,00.000001840000,  -6.65280,
,,,00.000001880000,  -6.65280,
,,,00.000001920000,  -6.73920,
,,,00.000001960000,  -6.73920,
,,,00.000002000000,  -6.65280,
,,,00.000002040000,  -6.56640,
,,,00.000002080000,  -6.56640,
,,,00.000002120000,  -6.65280,
,,,00.000002160000,  -6.65280,
,,,00.000002200000,  -6.48000,
,,,00.000002240000,  -6.48000,
,,,00.000002280000,  -6.39360,
,,,00.000002320000,  -6.48000,
,,,00.000002360000,  -6.39360,
,,,00.000002400000,  -6.39360,
,,,00.000002440000,  -6.22080,
,,,00.000002480000,  -6.22080,
,,,00.000002520000,  -6.22080,
,,,00.000002560000,  -6.22080,
,,,00.000002600000,  -6.22080,
,,,00.000002640000,  -6.13440,
,,,00.000002680000,  -5.96160,
,,,00.000002720000,  -5.96160,
,,,00.000002760000,  -5.87520,
,,,00.000002800000,  -5.96160,
,,,00.000002840000,  -5.96160,
,,,00.000002880000,  -5.87520,
,,,00.000002920000,  -5.78880,
,,,00.000002960000,  -5.78880,
,,,00.000003000000,  -5.78880,
,,,00.000003040000,  -5.78880,
,,,00.000003080000,  -5.78880,
,,,00.000003120000,  -5.78880,
,,,00.000003160000,  -5.70240,
,,,00.000003200000,  -5.61600,
,,,00.000003240000,  -5.70240,
,,,00.000003280000,  -5.61600,
,,,00.000003320000,  -5.44320,
,,,00.000003360000,  -5.52960,
,,,00.000003400000,  -5.44320,
,,,00.000003440000,  -5.52960,
,,,00.000003480000,  -5.35680,
,,,00.000003520000,  -5.35680,
,,,00.000003560000,  -5.35680,
,,,00.000003600000,  -5.27040,
,,,00.000003640000,  -5.27040,
,,,00.000003680000,  -5.27040,
,,,00.000003720000,  -5.18400,
,,,00.000003760000,  -5.09760,
,,,00.000003800000,  -5.09760,
,,,00.000003840000,  -5.18400,
,,,00.000003880000,  -5.01120,
,,,00.000003920000,  -5.01120,
,,,00.000003960000,  -5.09760,
,,,00.000004000000,  -4.92480,
,,,00.000004040000,  -5.01120,
,,,00.000004080000,  -4.83840,
,,,00.000004120000,  -4.92480,
,,,00.000004160000,  -4.83840,
,,,00.000004200000,  -4.83840,
,,,00.000004240000,  -4.75200,
,,,00.000004280000,  -4.75200,
,,,00.000004320000,  -4.83840,
,,,00.000004360000,  -4.75200,
,,,00.000004400000,  -4.66560,
,,,00.000004440000,  -4.75200,
,,,00.000004480000,  -4.66560,
,,,00.000004520000,  -4.66560,
,,,00.000004560000,  -4.66560,
,,,00.000004600000,  -4.49280,
,,,00.000004640000,  -4.49280,
,,,00.000004680000,  -4.49280,
,,,00.000004720000,  -4.57920,
,,,00.000004760000,  -4.40640,
,,,00.000004800000,  -4.40640,
,,,00.000004840000,  -4.49280,
,,,00.000004880000,  -4.32000,
,,,00.000004920000,  -4.40640,
,,,00.000004960000,  -4.32000,
,,,00.000005000000,  -4.32000,
,,,00.000005040000,  -4.14720,
,,,00.000005080000,  -4.14720,
,,,00.000005120000,  -4.14720,
,,,00.000005160000,  -4.14720,
,,,00.000005200000,  -4.14720,
,,,00.000005240000,  -4.06080,
,,,00.000005280000,  -4.06080,
,,,00.000005320000,  -4.06080,
,,,00.000005360000,  -3.88800,
,,,00.000005400000,  -3.97440,
,,,00.000005440000,  -3.97440,
,,,00.000005480000,  -3.97440,
,,,00.000005520000,  -3.80160,
,,,00.000005560000,  -3.88800,
,,,00.000005600000,  -3.80160,
,,,00.000005640000,  -3.80160,
,,,00.000005680000,  -3.80160,
,,,00.000005720000,  -3.80160,
,,,00.000005760000,  -3.80160,
,,,00.000005800000,  -3.54240,
,,,00.000005840000,  -3.54240,
,,,00.000005880000,  -3.62880,
,,,00.000005920000,  -3.54240,
,,,00.000005960000,  -3.62880,
,,,00.000006000000,  -3.54240,
,,,00.000006040000,  -3.54240,
,,,00.000006080000,  -3.54240,
,,,00.000006120000,  -3.36960,
,,,00.000006160000,  -3.45600,
,,,00.000006200000,  -3.45600,
,,,00.000006240000,  -3.45600,
,,,00.000006280000,  -3.45600,
,,,00.000006320000,  -3.36960,
,,,00.000006360000,  -3.28320,
,,,00.000006400000,  -3.28320,
,,,00.000006440000,  -3.28320,
,,,00.000006480000,  -3.28320,
,,,00.000006520000,  -3.19680,
,,,00.000006560000,  -3.19680,
,,,00.000006600000,  -3.19680,
,,,00.000006640000,  -3.02400,
,,,00.000006680000,  -3.02400,
,,,00.000006720000,  -3.02400,
,,,00.000006760000,  -3.02400,
,,,00.000006800000,  -2.93760,
,,,00.000006840000,  -2.93760,
,,,00.000006880000,  -2.93760,
,,,00.000006920000,  -2.85120,
,,,00.000006960000,  -3.02400,
,,,00.000007000000,  -2.85120,
,,,00.000007040000,  -2.85120,
,,,00.000007080000,  -2.85120,
,,,00.000007120000,  -2.76480,
,,,00.000007160000,  -2.76480,
,,,00.000007200000,  -2.85120,
,,,00.000007240000,  -2.67840,
,,,00.000007280000,  -2.76480,
,,,00.000007320000,  -2.59200,
,,,00.000007360000,  -2.59200,
,,,00.000007400000,  -2.67840,
,,,00.000007440000,  -2.50560,
,,,00.000007480000,  -2.50560,
,,,00.000007520000,  -2.59200,
,,,00.000007560000,  -2.50560,
,,,00.000007600000,  -2.50560,
,,,00.000007640000,  -2.41920,
,,,00.000007680000,  -2.41920,
,,,00.000007720000,  -2.33280,
,,,00.000007760000,  -2.33280,
,,,00.000007800000,  -2.41920,
,,,00.000007840000,  -2.33280,
,,,00.000007880000,  -2.24640,
,,,00.000007920000,  -2.33280,
,,,00.000007960000,  -2.24640,
,,,00.000008000000,  -2.33280,
,,,00.000008040000,  -2.16000,
,,,00.000008080000,  -2.24640,
,,,00.000008120000,  -2.16000,
,,,00.000008160000,  -2.07360,
,,,00.000008200000,  -2.16000,
,,,00.000008240000,  -2.07360,
,,,00.000008280000,  -2.16000,
,,,00.000008320000,  -2.07360,
,,,00.000008360000,  -1.98720,
,,,00.000008400000,  -1.98720,
,,,00.000008440000,  -1.98720,
,,,00.000008480000,  -1.98720,
,,,00.000008520000,  -1.90080,
,,,00.000008560000,  -1.90080,
,,,00.000008600000,  -1.98720,
,,,00.000008640000,  -1.98720,
,,,00.000008680000,  -1.98720,
,,,00.000008720000,  -1.72800,
,,,00.000008760000,  -1.81440,
,,,00.000008800000,  -1.81440,
,,,00.000008840000,  -1.72800,
,,,00.000008880000,  -1.90080,
,,,00.000008920000,  -1.72800,
,,,00.000008960000,  -1.64160,
,,,00.000009000000,  -1.64160,
,,,00.000009040000,  -1.64160,
,,,00.000009080000,  -1.64160,
,,,00.000009120000,  -1.64160,
,,,00.000009160000,  -1.55520,
,,,00.000009200000,  -1.64160,
,,,00.000009240000,  -1.55520,
,,,00.000009280000,  -1.46880,
,,,00.000009320000,  -1.46880,
,,,00.000009360000,  -1.46880,
,,,00.000009400000,  -1.46880,
,,,00.000009440000,  -1.46880,
,,,00.000009480000,  -1.38240,
,,,00.000009520000,  -1.38240,
,,,00.000009560000,  -1.29600,
,,,00.000009600000,  -1.38240,
,,,00.000009640000,  -1.29600,
,,,00.000009680000,  -1.38240,
,,,00.000009720000,  -1.29600,
,,,00.000009760000,  -1.20960,
,,,00.000009800000,  -1.12320,
,,,00.000009840000,  -1.12320,
,,,00.000009880000,  -1.20960,
,,,00.000009920000,  -1.12320,
,,,00.000009960000,  -1.20960,
,,,00.000010000000,  -1.20960,
,,,00.000010040000,  -1.12320,
,,,00.000010080000,  -1.03680,
,,,00.000010120000,  -1.03680,
,,,00.000010160000,  -1.03680,
,,,00.000010200000,  -0.95040,
,,,00.000010240000,  -1.12320,
,,,00.000010280000,  -0.95040,
,,,00.000010320000,  -1.12320,
,,,00.000010360000,  -0.86400,
,,,00.000010400000,  -0.95040,
,,,00.000010440000,  -0.95040,
,,,00.000010480000,  -0.95040,
,,,00.000010520000,  -0.86400,
,,,00.000010560000,  -0.86400,
,,,00.000010600000,  -0.95040,
,,,00.000010640000,  -0.77760,
,,,00.000010680000,  -0.69120,
,,,00.000010720000,  -0.69120,
,,,00.000010760000,  -0.77760,
,,,00.000010800000,  -0.77760,
,,,00.000010840000,  -0.69120,
,,,00.000010880000,  -0.60480,
,,,00.000010920000,  -0.69120,
,,,00.000010960000,  -0.69120,
,,,00.000011000000,  -0.69120,
,,,00.000011040000,  -0.69120,
,,,00.000011080000,  -0.60480,
,,,00.000011120000,  -0.51840,
,,,00.000011160000,  -0.51840,
,,,00.000011200000,  -0.51840,
,,,00.000011240000,  -0.51840,
,,,00.000011280000,  -0.43200,
,,,00.000011320000,  -0.43200,
,,,00.000011360000,  -0.51840,
,,,00.000011400000,  -0.43200,
,,,00.000011440000,  -0.43200,
,,,00.000011480000,  -0.34560,
,,,00.000011520000,  -0.34560,
,,,00.000011560000,  -0.25920,
,,,00.000011600000,  -0.25920,
,,,00.000011640000,  -0.34560,
,,,00.000011680000,  -0.17280,
,,,00.000011720000,  -0.25920,
,,,00.000011760000,  -0.25920,
,,,00.000011800000,  -0.25920,
,,,00.000011840000,  -0.08640,
,,,00.000011880000,  -0.17280,
,,,00.000011920000,  -0.08640,
,,,00.000011960000,  -0.25920,
,,,00.000012000000,  -0.08640,
,,,00.000012040000,  -0.17280,
,,,00.000012080000,  -0.08640,
,,,00.000012120000,  -0.08640,
,,,00.000012160000,  -0.08640,
,,,00.000012200000,   0.00000,
,,,00.000012240000,   0.00000,
,,,00.000012280000,  -0.08640,
,,,00.000012320000,   0.00000,
,,,00.000012360000,   0.00000,
,,,00.000012400000,   0.08640,
,,,00.000012440000,   0.17280,
,,,00.000012480000,   0.08640,
,,,00.000012520000,   0.17280,
,,,00.000012560000,   0.08640,
,,,00.000012600000,   0.17280,
,,,00.000012640000,   0.08640,
,,,00.000012680000,   0.34560,
,,,00.000012720000,   0.17280,
,,,00.000012760000,   0.25920,
,,,00.000012800000,   0.25920,
,,,00.000012840000,   0.25920,
,,,00.000012880000,   0.25920,
,,,00.000012920000,   0.34560,
,,,00.000012960000,   0.25920,
,,,00.000013000000,   0.43200,
,,,00.000013040000,   0.43200,
,,,00.000013080000,   0.43200,
,,,00.000013120000,   0.34560,
,,,00.000013160000,   0.43200,
,,,00.000013200000,   0.43200,
,,,00.000013240000,   0.51840,
,,,00.000013280000,   0.51840,
,,,00.000013320000,   0.51840,
,,,00.000013360000,   0.51840,
,,,00.000013400000,   0.51840,
,,,00.000013440000,   0.60480,
,,,00.000013480000,   0.60480,
,,,00.000013520000,   0.60480,
,,,00.000013560000,   0.60480,
,,,00.000013600000,   0.51840,
,,,00.000013640000,   0.60480,
,,,00.000013680000,   0.60480,
,,,00.000013720000,   0.69120,
,,,00.000013760000,   0.77760,
,,,00.000013800000,   0.60480,
,,,00.000013840000,   0.69120,
,,,00.000013880000,   0.69120,
,,,00.000013920000,   0.77760,
,,,00.000013960000,   0.69120,
,,,00.000014000000,   0.77760,
,,,00.000014040000,   0.86400,
,,,00.000014080000,   0.77760,
,,,00.000014120000,   0.77760,
,,,00.000014160000,   0.86400,
,,,00.000014200000,   0.86400,
,,,00.000014240000,   0.86400,
,,,00.000014280000,   0.77760,
,,,00.000014320000,   0.86400,
,,,00.000014360000,   1.03680,
,,,00.000014400000,   0.95040,
,,,00.000014440000,   0.95040,
,,,00.000014480000,   0.86400,
,,,00.000014520000,   1.03680,
,,,00.000014560000,   0.95040,
,,,00.000014600000,   1.03680,
,,,00.000014640000,   1.12320,
,,,00.000014680000,   1.03680,
,,,00.000014720000,   0.95040,
,,,00.000014760000,   1.12320,
,,,00.000014800000,   1.03680,
,,,00.000014840000,   1.12320,
,,,00.000014880000,   1.03680,
,,,00.000014920000,   1.29600,
,,,00.000014960000,   1.12320,
,,,00.000015000000,   1.12320,
,,,00.000015040000,   1.12320,
,,,00.000015080000,   1.20960,
,,,00.000015120000,   1.12320,
,,,00.000015160000,   1.29600,
,,,00.000015200000,   1.29600,
,,,00.000015240000,   1.29600,
,,,00.000015280000,   1.29600,
,,,00.000015320000,   1.29600,
,,,00.000015360000,   1.20960,
,,,00.000015400000,   1.29600,
,,,00.000015440000,   1.38240,
,,,00.000015480000,   1.46880,
,,,00.000015520000,   1.29600,
,,,00.000015560000,   1.46880,
,,,00.000015600000,   1.38240,
,,,00.000015640000,   1.46880,
,,,00.000015680000,   1.46880,
,,,00.000015720000,   1.46880,
,,,00.000015760000,   1.46880,
,,,00.000015800000,   1.46880,
,,,00.000015840000,   1.46880,
,,,00.000015880000,   1.55520,
,,,00.000015920000,   1.55520,
,,,00.000015960000,   1.55520,
,,,00.000016000000,   1.64160,
,,,00.000016040000,   1.64160,
,,,00.000016080000,   1.55520,
,,,00.000016120000,   1.64160,
,,,00.000016160000,   1.72800,
,,,00.000016200000,   1.64160,
,,,00.000016240000,   1.64160,
,,,00.000016280000,   1.64160,
,,,00.000016320000,   1.64160,
,,,00.000016360000,   1.72800,
,,,00.000016400000,   1.72800,
,,,00.000016440000,   1.72800,
,,,00.000016480000,   1.72800,
,,,00.000016520000,   1.72800,
,,,00.000016560000,   1.81440,
,,,00.000016600000,   1.72800,
,,,00.000016640000,   1.81440,
,,,00.000016680000,   1.81440,
,,,00.000016720000,   1.72800,
,,,00.000016760000,   1.81440,
,,,00.000016800000,   1.81440,
,,,00.000016840000,   1.81440,
,,,00.000016880000,   1.90080,
,,,00.000016920000,   1.90080,
,,,00.000016960000,   1.98720,
,,,00.000017000000,   1.90080,
,,,00.000017040000,   1.90080,
,,,00.000017080000,   1.98720,
,,,00.000017120000,   1.90080,
,,,00.000017160000,   2.07360,
,,,00.000017200000,   1.98720,
,,,00.000017240000,   2.07360,
,,,00.000017280000,   2.07360,
,,,00.000017320000,   2.07360,
,,,00.000017360000,   2.07360,
,,,00.000017400000,   2.07360,
,,,00.000017440000,   2.07360,
,,,00.000017480000,   2.16000,
,,,00.000017520000,   2.16000,
,,,00.000017560000,   2.07360,
,,,00.000017600000,   2.07360,
,,,00.000017640000,   2.16000,
,,,00.000017680000,   2.16000,
,,,00.000017720000,   2.24640,
,,,00.000017760000,   2.07360,
,,,00.000017800000,   2.24640,
,,,00.000017840000,   2.24640,
,,,00.000017880000,   2.24640,
,,,00.000017920000,   2.24640,
,,,00.000017960000,   2.24640,
,,,00.000018000000,   2.33280,
,,,00.000018040000,   2.33280,
,,,00.000018080000,   2.33280,
,,,00.000018120000,   2.24640,
,,,00.000018160000,   2.33280,
,,,00.000018200000,   2.33280,
,,,00.000018240000,   2.16000,
,,,00.000018280000,   2.41920,
,,,00.000018320000,   2.33280,
,,,00.000018360000,   2.41920,
,,,00.000018400000,   2.33280,
,,,00.000018440000,   2.33280,
,,,00.000018480000,   2.41920,
,,,00.000018520000,   2.41920,
,,,00.000018560000,   2.41920,
,,,00.000018600000,   2.59200,
,,,00.000018640000,   2.41920,
,,,00.000018680000,   2.41920,
,,,00.000018720000,   2.41920,
,,,00.000018760000,   2.41920,
,,,00.000018800000,   2.59200,
,,,00.000018840000,   2.41920,
,,,00.000018880000,   2.59200,
,,,00.000018920000,   2.50560,
,,,00.000018960000,   2.59200,
,,,00.000019000000,   2.59200,
,,,00.000019040000,   2.59200,
,,,00.000019080000,   2.50560,
,,,00.000019120000,   2.59200,
,,,00.000019160000,   2.59200,
,,,00.000019200000,   2.67840,
,,,00.000019240000,   2.67840,
,,,00.000019280000,   2.59200,
,,,00.000019320000,   2.67840,
,,,00.000019360000,   2.67840,
,,,00.000019400000,   2.76480,
,,,00.000019440000,   2.67840,
,,,00.000019480000,   2.67840,
,,,00.000019520000,   2.67840,
,,,00.000019560000,   2.76480,
,,,00.000019600000,   2.76480,
,,,00.000019640000,   2.76480,
,,,00.000019680000,   2.76480,
,,,00.000019720000,   2.76480,
,,,00.000019760000,   2.93760,
,,,00.000019800000,   2.67840,
,,,00.000019840000,   2.76480,
,,,00.000019880000,   2.85120,
,,,00.000019920000,   2.93760,
,,,00.000019960000,   2.76480,
,,,00.000020000000,   2.93760,
,,,00.000020040000,   2.85120,
,,,00.000020080000,   2.93760,
,,,00.000020120000,   2.93760,
,,,00.000020160000,   3.02400,
,,,00.000020200000,   2.93760,
,,,00.000020240000,   3.02400,
,,,00.000020280000,   2.93760,
,,,00.000020320000,   2.93760,
,,,00.000020360000,   3.02400,
,,,00.000020400000,   3.02400,
,,,00.000020440000,   2.93760,
,,,00.000020480000,   2.93760,
,,,00.000020520000,   3.02400,
,,,00.000020560000,   2.93760,
,,,00.000020600000,   3.19680,
,,,00.000020640000,   3.02400,
,,,00.000020680000,   3.02400,
,,,00.000020720000,   3.19680,
,,,00.000020760000,   3.02400,
,,,00.000020800000,   3.11040,
,,,00.000020840000,   3.11040,
,,,00.000020880000,   3.19680,
,,,00.000020920000,   3.19680,
,,,00.000020960000,   3.11040,
,,,00.000021000000,   3.19680,
,,,00.000021040000,   3.11040,
,,,00.000021080000,   3.11040,
,,,00.000021120000,   3.19680,
,,,00.000021160000,   3.19680,
,,,00.000021200000,   3.28320,
,,,00.000021240000,   3.19680,
,,,00.000021280000,   3.28320,
,,,00.000021320000,   3.19680,
,,,00.000021360000,   3.28320,
,,,00.000021400000,   3.28320,
,,,00.000021440000,   3.19680,
,,,00.000021480000,   3.19680,
,,,00.000021520000,   3.28320,
,,,00.000021560000,   3.19680,
,,,00.000021600000,   3.28320,
,,,00.000021640000,   3.36960,
,,,00.000021680000,   3.36960,
,,,00.000021720000,   3.28320,
,,,00.000021760000,   3.36960,
,,,00.000021800000,   3.36960,
,,,00.000021840000,   3.36960,
,,,00.000021880000,   3.28320,
,,,00.000021920000,   3.36960,
,,,00.000021960000,   3.36960,
,,,00.000022000000,   3.45600,
