Circuiti_2/Seconda presa dati/ALL0010/F0010CH1.CSV

Record Length,2.500000e+03,,  -0.000136000000,  -7.81440,
Sample Interval,4.000000e-07,,  -0.000135600000,  -7.81440,
Trigger Point,3.400000000000e+02,,  -0.000135200000,  -7.81440,
,,,  -0.000134800000,  -7.81440,
,,,  -0.000134400000,  -7.81440,
,,,  -0.000134000000,  -7.81440,
Source,CH1,,  -0.000133600000,  -7.81440,
Vertical Units,V,,  -0.000133200000,  -7.81440,
Vertical Scale,2.640000e+00,,  -0.000132800000,  -7.81440,
Vertical Offset,-7.392000e-01,,  -0.000132400000,  -7.81440,
Horizontal Units,s,,  -0.000132000000,  -7.81440,
Horizontal Scale,1.000000e-04,,  -0.000131600000,  -7.81440,
Pt Fmt,Y,,  -0.000131200000,  -7.81440,
Yzero,0.000000e+00,,  -0.000130800000,  -7.81440,
Probe Atten,1.000000e+01,,  -0.000130400000,  -7.81440,
Model Number,TDS1001C-EDU,,  -0.000130000000,  -7.81440,
Serial Number,C013086,,  -0.000129600000,  -7.92000,
Firmware Version,FV:v25.07,,  -0.000129200000,  -7.81440,
,,,-00.000128800000,  -7.81440,
,,,-00.000128400000,  -7.92000,
,,,-00.000128000000,  -7.81440,
,,,-00.000127600000,  -7.81440,
,,,-00.000127200000,  -7.81440,
,,,-00.000126800000,  -7.81440,
,,,-00.000126400000,  -7.81440,
,,,-00.000126000000,  -7.81440,
,,,-00.000125600000,  -7.92000,
,,,-00.000125200000,  -7.81440,
,,,-00.000124800000,  -7.92000,
,,,-00.000124400000,  -7.81440,
,,,-00.000124000000,  -7.92000,
,,,-00.000123600000,  -7.81440,
,,,-00.000123200000,  -7.92000,
,,,-00.000122800000,  -7.81440,
,,,-00.000122400000,  -7.81440,
,,,-00.000122000000,  -7.92000,
,,,-00.000121600000,  -7.92000,
,,,-00.000121200000,  -7.81440,
,,,-00.000120800000,  -7.81440,
,,,-00.000120400000,  -7.81440,
,,,-00.000120000000,  -7.81440,
,,,-00.000119600000,  -7.81440,
,,,-00.000119200000,  -7.92000,
,,,-00.000118800000,  -7.81440,
,,,-00.000118400000,  -7.81440,
,,,-00.000118000000,  -7.81440,
,,,-00.000117600000,  -7.81440,
,,,-00.000117200000,  -7.81440,
,,,-00.000116800000,  -7.81440,
,,,-00.000116400000,  -7.81440,
,,,-00.000116000000,  -7.92000,
,,,-00.000115600000,  -7.81440,
,,,-00.000115200000,  -7.92000,
,,,-00.000114800000,  -7.81440,
,,,-00.000114400000,  -7.81440,
,,,-00.000114000000,  -7.81440,
,,,-00.000113600000,  -7.92000,
,,,-00.000113200000,  -7.81440,
,,,-00.000112800000,  -7.92000,
,,,-00.000112400000,  -7.81440,
,,,-00.000112000000,  -7.81440,
,,,-00.000111600000,  -7.81440,
,,,-00.000111200000,  -7.92000,
,,,-00.000110800000,  -7.81440,
,,,-00.000110400000,  -7.81440,
,,,-00.000110000000,  -7.81440,
,,,-00.000109600000,  -7.81440,
,,,-00.000109200000,  -7.81440,
,,,-00.000108800000,  -7.81440,
,,,-00.000108400000,  -7.81440,
,,,-00.000108000000,  -7.81440,
,,,-00.000107600000,  -7.92000,
,,,-00.000107200000,  -7.81440,
,,,-00.000106800000,  -7.81440,
,,,-00.000106400000,  -7.92000,
,,,-00.000106000000,  -7.81440,
,,,-00.000105600000,  -7.81440,
,,,-00.000105200000,  -7.81440,
,,,-00.000104800000,  -7.92000,
,,,-00.000104400000,  -7.81440,
,,,-00.000104000000,  -7.81440,
,,,-00.000103600000,  -7.81440,
,,,-00.000103200000,  -7.81440,
,,,-00.000102800000,  -7.92000,
,,,-00.000102400000,  -7.92000,
,,,-00.000102000000,  -7.92000,
,,,-00.000101600000,  -7.81440,
,,,-00.000101200000,  -7.81440,
,,,-00.000100800000,  -7.81440,
,,,-00.000100400000,  -7.81440,
,,,-00.000100000000,  -7.81440,
,,,-00.000099600000,  -7.92000,
,,,-00.000099200000,  -7.81440,
,,,-00.000098800000,  -7.92000,
,,,-00.000098400000,  -7.92000,
,,,-00.000098000000,  -7.81440,
,,,-00.000097600000,  -7.81440,
,,,-00.000097200000,  -7.81440,
,,,-00.000096800000,  -7.81440,
,,,-00.000096400000,  -7.92000,
,,,-00.000096000000,  -7.81440,
,,,-00.000095600000,  -7.81440,
,,,-00.000095200000,  -7.81440,
,,,-00.000094800000,  -7.81440,
,,,-00.000094400000,  -7.81440,
,,,-00.000094000000,  -7.81440,
,,,-00.000093600000,  -7.81440,
,,,-00.000093200000,  -7.81440,
,,,-00.000092800000,  -7.81440,
,,,-00.000092400000,  -7.81440,
,,,-00.000092000000,  -7.81440,
,,,-00.000091600000,  -7.81440,
,,,-00.000091200000,  -7.81440,
,,,-00.000090800000,  -7.81440,
,,,-00.000090400000,  -7.81440,
,,,-00.000090000000,  -7.92000,
,,,-00.000089600000,  -7.81440,
,,,-00.000089200000,  -7.81440,
,,,-00.000088800000,  -7.81440,
,,,-00.000088400000,  -7.81440,
,,,-00.000088000000,  -7.81440,
,,,-00.000087600000,  -7.81440,
,,,-00.000087200000,  -7.81440,
,,,-00.000086800000,  -7.81440,
,,,-00.000086400000,  -7.92000,
,,,-00.000086000000,  -7.81440,
,,,-00.000085600000,  -7.81440,
,,,-00.000085200000,  -7.81440,
,,,-00.000084800000,  -7.81440,
,,,-00.000084400000,  -7.81440,
,,,-00.000084000000,  -7.81440,
,,,-00.000083600000,  -7.81440,
,,,-00.000083200000,  -7.81440,
,,,-00.000082800000,  -7.81440,
,,,-00.000082400000,  -7.81440,
,,,-00.000082000000,  -7.81440,
,,,-00.000081600000,  -7.81440,
,,,-00.000081200000,  -7.92000,
,,,-00.000080800000,  -7.81440,
,,,-00.000080400000,  -7.81440,
,,,-00.000080000000,  -7.81440,
,,,-00.000079600000,  -7.81440,
,,,-00.000079200000,  -7.81440,
,,,-00.000078800000,  -7.81440,
,,,-00.000078400000,  -7.81440,
,,,-00.000078000000,  -7.81440,
,,,-00.000077600000,  -7.81440,
,,,-00.000077200000,  -7.81440,
,,,-00.000076800000,  -7.81440,
,,,-00.000076400000,  -7.81440,
,,,-00.000076000000,  -7.81440,
,,,-00.000075600000,  -7.81440,
,,,-00.000075200000,  -7.92000,
,,,-00.000074800000,  -7.81440,
,,,-00.000074400000,  -7.92000,
,,,-00.000074000000,  -7.92000,
,,,-00.000073600000,  -7.81440,
,,,-00.000073200000,  -7.92000,
,,,-00.000072800000,  -7.92000,
,,,-00.000072400000,  -7.81440,
,,,-00.000072000000,  -7.81440,
,,,-00.000071600000,  -7.81440,
,,,-00.000071200000,  -7.81440,
,,,-00.000070800000,  -7.81440,
,,,-00.000070400000,  -7.92000,
,,,-00.000070000000,  -7.81440,
,,,-00.000069600000,  -7.92000,
,,,-00.000069200000,  -7.81440,
,,,-00.000068800000,  -7.92000,
,,,-00.000068400000,  -7.92000,
,,,-00.000068000000,  -7.92000,
,,,-00.000067600000,  -7.81440,
,,,-00.000067200000,  -7.81440,
,,,-00.000066800000,  -7.81440,
,,,-00.000066400000,  -7.81440,
,,,-00.000066000000,  -7.92000,
,,,-00.000065600000,  -7.81440,
,,,-00.000065200000,  -7.92000,
,,,-00.000064800000,  -7.81440,
,,,-00.000064400000,  -7.81440,
,,,-00.000064000000,  -7.81440,
,,,-00.000063600000,  -7.81440,
,,,-00.000063200000,  -7.92000,
,,,-00.000062800000,  -7.92000,
,,,-00.000062400000,  -7.92000,
,,,-00.000062000000,  -7.81440,
,,,-00.000061600000,  -7.81440,
,,,-00.000061200000,  -7.81440,
,,,-00.000060800000,  -7.81440,
,,,-00.000060400000,  -7.81440,
,,,-00.000060000000,  -7.81440,
,,,-00.000059600000,  -7.81440,
,,,-00.000059200000,  -7.81440,
,,,-00.000058800000,  -7.81440,
,,,-00.000058400000,  -7.81440,
,,,-00.000058000000,  -7.81440,
,,,-00.000057600000,  -7.81440,
,,,-00.000057200000,  -7.92000,
,,,-00.000056800000,  -7.81440,
,,,-00.000056400000,  -7.81440,
,,,-00.000056000000,  -7.81440,
,,,-00.000055600000,  -7.92000,
,,,-00.000055200000,  -7.92000,
,,,-00.000054800000,  -7.81440,
,,,-00.000054400000,  -7.81440,
,,,-00.000054000000,  -7.81440,
,,,-00.000053600000,  -7.81440,
,,,-00.000053200000,  -7.81440,
,,,-00.000052800000,  -7.81440,
,,,-00.000052400000,  -7.81440,
,,,-00.000052000000,  -7.92000,
,,,-00.000051600000,  -7.81440,
,,,-00.000051200000,  -7.92000,
,,,-00.000050800000,  -7.81440,
,,,-00.000050400000,  -7.81440,
,,,-00.000050000000,  -7.81440,
,,,-00.000049600000,  -7.92000,
,,,-00.000049200000,  -7.81440,
,,,-00.000048800000,  -7.81440,
,,,-00.000048400000,  -7.81440,
,,,-00.000048000000,  -7.81440,
,,,-00.000047600000,  -7.92000,
,,,-00.000047200000,  -7.81440,
,,,-00.000046800000,  -7.81440,
,,,-00.000046400000,  -7.81440,
,,,-00.000046000000,  -7.92000,
,,,-00.000045600000,  -7.81440,
,,,-00.000045200000,  -7.81440,
,,,-00.000044800000,  -7.92000,
,,,-00.000044400000,  -7.81440,
,,,-00.000044000000,  -7.81440,
,,,-00.000043600000,  -7.81440,
,,,-00.000043200000,  -7.81440,
,,,-00.000042800000,  -7.81440,
,,,-00.000042400000,  -7.81440,
,,,-00.000042000000,  -7.81440,
,,,-00.000041600000,  -7.92000,
,,,-00.000041200000,  -7.81440,
,,,-00.000040800000,  -7.81440,
,,,-00.000040400000,  -7.81440,
,,,-00.000040000000,  -7.81440,
,,,-00.000039600000,  -7.81440,
,,,-00.000039200000,  -7.81440,
,,,-00.000038800000,  -7.81440,
,,,-00.000038400000,  -7.81440,
,,,-00.000038000000,  -7.81440,
,,,-00.000037600000,  -7.81440,
,,,-00.000037200000,  -7.81440,
,,,-00.000036800000,  -7.81440,
,,,-00.000036400000,  -7.81440,
,,,-00.000036000000,  -7.81440,
,,,-00.000035600000,  -7.81440,
,,,-00.000035200000,  -7.81440,
,,,-00.000034800000,  -7.81440,
,,,-00.000034400000,  -7.81440,
,,,-00.000034000000,  -7.81440,
,,,-00.000033600000,  -7.81440,
,,,-00.000033200000,  -7.81440,
,,,-00.000032800000,  -7.81440,
,,,-00.000032400000,  -7.92000,
,,,-00.000032000000,  -7.81440,
,,,-00.000031600000,  -7.81440,
,,,-00.000031200000,  -7.81440,
,,,-00.000030800000,  -7.92000,
,,,-00.000030400000,  -7.81440,
,,,-00.000030000000,  -7.92000,
,,,-00.000029600000,  -7.81440,
,,,-00.000029200000,  -7.81440,
,,,-00.000028800000,  -7.81440,
,,,-00.000028400000,  -7.92000,
,,,-00.000028000000,  -7.81440,
,,,-00.000027600000,  -7.81440,
,,,-00.000027200000,  -7.81440,
,,,-00.000026800000,  -7.81440,
,,,-00.000026400000,  -7.81440,
,,,-00.000026000000,  -7.81440,
,,,-00.000025600000,  -7.81440,
,,,-00.000025200000,  -7.81440,
,,,-00.000024800000,  -7.81440,
,,,-00.000024400000,  -7.81440,
,,,-00.000024000000,  -7.81440,
,,,-00.000023600000,  -7.81440,
,,,-00.000023200000,  -7.81440,
,,,-00.000022800000,  -7.81440,
,,,-00.000022400000,  -7.81440,
,,,-00.000022000000,  -7.81440,
,,,-00.000021600000,  -7.81440,
,,,-00.000021200000,  -7.81440,
,,,-00.000020800000,  -7.81440,
,,,-00.000020400000,  -7.81440,
,,,-00.000020000000,  -7.81440,
,,,-00.000019600000,  -7.81440,
,,,-00.000019200000,  -7.81440,
,,,-00.000018800000,  -7.81440,
,,,-00.000018400000,  -7.81440,
,,,-00.000018000000,  -7.81440,
,,,-00.000017600000,  -7.81440,
,,,-00.000017200000,  -7.81440,
,,,-00.000016800000,  -7.81440,
,,,-00.000016400000,  -7.81440,
,,,-00.000016000000,  -7.81440,
,,,-00.000015600000,  -7.81440,
,,,-00.000015200000,  -7.81440,
,,,-00.000014800000,  -7.81440,
,,,-00.000014400000,  -7.81440,
,,,-00.000014000000,  -7.81440,
,,,-00.000013600000,  -7.81440,
,,,-00.000013200000,  -7.81440,
,,,-00.000012800000,  -7.81440,
,,,-00.000012400000,  -7.81440,
,,,-00.000012000000,  -7.81440,
,,,-00.000011600000,  -7.81440,
,,,-00.000011200000,  -7.81440,
,,,-00.000010800000,  -7.81440,
,,,-00.000010400000,  -7.81440,
,,,-00.000010000000,  -7.81440,
,,,-00.000009600000,  -7.81440,
,,,-00.000009200000,  -7.81440,
,,,-00.000008800000,  -7.81440,
,,,-00.000008400000,  -7.81440,
,,,-00.000008000000,  -7.81440,
,,,-00.000007600000,  -7.81440,
,,,-00.000007200000,  -7.81440,
,,,-00.000006800000,  -7.81440,
,,,-00.000006400000,  -7.81440,
,,,-00.000006000000,  -7.81440,
,,,-00.000005600000,  -7.81440,
,,,-00.000005200000,  -7.81440,
,,,-00.000004800000,  -7.81440,
,,,-00.000004400000,  -7.81440,
,,,-00.000004000000,  -7.81440,
,,,-00.000003600000,  -7.81440,
,,,-00.000003200000,  -7.81440,
,,,-00.000002800000,  -7.81440,
,,,-00.000002400000,  -7.81440,
,,,-00.000002000000,  -7.81440,
,,,-00.000001600000,  -7.81440,
,,,-00.000001200000,  -7.81440,
,,,-00.000000800000,  -7.81440,
,,,-00.000000400000,  -7.81440,
,,,-00.000000000000,  -7.81440,
,,,00.000000400000,  -7.81440,
,,,00.000000800000,  -7.81440,
,,,00.000001200000,  -7.81440,
,,,00.000001600000,  -7.81440,
,,,00.000002000000,  -7.81440,
,,,00.000002400000,  -7.28640,
,,,00.000002800000,   8.44800,
,,,00.000003200000,   8.23680,
,,,00.000003600000,   8.13120,
,,,00.000004000000,   8.13120,
,,,00.000004400000,   8.13120,
,,,00.000004800000,   8.02560,
,,,00.000005200000,   8.02560,
,,,00.000005600000,   8.02560,
,,,00.000006000000,   8.02560,
,,,00.000006400000,   8.02560,
,,,00.000006800000,   8.02560,
,,,00.000007200000,   8.02560,
,,,00.000007600000,   8.02560,
,,,00.000008000000,   8.02560,
,,,00.000008400000,   8.02560,
,,,00.000008800000,   8.02560,
,,,00.000009200000,   8.02560,
,,,00.000009600000,   8.02560,
,,,00.000010000000,   8.02560,
,,,00.000010400000,   8.02560,
,,,00.000010800000,   8.02560,
,,,00.000011200000,   8.02560,
,,,00.000011600000,   8.02560,
,,,00.000012000000,   8.02560,
,,,00.000012400000,   8.02560,
,,,00.000012800000,   8.02560,
,,,00.000013200000,   8.02560,
,,,00.000013600000,   8.02560,
,,,00.000014000000,   8.02560,
,,,00.000014400000,   8.02560,
,,,00.000014800000,   8.02560,
,,,00.000015200000,   8.02560,
,,,00.000015600000,   8.02560,
,,,00.000016000000,   8.02560,
,,,00.000016400000,   8.02560,
,,,00.000016800000,   8.02560,
,,,00.000017200000,   8.02560,
,,,00.000017600000,   8.02560,
,,,00.000018000000,   8.02560,
,,,00.000018400000,   7.92000,
,,,00.000018800000,   8.02560,
,,,00.000019200000,   8.02560,
,,,00.000019600000,   8.02560,
,,,00.000020000000,   7.92000,
,,,00.000020400000,   8.02560,
,,,00.000020800000,   8.02560,
,,,00.000021200000,   7.92000,
,,,00.000021600000,   8.02560,
,,,00.000022000000,   7.92000,
,,,00.000022400000,   8.02560,
,,,00.000022800000,   8.02560,
,,,00.000023200000,   7.92000,
,,,00.000023600000,   7.92000,
,,,00.000024000000,   7.92000,
,,,00.000024400000,   7.92000,
,,,00.000024800000,   7.92000,
,,,00.000025200000,   7.92000,
,,,00.000025600000,   7.92000,
,,,00.000026000000,   7.92000,
,,,00.000026400000,   7.92000,
,,,00.000026800000,   7.92000,
,,,00.000027200000,   7.92000,
,,,00.000027600000,   7.92000,
,,,00.000028000000,   7.92000,
,,,00.000028400000,   7.92000,
,,,00.000028800000,   7.92000,
,,,00.000029200000,   7.92000,
,,,00.000029600000,   7.92000,
,,,00.000030000000,   7.92000,
,,,00.000030400000,   7.92000,
,,,00.000030800000,   7.92000,
,,,00.000031200000,   7.92000,
,,,00.000031600000,   7.92000,
,,,00.000032000000,   7.92000,
,,,00.000032400000,   7.92000,
,,,00.000032800000,   7.92000,
,,,00.000033200000,   7.92000,
,,,00.000033600000,   7.92000,
,,,00.000034000000,   7.92000,
,,,00.000034400000,   7.92000,
,,,00.000034800000,   7.92000,
,,,00.000035200000,   7.92000,
,,,00.000035600000,   7.92000,
,,,00.000036000000,   7.92000,
,,,00.000036400000,   7.92000,
,,,00.000036800000,   7.92000,
,,,00.000037200000,   7.92000,
,,,00.000037600000,   7.92000,
,,,00.000038000000,   7.92000,
,,,00.000038400000,   7.92000,
,,,00.000038800000,   7.92000,
,,,00.000039200000,   7.92000,
,,,00.000039600000,   7.92000,
,,,00.000040000000,   7.92000,
,,,00.000040400000,   7.92000,
,,,00.000040800000,   7.92000,
,,,00.000041200000,   7.92000,
,,,00.000041600000,   7.81440,
,,,00.000042000000,   7.92000,
,,,00.000042400000,   7.92000,
,,,00.000042800000,   7.92000,
,,,00.000043200000,   7.92000,
,,,00.000043600000,   7.81440,
,,,00.000044000000,   7.81440,
,,,00.000044400000,   7.92000,
,,,00.000044800000,   7.81440,
,,,00.000045200000,   7.81440,
,,,00.000045600000,   7.92000,
,,,00.000046000000,   7.81440,
,,,00.000046400000,   7.81440,
,,,00.000046800000,   7.92000,
,,,00.000047200000,   7.81440,
,,,00.000047600000,   7.81440,
,,,00.000048000000,   7.92000,
,,,00.000048400000,   7.81440,
,,,00.000048800000,   7.81440,
,,,00.000049200000,   7.81440,
,,,00.000049600000,   7.81440,
,,,00.000050000000,   7.81440,
,,,00.000050400000,   7.81440,
,,,00.000050800000,   7.81440,
,,,00.000051200000,   7.81440,
,,,00.000051600000,   7.81440,
,,,00.000052000000,   7.81440,
,,,00.000052400000,   7.81440,
,,,00.000052800000,   7.81440,
,,,00.000053200000,   7.81440,
,,,00.000053600000,   7.81440,
,,,00.000054000000,   7.81440,
,,,00.000054400000,   7.81440,
,,,00.000054800000,   7.81440,
,,,00.000055200000,   7.81440,
,,,00.000055600000,   7.81440,
,,,00.000056000000,   7.81440,
,,,00.000056400000,   7.81440,
,,,00.000056800000,   7.81440,
,,,00.000057200000,   7.81440,
,,,00.000057600000,   7.81440,
,,,00.000058000000,   7.81440,
,,,00.000058400000,   7.81440,
,,,00.000058800000,   7.81440,
,,,00.000059200000,   7.81440,
,,,00.000059600000,   7.81440,
,,,00.000060000000,   7.81440,
,,,00.000060400000,   7.81440,
,,,00.000060800000,   7.81440,
,,,00.000061200000,   7.81440,
,,,00.000061600000,   7.81440,
,,,00.000062000000,   7.81440,
,,,00.000062400000,   7.81440,
,,,00.000062800000,   7.81440,
,,,00.000063200000,   7.81440,
,,,00.000063600000,   7.81440,
,,,00.000064000000,   7.81440,
,,,00.000064400000,   7.81440,
,,,00.000064800000,   7.81440,
,,,00.000065200000,   7.81440,
,,,00.000065600000,   7.81440,
,,,00.000066000000,   7.81440,
,,,00.000066400000,   7.81440,
,,,00.000066800000,   7.81440,
,,,00.000067200000,   7.81440,
,,,00.000067600000,   7.81440,
,,,00.000068000000,   7.81440,
,,,00.000068400000,   7.81440,
,,,00.000068800000,   7.81440,
,,,00.000069200000,   7.81440,
,,,00.000069600000,   7.81440,
,,,00.000070000000,   7.81440,
,,,00.000070400000,   7.81440,
,,,00.000070800000,   7.81440,
,,,00.000071200000,   7.81440,
,,,00.000071600000,   7.81440,
,,,00.000072000000,   7.81440,
,,,00.000072400000,   7.81440,
,,,00.000072800000,   7.81440,
,,,00.000073200000,   7.81440,
,,,00.000073600000,   7.81440,
,,,00.000074000000,   7.81440,
,,,00.000074400000,   7.81440,
,,,00.000074800000,   7.81440,
,,,00.000075200000,   7.81440,
,,,00.000075600000,   7.81440,
,,,00.000076000000,   7.81440,
,,,00.000076400000,   7.81440,
,,,00.000076800000,   7.81440,
,,,00.000077200000,   7.81440,
,,,00.000077600000,   7.81440,
,,,00.000078000000,   7.81440,
,,,00.000078400000,   7.81440,
,,,00.000078800000,   7.81440,
,,,00.000079200000,   7.81440,
,,,00.000079600000,   7.81440,
,,,00.000080000000,   7.81440,
,,,00.000080400000,   7.81440,
,,,00.000080800000,   7.81440,
,,,00.000081200000,   7.81440,
,,,00.000081600000,   7.81440,
,,,00.000082000000,   7.81440,
,,,00.000082400000,   7.81440,
,,,00.000082800000,   7.81440,
,,,00.000083200000,   7.81440,
,,,00.000083600000,   7.81440,
,,,00.000084000000,   7.81440,
,,,00.000084400000,   7.81440,
,,,00.000084800000,   7.81440,
,,,00.000085200000,   7.81440,
,,,00.000085600000,   7.81440,
,,,00.000086000000,   7.81440,
,,,00.000086400000,   7.81440,
,,,00.000086800000,   7.81440,
,,,00.000087200000,   7.81440,
,,,00.000087600000,   7.81440,
,,,00.000088000000,   7.81440,
,,,00.000088400000,   7.81440,
,,,00.000088800000,   7.81440,
,,,00.000089200000,   7.81440,
,,,00.000089600000,   7.81440,
,,,00.000090000000,   7.81440,
,,,00.000090400000,   7.81440,
,,,00.000090800000,   7.81440,
,,,00.000091200000,   7.81440,
,,,00.000091600000,   7.81440,
,,,00.000092000000,   7.81440,
,,,00.000092400000,   7.81440,
,,,00.000092800000,   7.70880,
,,,00.000093200000,   7.81440,
,,,00.000093600000,   7.81440,
,,,00.000094000000,   7.81440,
,,,00.000094400000,   7.70880,
,,,00.000094800000,   7.81440,
,,,00.000095200000,   7.81440,
,,,00.000095600000,   7.81440,
,,,00.000096000000,   7.81440,
,,,00.000096400000,   7.81440,
,,,00.000096800000,   7.81440,
,,,00.000097200000,   7.70880,
,,,00.000097600000,   7.70880,
,,,00.000098000000,   7.70880,
,,,00.000098400000,   7.81440,
,,,00.000098800000,   7.81440,
,,,00.000099200000,   7.70880,
,,,00.000099600000,   7.81440,
,,,00.000100000000,   7.70880,
,,,00.000100400000,   7.81440,
,,,00.000100800000,   7.81440,
,,,00.000101200000,   7.81440,
,,,00.000101600000,   7.70880,
,,,00.000102000000,   7.70880,
,,,00.000102400000,   7.81440,
,,,00.000102800000,   7.81440,
,,,00.000103200000,   7.70880,
,,,00.000103600000,   7.70880,
,,,00.000104000000,   7.70880,
,,,00.000104400000,   7.70880,
,,,00.000104800000,   7.81440,
,,,00.000105200000,   7.81440,
,,,00.000105600000,   7.70880,
,,,00.000106000000,   7.81440,
,,,00.000106400000,   7.70880,
,,,00.000106800000,   7.70880,
,,,00.000107200000,   7.70880,
,,,00.000107600000,   7.81440,
,,,00.000108000000,   7.70880,
,,,00.000108400000,   7.70880,
,,,00.000108800000,   7.81440,
,,,00.000109200000,   7.70880,
,,,00.000109600000,   7.81440,
,,,00.000110000000,   7.70880,
,,,00.000110400000,   7.70880,
,,,00.000110800000,   7.70880,
,,,00.000111200000,   7.81440,
,,,00.000111600000,   7.70880,
,,,00.000112000000,   7.70880,
,,,00.000112400000,   7.70880,
,,,00.000112800000,   7.70880,
