Circuiti_2/data/ALL0012/F0012CH2.CSV

Record Length,2.500000e+03,,  -0.000010000000,  -8.12160,
Sample Interval,1.000000e-07,,  -0.000009900000,  -8.03520,
Trigger Point,1.000000000000e+02,,  -0.000009800000,  -8.03520,
,,,  -0.000009700000,  -7.94880,
,,,  -0.000009600000,  -8.03520,
,,,  -0.000009500000,  -8.03520,
Source,CH2,,  -0.000009400000,  -8.03520,
Vertical Units,V,,  -0.000009300000,  -8.12160,
Vertical Scale,2.160000e+00,,  -0.000009200000,  -8.03520,
Vertical Offset,1.728000e-01,,  -0.000009100000,  -8.03520,
Horizontal Units,s,,  -0.000009000000,  -8.03520,
Horizontal Scale,2.500000e-05,,  -0.000008900000,  -8.03520,
Pt Fmt,Y,,  -0.000008800000,  -8.12160,
Yzero,0.000000e+00,,  -0.000008700000,  -8.03520,
Probe Atten,1.000000e+01,,  -0.000008600000,  -7.94880,
Model Number,TDS1001C-EDU,,  -0.000008500000,  -8.03520,
Serial Number,C013086,,  -0.000008400000,  -7.94880,
Firmware Version,FV:v25.07,,  -0.000008300000,  -8.12160,
,,,-00.000008200000,  -8.03520,
,,,-00.000008100000,  -8.03520,
,,,-00.000008000000,  -8.12160,
,,,-00.000007900000,  -8.12160,
,,,-00.000007800000,  -8.03520,
,,,-00.000007700000,  -8.03520,
,,,-00.000007600000,  -8.03520,
,,,-00.000007500000,  -8.12160,
,,,-00.000007400000,  -8.12160,
,,,-00.000007300000,  -8.03520,
,,,-00.000007200000,  -7.94880,
,,,-00.000007100000,  -8.03520,
,,,-00.000007000000,  -7.94880,
,,,-00.000006900000,  -7.94880,
,,,-00.000006800000,  -8.03520,
,,,-00.000006700000,  -8.12160,
,,,-00.000006600000,  -8.12160,
,,,-00.000006500000,  -7.94880,
,,,-00.000006400000,  -8.03520,
,,,-00.000006300000,  -8.03520,
,,,-00.000006200000,  -8.03520,
,,,-00.000006100000,  -8.03520,
,,,-00.000006000000,  -8.03520,
,,,-00.000005900000,  -7.94880,
,,,-00.000005800000,  -8.12160,
,,,-00.000005700000,  -8.12160,
,,,-00.000005600000,  -8.03520,
,,,-00.000005500000,  -8.03520,
,,,-00.000005400000,  -7.94880,
,,,-00.000005300000,  -7.94880,
,,,-00.000005200000,  -8.12160,
,,,-00.000005100000,  -7.94880,
,,,-00.000005000000,  -8.03520,
,,,-00.000004900000,  -7.94880,
,,,-00.000004800000,  -8.03520,
,,,-00.000004700000,  -7.94880,
,,,-00.000004600000,  -8.12160,
,,,-00.000004500000,  -8.12160,
,,,-00.000004400000,  -8.12160,
,,,-00.000004300000,  -8.20800,
,,,-00.000004200000,  -8.12160,
,,,-00.000004100000,  -8.03520,
,,,-00.000004000000,  -8.12160,
,,,-00.000003900000,  -8.03520,
,,,-00.000003800000,  -8.12160,
,,,-00.000003700000,  -8.03520,
,,,-00.000003600000,  -8.03520,
,,,-00.000003500000,  -8.03520,
,,,-00.000003400000,  -8.12160,
,,,-00.000003300000,  -8.03520,
,,,-00.000003200000,  -7.94880,
,,,-00.000003100000,  -8.12160,
,,,-00.000003000000,  -8.03520,
,,,-00.000002900000,  -8.03520,
,,,-00.000002800000,  -7.94880,
,,,-00.000002700000,  -8.03520,
,,,-00.000002600000,  -8.12160,
,,,-00.000002500000,  -8.20800,
,,,-00.000002400000,  -8.03520,
,,,-00.000002300000,  -8.03520,
,,,-00.000002200000,  -8.03520,
,,,-00.000002100000,  -8.12160,
,,,-00.000002000000,  -8.03520,
,,,-00.000001900000,  -8.03520,
,,,-00.000001800000,  -8.03520,
,,,-00.000001700000,  -8.12160,
,,,-00.000001600000,  -8.12160,
,,,-00.000001500000,  -8.12160,
,,,-00.000001400000,  -8.03520,
,,,-00.000001300000,  -8.03520,
,,,-00.000001200000,  -7.94880,
,,,-00.000001100000,  -8.03520,
,,,-00.000001000000,  -7.94880,
,,,-00.000000900000,  -7.94880,
,,,-00.000000800000,  -8.12160,
,,,-00.000000700000,  -8.03520,
,,,-00.000000600000,  -8.03520,
,,,-00.000000500000,  -8.03520,
,,,-00.000000400000,  -8.03520,
,,,-00.000000300000,  -8.03520,
,,,-00.000000200000,  -8.03520,
,,,-00.000000100000,  -8.03520,
,,,-00.000000000000,  -8.03520,
,,,00.000000100000,  -8.03520,
,,,00.000000200000,  -8.03520,
,,,00.000000300000,  -8.03520,
,,,00.000000400000,  -7.94880,
,,,00.000000500000,  -8.03520,
,,,00.000000600000,  -7.94880,
,,,00.000000700000,  -6.82560,
,,,00.000000800000,  -7.43040,
,,,00.000000900000,  -7.68960,
,,,00.000001000000,  -7.77600,
,,,00.000001100000,  -7.68960,
,,,00.000001200000,  -7.68960,
,,,00.000001300000,  -7.60320,
,,,00.000001400000,  -7.68960,
,,,00.000001500000,  -7.68960,
,,,00.000001600000,  -7.51680,
,,,00.000001700000,  -7.43040,
,,,00.000001800000,  -7.34400,
,,,00.000001900000,  -7.25760,
,,,00.000002000000,  -7.25760,
,,,00.000002100000,  -7.17120,
,,,00.000002200000,  -7.08480,
,,,00.000002300000,  -6.99840,
,,,00.000002400000,  -6.99840,
,,,00.000002500000,  -6.99840,
,,,00.000002600000,  -6.82560,
,,,00.000002700000,  -6.65280,
,,,00.000002800000,  -6.73920,
,,,00.000002900000,  -6.56640,
,,,00.000003000000,  -6.48000,
,,,00.000003100000,  -6.56640,
,,,00.000003200000,  -6.56640,
,,,00.000003300000,  -6.48000,
,,,00.000003400000,  -6.39360,
,,,00.000003500000,  -6.39360,
,,,00.000003600000,  -6.22080,
,,,00.000003700000,  -6.22080,
,,,00.000003800000,  -6.13440,
,,,00.000003900000,  -5.96160,
,,,00.000004000000,  -5.96160,
,,,00.000004100000,  -6.04800,
,,,00.000004200000,  -5.87520,
,,,00.000004300000,  -5.87520,
,,,00.000004400000,  -5.78880,
,,,00.000004500000,  -5.70240,
,,,00.000004600000,  -5.70240,
,,,00.000004700000,  -5.61600,
,,,00.000004800000,  -5.61600,
,,,00.000004900000,  -5.52960,
,,,00.000005000000,  -5.44320,
,,,00.000005100000,  -5.44320,
,,,00.000005200000,  -5.35680,
,,,00.000005300000,  -5.35680,
,,,00.000005400000,  -5.35680,
,,,00.000005500000,  -5.27040,
,,,00.000005600000,  -5.18400,
,,,00.000005700000,  -5.18400,
,,,00.000005800000,  -5.01120,
,,,00.000005900000,  -5.01120,
,,,00.000006000000,  -4.92480,
,,,00.000006100000,  -4.92480,
,,,00.000006200000,  -4.75200,
,,,00.000006300000,  -4.83840,
,,,00.000006400000,  -4.66560,
,,,00.000006500000,  -4.66560,
,,,00.000006600000,  -4.57920,
,,,00.000006700000,  -4.49280,
,,,00.000006800000,  -4.57920,
,,,00.000006900000,  -4.49280,
,,,00.000007000000,  -4.40640,
,,,00.000007100000,  -4.32000,
,,,00.000007200000,  -4.32000,
,,,00.000007300000,  -4.32000,
,,,00.000007400000,  -4.32000,
,,,00.000007500000,  -4.14720,
,,,00.000007600000,  -4.06080,
,,,00.000007700000,  -4.14720,
,,,00.000007800000,  -3.97440,
,,,00.000007900000,  -4.06080,
,,,00.000008000000,  -3.97440,
,,,00.000008100000,  -3.88800,
,,,00.000008200000,  -3.97440,
,,,00.000008300000,  -3.88800,
,,,00.000008400000,  -3.88800,
,,,00.000008500000,  -3.62880,
,,,00.000008600000,  -3.71520,
,,,00.000008700000,  -3.71520,
,,,00.000008800000,  -3.54240,
,,,00.000008900000,  -3.45600,
,,,00.000009000000,  -3.45600,
,,,00.000009100000,  -3.45600,
,,,00.000009200000,  -3.36960,
,,,00.000009300000,  -3.36960,
,,,00.000009400000,  -3.36960,
,,,00.000009500000,  -3.28320,
,,,00.000009600000,  -3.36960,
,,,00.000009700000,  -3.19680,
,,,00.000009800000,  -3.11040,
,,,00.000009900000,  -3.02400,
,,,00.000010000000,  -3.11040,
,,,00.000010100000,  -2.93760,
,,,00.000010200000,  -2.93760,
,,,00.000010300000,  -2.85120,
,,,00.000010400000,  -2.76480,
,,,00.000010500000,  -2.93760,
,,,00.000010600000,  -2.76480,
,,,00.000010700000,  -2.85120,
,,,00.000010800000,  -2.67840,
,,,00.000010900000,  -2.59200,
,,,00.000011000000,  -2.59200,
,,,00.000011100000,  -2.67840,
,,,00.000011200000,  -2.50560,
,,,00.000011300000,  -2.50560,
,,,00.000011400000,  -2.41920,
,,,00.000011500000,  -2.33280,
,,,00.000011600000,  -2.41920,
,,,00.000011700000,  -2.33280,
,,,00.000011800000,  -2.33280,
,,,00.000011900000,  -2.33280,
,,,00.000012000000,  -2.16000,
,,,00.000012100000,  -2.07360,
,,,00.000012200000,  -2.16000,
,,,00.000012300000,  -2.16000,
,,,00.000012400000,  -2.07360,
,,,00.000012500000,  -2.07360,
,,,00.000012600000,  -1.81440,
,,,00.000012700000,  -1.98720,
,,,00.000012800000,  -1.90080,
,,,00.000012900000,  -1.81440,
,,,00.000013000000,  -1.81440,
,,,00.000013100000,  -1.81440,
,,,00.000013200000,  -1.72800,
,,,00.000013300000,  -1.72800,
,,,00.000013400000,  -1.64160,
,,,00.000013500000,  -1.64160,
,,,00.000013600000,  -1.72800,
,,,00.000013700000,  -1.55520,
,,,00.000013800000,  -1.46880,
,,,00.000013900000,  -1.46880,
,,,00.000014000000,  -1.46880,
,,,00.000014100000,  -1.38240,
,,,00.000014200000,  -1.38240,
,,,00.000014300000,  -1.29600,
,,,00.000014400000,  -1.29600,
,,,00.000014500000,  -1.29600,
,,,00.000014600000,  -1.20960,
,,,00.000014700000,  -1.12320,
,,,00.000014800000,  -1.12320,
,,,00.000014900000,  -1.12320,
,,,00.000015000000,  -1.12320,
,,,00.000015100000,  -0.95040,
,,,00.000015200000,  -1.03680,
,,,00.000015300000,  -0.95040,
,,,00.000015400000,  -1.03680,
,,,00.000015500000,  -1.03680,
,,,00.000015600000,  -0.86400,
,,,00.000015700000,  -0.86400,
,,,00.000015800000,  -0.86400,
,,,00.000015900000,  -0.77760,
,,,00.000016000000,  -0.69120,
,,,00.000016100000,  -0.77760,
,,,00.000016200000,  -0.69120,
,,,00.000016300000,  -0.60480,
,,,00.000016400000,  -0.69120,
,,,00.000016500000,  -0.51840,
,,,00.000016600000,  -0.51840,
,,,00.000016700000,  -0.51840,
,,,00.000016800000,  -0.43200,
,,,00.000016900000,  -0.51840,
,,,00.000017000000,  -0.34560,
,,,00.000017100000,  -0.43200,
,,,00.000017200000,  -0.43200,
,,,00.000017300000,  -0.34560,
,,,00.000017400000,  -0.17280,
,,,00.000017500000,  -0.08640,
,,,00.000017600000,  -0.25920,
,,,00.000017700000,  -0.17280,
,,,00.000017800000,  -0.17280,
,,,00.000017900000,  -0.08640,
,,,00.000018000000,  -0.08640,
,,,00.000018100000,   0.00000,
,,,00.000018200000,  -0.08640,
,,,00.000018300000,  -0.08640,
,,,00.000018400000,   0.08640,
,,,00.000018500000,   0.08640,
,,,00.000018600000,   0.17280,
,,,00.000018700000,   0.17280,
,,,00.000018800000,   0.17280,
,,,00.000018900000,   0.25920,
,,,00.000019000000,   0.17280,
,,,00.000019100000,   0.25920,
,,,00.000019200000,   0.25920,
,,,00.000019300000,   0.25920,
,,,00.000019400000,   0.25920,
,,,00.000019500000,   0.34560,
,,,00.000019600000,   0.43200,
,,,00.000019700000,   0.34560,
,,,00.000019800000,   0.51840,
,,,00.000019900000,   0.43200,
,,,00.000020000000,   0.34560,
,,,00.000020100000,   0.43200,
,,,00.000020200000,   0.60480,
,,,00.000020300000,   0.60480,
,,,00.000020400000,   0.60480,
,,,00.000020500000,   0.69120,
,,,00.000020600000,   0.77760,
,,,00.000020700000,   0.60480,
,,,00.000020800000,   0.77760,
,,,00.000020900000,   0.77760,
,,,00.000021000000,   0.77760,
,,,00.000021100000,   0.86400,
,,,00.000021200000,   0.77760,
,,,00.000021300000,   0.77760,
,,,00.000021400000,   0.95040,
,,,00.000021500000,   0.86400,
,,,00.000021600000,   0.95040,
,,,00.000021700000,   0.95040,
,,,00.000021800000,   0.95040,
,,,00.000021900000,   0.95040,
,,,00.000022000000,   1.03680,
,,,00.000022100000,   1.12320,
,,,00.000022200000,   1.03680,
,,,00.000022300000,   1.12320,
,,,00.000022400000,   1.12320,
,,,00.000022500000,   1.20960,
,,,00.000022600000,   1.20960,
,,,00.000022700000,   1.29600,
,,,00.000022800000,   1.29600,
,,,00.000022900000,   1.29600,
,,,00.000023000000,   1.20960,
,,,00.000023100000,   1.29600,
,,,00.000023200000,   1.38240,
,,,00.000023300000,   1.38240,
,,,00.000023400000,   1.38240,
,,,00.000023500000,   1.46880,
,,,00.000023600000,   1.46880,
,,,00.000023700000,   1.46880,
,,,00.000023800000,   1.46880,
,,,00.000023900000,   1.55520,
,,,00.000024000000,   1.55520,
,,,00.000024100000,   1.46880,
,,,00.000024200000,   1.64160,
,,,00.000024300000,   1.72800,
,,,00.000024400000,   1.55520,
,,,00.000024500000,   1.64160,
,,,00.000024600000,   1.72800,
,,,00.000024700000,   1.72800,
,,,00.000024800000,   1.64160,
,,,00.000024900000,   1.81440,
,,,00.000025000000,   1.81440,
,,,00.000025100000,   1.81440,
,,,00.000025200000,   1.81440,
,,,00.000025300000,   1.72800,
,,,00.000025400000,   1.81440,
,,,00.000025500000,   1.81440,
,,,00.000025600000,   1.98720,
,,,00.000025700000,   1.98720,
,,,00.000025800000,   1.90080,
,,,00.000025900000,   1.98720,
,,,00.000026000000,   1.98720,
,,,00.000026100000,   2.07360,
,,,00.000026200000,   2.07360,
,,,00.000026300000,   2.07360,
,,,00.000026400000,   2.16000,
,,,00.000026500000,   2.16000,
,,,00.000026600000,   2.16000,
,,,00.000026700000,   2.24640,
,,,00.000026800000,   2.24640,
,,,00.000026900000,   2.16000,
,,,00.000027000000,   2.16000,
,,,00.000027100000,   2.24640,
,,,00.000027200000,   2.24640,
,,,00.000027300000,   2.33280,
,,,00.000027400000,   2.33280,
,,,00.000027500000,   2.24640,
,,,00.000027600000,   2.33280,
,,,00.000027700000,   2.24640,
,,,00.000027800000,   2.41920,
,,,00.000027900000,   2.24640,
,,,00.000028000000,   2.41920,
,,,00.000028100000,   2.33280,
,,,00.000028200000,   2.50560,
,,,00.000028300000,   2.50560,
,,,00.000028400000,   2.41920,
,,,00.000028500000,   2.41920,
,,,00.000028600000,   2.59200,
,,,00.000028700000,   2.67840,
,,,00.000028800000,   2.67840,
,,,00.000028900000,   2.67840,
,,,00.000029000000,   2.67840,
,,,00.000029100000,   2.59200,
,,,00.000029200000,   2.67840,
,,,00.000029300000,   2.76480,
,,,00.000029400000,   2.67840,
,,,00.000029500000,   2.67840,
,,,00.000029600000,   2.67840,
,,,00.000029700000,   2.67840,
,,,00.000029800000,   2.76480,
,,,00.000029900000,   2.76480,
,,,00.000030000000,   2.85120,
,,,00.000030100000,   2.93760,
,,,00.000030200000,   2.76480,
,,,00.000030300000,   2.85120,
,,,00.000030400000,   2.85120,
,,,00.000030500000,   2.93760,
,,,00.000030600000,   2.93760,
,,,00.000030700000,   3.02400,
,,,00.000030800000,   3.02400,
,,,00.000030900000,   2.93760,
,,,00.000031000000,   3.02400,
,,,00.000031100000,   3.02400,
,,,00.000031200000,   3.02400,
,,,00.000031300000,   3.02400,
,,,00.000031400000,   3.02400,
,,,00.000031500000,   3.11040,
,,,00.000031600000,   3.02400,
,,,00.000031700000,   3.11040,
,,,00.000031800000,   3.11040,
,,,00.000031900000,   3.11040,
,,,00.000032000000,   3.19680,
,,,00.000032100000,   3.28320,
,,,00.000032200000,   3.11040,
,,,00.000032300000,   3.28320,
,,,00.000032400000,   3.36960,
,,,00.000032500000,   3.36960,
,,,00.000032600000,   3.36960,
,,,00.000032700000,   3.36960,
,,,00.000032800000,   3.19680,
,,,00.000032900000,   3.28320,
,,,00.000033000000,   3.28320,
,,,00.000033100000,   3.28320,
,,,00.000033200000,   3.36960,
,,,00.000033300000,   3.36960,
,,,00.000033400000,   3.45600,
,,,00.000033500000,   3.45600,
,,,00.000033600000,   3.45600,
,,,00.000033700000,   3.45600,
,,,00.000033800000,   3.54240,
,,,00.000033900000,   3.54240,
,,,00.000034000000,   3.45600,
,,,00.000034100000,   3.54240,
,,,00.000034200000,   3.71520,
,,,00.000034300000,   3.62880,
,,,00.000034400000,   3.62880,
,,,00.000034500000,   3.62880,
,,,00.000034600000,   3.62880,
,,,00.000034700000,   3.62880,
,,,00.000034800000,   3.71520,
,,,00.000034900000,   3.71520,
,,,00.000035000000,   3.71520,
,,,00.000035100000,   3.71520,
,,,00.000035200000,   3.62880,
,,,00.000035300000,   3.62880,
,,,00.000035400000,   3.62880,
,,,00.000035500000,   3.71520,
,,,00.000035600000,   3.71520,
,,,00.000035700000,   3.71520,
,,,00.000035800000,   3.71520,
,,,00.000035900000,   3.80160,
,,,00.000036000000,   3.80160,
,,,00.000036100000,   3.80160,
,,,00.000036200000,   3.80160,
,,,00.000036300000,   3.88800,
,,,00.000036400000,   3.97440,
,,,00.000036500000,   3.88800,
,,,00.000036600000,   3.97440,
,,,00.000036700000,   3.97440,
,,,00.000036800000,   3.97440,
,,,00.000036900000,   3.97440,
,,,00.000037000000,   3.97440,
,,,00.000037100000,   3.97440,
,,,00.000037200000,   4.06080,
,,,00.000037300000,   3.97440,
,,,00.000037400000,   4.06080,
,,,00.000037500000,   4.06080,
,,,00.000037600000,   4.06080,
,,,00.000037700000,   4.06080,
,,,00.000037800000,   4.14720,
,,,00.000037900000,   4.06080,
,,,00.000038000000,   4.06080,
,,,00.000038100000,   4.06080,
,,,00.000038200000,   4.23360,
,,,00.000038300000,   4.14720,
,,,00.000038400000,   4.23360,
,,,00.000038500000,   4.32000,
,,,00.000038600000,   4.32000,
,,,00.000038700000,   4.23360,
,,,00.000038800000,   4.23360,
,,,00.000038900000,   4.32000,
,,,00.000039000000,   4.32000,
,,,00.000039100000,   4.23360,
,,,00.000039200000,   4.23360,
,,,00.000039300000,   4.32000,
,,,00.000039400000,   4.32000,
,,,00.000039500000,   4.23360,
,,,00.000039600000,   4.32000,
,,,00.000039700000,   4.23360,
,,,00.000039800000,   4.40640,
,,,00.000039900000,   4.32000,
,,,00.000040000000,   4.40640,
,,,00.000040100000,   4.32000,
,,,00.000040200000,   4.32000,
,,,00.000040300000,   4.40640,
,,,00.000040400000,   4.40640,
,,,00.000040500000,   4.40640,
,,,00.000040600000,   4.40640,
,,,00.000040700000,   4.40640,
,,,00.000040800000,   4.32000,
,,,00.000040900000,   4.49280,
,,,00.000041000000,   4.57920,
,,,00.000041100000,   4.57920,
,,,00.000041200000,   4.49280,
,,,00.000041300000,   4.57920,
,,,00.000041400000,   4.57920,
,,,00.000041500000,   4.49280,
,,,00.000041600000,   4.49280,
,,,00.000041700000,   4.57920,
,,,00.000041800000,   4.49280,
,,,00.000041900000,   4.57920,
,,,00.000042000000,   4.57920,
,,,00.000042100000,   4.57920,
,,,00.000042200000,   4.66560,
,,,00.000042300000,   4.66560,
,,,00.000042400000,   4.66560,
,,,00.000042500000,   4.66560,
,,,00.000042600000,   4.75200,
,,,00.000042700000,   4.66560,
,,,00.000042800000,   4.66560,
,,,00.000042900000,   4.57920,
,,,00.000043000000,   4.66560,
,,,00.000043100000,   4.75200,
,,,00.000043200000,   4.75200,
,,,00.000043300000,   4.66560,
,,,00.000043400000,   4.75200,
,,,00.000043500000,   4.75200,
,,,00.000043600000,   4.83840,
,,,00.000043700000,   4.83840,
,,,00.000043800000,   4.83840,
,,,00.000043900000,   4.83840,
,,,00.000044000000,   4.83840,
,,,00.000044100000,   4.92480,
,,,00.000044200000,   4.75200,
,,,00.000044300000,   4.83840,
,,,00.000044400000,   4.92480,
,,,00.000044500000,   4.92480,
,,,00.000044600000,   4.83840,
,,,00.000044700000,   4.92480,
,,,00.000044800000,   5.01120,
,,,00.000044900000,   5.01120,
,,,00.000045000000,   4.92480,
,,,00.000045100000,   4.92480,
,,,00.000045200000,   4.83840,
,,,00.000045300000,   4.83840,
,,,00.000045400000,   5.01120,
,,,00.000045500000,   5.01120,
,,,00.000045600000,   4.92480,
,,,00.000045700000,   5.09760,
,,,00.000045800000,   5.01120,
,,,00.000045900000,   5.01120,
,,,00.000046000000,   5.01120,
,,,00.000046100000,   5.09760,
,,,00.000046200000,   5.09760,
,,,00.000046300000,   5.18400,
,,,00.000046400000,   5.09760,
,,,00.000046500000,   5.09760,
,,,00.000046600000,   5.09760,
,,,00.000046700000,   5.01120,
,,,00.000046800000,   5.09760,
,,,00.000046900000,   5.09760,
,,,00.000047000000,   5.01120,
,,,00.000047100000,   5.27040,
,,,00.000047200000,   5.18400,
,,,00.000047300000,   5.09760,
,,,00.000047400000,   5.18400,
,,,00.000047500000,   5.18400,
,,,00.000047600000,   5.18400,
,,,00.000047700000,   5.18400,
,,,00.000047800000,   5.18400,
,,,00.000047900000,   5.09760,
,,,00.000048000000,   5.09760,
,,,00.000048100000,   5.27040,
,,,00.000048200000,   5.27040,
,,,00.000048300000,   5.27040,
,,,00.000048400000,   5.27040,
,,,00.000048500000,   5.27040,
,,,00.000048600000,   5.35680,
,,,00.000048700000,   5.18400,
,,,00.000048800000,   5.35680,
,,,00.000048900000,   5.27040,
,,,00.000049000000,   5.27040,
,,,00.000049100000,   5.27040,
,,,00.000049200000,   5.35680,
,,,00.000049300000,   5.35680,
,,,00.000049400000,   5.35680,
,,,00.000049500000,   5.35680,
,,,00.000049600000,   5.35680,
,,,00.000049700000,   5.44320,
,,,00.000049800000,   5.35680,
,,,00.000049900000,   5.35680,
,,,00.000050000000,   5.44320,
,,,00.000050100000,   5.35680,
,,,00.000050200000,   5.52960,
,,,00.000050300000,   5.44320,
,,,00.000050400000,   5.35680,
,,,00.000050500000,   5.44320,
,,,00.000050600000,   5.35680,
,,,00.000050700000,   5.44320,
,,,00.000050800000,   5.44320,
,,,00.000050900000,   5.44320,
,,,00.000051000000,   5.44320,
,,,00.000051100000,   5.44320,
,,,00.000051200000,   5.44320,
,,,00.000051300000,   5.52960,
,,,00.000051400000,   5.44320,
,,,00.000051500000,   5.44320,
,,,00.000051600000,   5.52960,
,,,00.000051700000,   5.44320,
,,,00.000051800000,   5.52960,
,,,00.000051900000,   5.52960,
,,,00.000052000000,   5.52960,
,,,00.000052100000,   5.52960,
,,,00.000052200000,   5.61600,
,,,00.000052300000,   5.52960,
,,,00.000052400000,   5.70240,
,,,00.000052500000,   5.61600,
,,,00.000052600000,   5.52960,
,,,00.000052700000,   5.52960,
,,,00.000052800000,   5.52960,
,,,00.000052900000,   5.52960,
